﻿<?xml version="1.0"?>
<!-- Generator: Adobe Illustrator 10.0, SVG Export Plug-In . SVG Version: 3.0.0 Build 77)  -->
<!DOCTYPE svg PUBLIC "-//W3C//DTD SVG 1.0//EN" "http://www.w3.org/TR/2001/REC-SVG-20010904/DTD/svg10.dtd"[
	<!ENTITY ns_flows "http://ns.adobe.com/Flows/1.0/">
	<!ENTITY ns_svg "http://www.w3.org/2000/svg">
	<!ENTITY ns_xlink "http://www.w3.org/1999/xlink">
	<!ENTITY st0 "fill:none;stroke:#000000;stroke-linecap:round;stroke-linejoin:round;">
	<!ENTITY st1 "fill:none;stroke:#000000;stroke-width:0.6;stroke-linecap:round;stroke-linejoin:round;">
	<!ENTITY st2 "font-size:6px;">
	<!ENTITY st3 "font-family:'Arial';">
	<!ATTLIST svg
		ewd:ver CDATA #IMPLIED
		xmlns:ewd CDATA #FIXED "http://shcl.co.jp/ewd"
		xmlns:a CDATA #FIXED "http://ns.adobe.com/AdobeSVGViewerExtensions/3.0/">
	<!ATTLIST g
		ewd:pinNo CDATA #IMPLIED>
]>
<svg width="57.374" height="68.706" viewBox="0 0 57.374 68.706" style="overflow:visible;enable-background:new 0 0 57.374 68.706" xml:space="preserve" onload="call_execInitLoadProc_svg('connector')" ewd:ver="L2.1.2.7" xmlns="&ns_svg;" xmlns:ewd="http://shcl.co.jp/ewd" xmlns:a="http://ns.adobe.com/AdobeSVGViewerExtensions/3.0/" xmlns:xlink="&ns_xlink;">
<script type="text/javascript" xlink:href="../../../../../system/js/ewd/fig/svgfig.js"/>
<g id="レイヤー_1">
	<path style="&st1;" d="M11.832,59.707c0,3.129,2.537,5.666,5.666,5.666"/>
	<path style="&st0;" d="M8.999,59.707c0,4.693,3.805,8.499,8.499,8.499"/>
	<path style="&st1;" d="M17.497,3.333c-3.129,0-5.666,2.537-5.666,5.666"/>
	<path style="&st0;" d="M17.497,0.5c-4.693,0-8.499,3.805-8.499,8.499"/>
	<path style="&st0;" d="M0.5,51.208c0,1.564,1.269,2.833,2.833,2.833"/>
	<path style="&st0;" d="M3.333,14.665c-1.564,0-2.833,1.268-2.833,2.833"/>
	<path style="&st1;" d="M7.341,45.817c0.966-0.161,1.656-0.975,1.656-1.955"/>
	<path style="&st1;" d="M8.999,24.843c0-0.98-0.69-1.795-1.657-1.956"/>
	<path style="&st1;" d="M22.313,37.894v12.748h29.745V37.894H22.313"/>
	<path style="&st1;" d="M32.228,37.894v12.748"/>
	<path style="&st1;" d="M42.143,37.894v12.748"/>
	<path style="&st1;" d="M27.979,12.398v22.663h18.414V12.398H27.979"/>
	<path style="&st1;" d="M27.979,23.729h18.414"/>
	<path style="&st1;" d="M25.996,10.416v25.496H20.33v16.714h33.711V35.911h-5.666V10.416H25.996"/>
	<path style="&st1;" d="M32.936,10.416v-4.25h8.499v4.25"/>
	<path style="&st1;" d="M32.936,52.625v4.249h8.499v-4.249"/>
	<path style="&st1;" d="M25.996,21.605h-8.499v4.249h8.499"/>
	<path style="&st0;" d="M51.208,0.5v32.578h5.666v23.796h-9.773"/>
	<path style="&st1;" d="M47.101,52.625v4.249"/>
	<path style="&st0;" d="M47.101,56.874v11.332"/>
	<path style="&st1;" d="M47.101,65.373H17.497"/>
	<path style="&st1;" d="M11.832,8.999v50.708"/>
	<path style="&st1;" d="M17.497,3.333h33.711"/>
	<path style="&st0;" d="M47.101,68.206H17.497"/>
	<path style="&st0;" d="M17.497,0.5h33.711"/>
	<path style="&st0;" d="M8.999,14.665H3.333"/>
	<path style="&st0;" d="M8.999,54.042H3.333"/>
	<path style="&st0;" d="M0.5,17.498v33.711"/>
	<path style="&st1;" d="M4.749,22.455v23.796"/>
	<path style="&st1;" d="M7.341,45.817L0.5,46.959"/>
	<path style="&st1;" d="M0.5,21.747l6.841,1.142"/>
	<path style="&st1;" d="M8.999,14.665v39.377"/>
	<path style="&st0;" d="M8.999,54.042v5.666"/>
	<path style="&st0;" d="M8.999,8.999v5.666"/>
	<path style="&st1;" d="M4.749,31.52h2.833v5.666H4.749"/>
	<path style="&st1;" d="M4.749,32.937H2.766v2.833h1.983"/>
	<path style="&st1;" d="M32.228,37.894l9.915,12.748"/>
	<path style="&st1;" d="M42.143,37.894l-9.915,12.748"/>
	<g ewd:pinNo="3">
		<text transform="matrix(1 0 0 1 35.2676 19.9839)"><tspan x="0" y="0" style="&st3; &st2;">3</tspan></text>
	</g>
	<g ewd:pinNo="5">
		<text transform="matrix(1 0 0 1 35.2676 31.3154)"><tspan x="0" y="0" style="&st3; &st2;">5</tspan></text>
	</g>
	<g ewd:pinNo="1">
		<text transform="matrix(1 0 0 1 25.5723 46.188)"><tspan x="0" y="0" style="&st3; &st2;">1</tspan></text>
	</g>
	<g ewd:pinNo="2">
		<text transform="matrix(1 0 0 1 45.5122 46.188)"><tspan x="0" y="0" style="&st3; &st2;">2</tspan></text>
	</g>
</g>
</svg>