﻿<?xml version="1.0"?>
<!-- Generator: Adobe Illustrator 10.0, SVG Export Plug-In . SVG Version: 3.0.0 Build 77)  -->
<!DOCTYPE svg PUBLIC "-//W3C//DTD SVG 1.0//EN" "http://www.w3.org/TR/2001/REC-SVG-20010904/DTD/svg10.dtd"[
	<!ENTITY ns_flows "http://ns.adobe.com/Flows/1.0/">
	<!ENTITY ns_svg "http://www.w3.org/2000/svg">
	<!ENTITY ns_xlink "http://www.w3.org/1999/xlink">
	<!ENTITY st0 "fill:none;stroke:#000000;stroke-linecap:round;stroke-linejoin:round;">
	<!ENTITY st1 "fill:none;stroke:#000000;stroke-width:0.6;stroke-linecap:round;stroke-linejoin:round;">
	<!ENTITY st2 "font-size:6px;">
	<!ENTITY st3 "font-family:'Arial';">
	<!ATTLIST svg
		ewd:ver CDATA #IMPLIED
		xmlns:ewd CDATA #FIXED "http://shcl.co.jp/ewd"
		xmlns:a CDATA #FIXED "http://ns.adobe.com/AdobeSVGViewerExtensions/3.0/">
	<!ATTLIST g
		ewd:pinNo CDATA #IMPLIED>
]>
<svg width="111.198" height="48.875" viewBox="0 0 111.198 48.875" style="overflow:visible;enable-background:new 0 0 111.198 48.875" xml:space="preserve" onload="call_execInitLoadProc_svg('connector')" ewd:ver="L2.1.2.7" xmlns="&ns_svg;" xmlns:ewd="http://shcl.co.jp/ewd" xmlns:a="http://ns.adobe.com/AdobeSVGViewerExtensions/3.0/" xmlns:xlink="&ns_xlink;">
<script type="text/javascript" xlink:href="../../../../../system/js/ewd/fig/svgfig.js"/>
<g id="レイヤー_1">
	<path style="&st0;" d="M3.163,4.503c-1.708,1.068-2.66,2.787-2.66,4.802"/>
	<path style="&st0;" d="M12.001,0.5c-1.669,0-3.089,0.408-4.504,1.292"/>
	<path style="&st0;" d="M110.698,9.305c0-2.016-0.953-3.735-2.662-4.804"/>
	<path style="&st0;" d="M103.701,1.792c-1.416-0.884-2.835-1.292-4.504-1.292"/>
	<path style="&st1;" d="M5.316,46.959h100.566"/>
	<path style="&st1;" d="M87.469,18.914v-8.499h4.816v8.499"/>
	<path style="&st1;" d="M0.5,10.416h4.816v8.499"/>
	<path style="&st1;" d="M110.698,10.416h-4.816v8.499"/>
	<path style="&st1;" d="M16.647,18.914v-8.499h4.815v8.499"/>
	<path style="&st1;" d="M2.483,20.896h99.15"/>
	<path style="&st1;" d="M2.483,30.812h106.232"/>
	<path style="&st1;" d="M0.5,42.71h110.198"/>
	<path style="&st1;" d="M9.565,40.727h99.15"/>
	<path style="&st1;" d="M0.5,18.914h110.198"/>
	<path style="&st1;" d="M9.565,40.727v-9.915"/>
	<path style="&st1;" d="M23.729,40.727v-9.915"/>
	<path style="&st1;" d="M37.894,40.727v-9.915"/>
	<path style="&st1;" d="M52.058,40.727v-9.915"/>
	<path style="&st1;" d="M66.222,40.727v-9.915"/>
	<path style="&st1;" d="M80.387,40.727v-9.915"/>
	<path style="&st1;" d="M94.551,40.727v-9.915"/>
	<path style="&st1;" d="M108.715,40.727v-9.915"/>
	<path style="&st1;" d="M2.483,30.812v-9.916"/>
	<path style="&st1;" d="M16.647,30.812v-9.916"/>
	<path style="&st1;" d="M30.812,30.812v-9.916"/>
	<path style="&st1;" d="M44.976,30.812v-9.916"/>
	<path style="&st1;" d="M59.14,30.812v-9.916"/>
	<path style="&st1;" d="M73.304,30.812v-9.916"/>
	<path style="&st1;" d="M87.469,30.812v-9.916"/>
	<path style="&st1;" d="M101.633,30.812v-9.916"/>
	<path style="&st1;" d="M3.899,32.228v7.083h4.25v-7.083H3.899"/>
	<path style="&st0;" d="M110.698,9.305v39.071"/>
	<path style="&st0;" d="M0.5,9.305v39.071"/>
	<path style="&st1;" d="M103.049,22.313v7.082h4.25v-7.082H103.049"/>
	<path style="&st1;" d="M32.228,18.914V0.5"/>
	<path style="&st1;" d="M71.888,18.914V0.5"/>
	<path style="&st1;" d="M35.061,18.914V3.333h33.994v15.581"/>
	<path style="&st1;" d="M105.882,48.375V42.71"/>
	<path style="&st1;" d="M39.027,11.832v7.083"/>
	<path style="&st0;" d="M0.5,48.375h110.198"/>
	<path style="&st1;" d="M65.089,11.832v7.083"/>
	<path style="&st1;" d="M37.044,11.832V5.316h30.028v6.516"/>
	<path style="&st1;" d="M37.044,11.832h30.028"/>
	<path style="&st1;" d="M5.316,48.375V42.71"/>
	<path style="&st1;" d="M40.443,18.914v-5.666h23.229v5.666"/>
	<path style="&st0;" d="M103.701,1.792l4.334,2.711"/>
	<path style="&st0;" d="M3.163,4.503l4.334-2.711"/>
	<path style="&st0;" d="M12.001,0.5h87.195"/>
	<path style="&st1;" d="M59.423,11.832v-1.416l1.417-1.417h4.25v2.833"/>
	<path style="&st1;" d="M44.692,11.832v-1.416l-1.417-1.417h-4.249v2.833"/>
	<path style="&st1;" d="M47.525,11.832V7.583h9.065v4.249"/>
	<path style="&st1;" d="M44.692,10.416h2.833"/>
	<path style="&st1;" d="M56.59,10.416h2.833"/>
	<g ewd:pinNo="1">
		<text transform="matrix(1 0 0 1 7.8965 28.0493)"><tspan x="0" y="0" style="&st3; &st2;">1</tspan></text>
	</g>
	<g ewd:pinNo="2">
		<text transform="matrix(1 0 0 1 22.0605 28.0493)"><tspan x="0" y="0" style="&st3; &st2;">2</tspan></text>
	</g>
	<g ewd:pinNo="3">
		<text transform="matrix(1 0 0 1 36.2251 28.0493)"><tspan x="0" y="0" style="&st3; &st2;">3</tspan></text>
	</g>
	<g ewd:pinNo="4">
		<text transform="matrix(1 0 0 1 50.3892 28.0493)"><tspan x="0" y="0" style="&st3; &st2;">4</tspan></text>
	</g>
	<g ewd:pinNo="5">
		<text transform="matrix(1 0 0 1 64.5537 28.0493)"><tspan x="0" y="0" style="&st3; &st2;">5</tspan></text>
	</g>
	<g ewd:pinNo="6">
		<text transform="matrix(1 0 0 1 78.7178 28.0493)"><tspan x="0" y="0" style="&st3; &st2;">6</tspan></text>
	</g>
	<g ewd:pinNo="7">
		<text transform="matrix(1 0 0 1 92.8823 28.0493)"><tspan x="0" y="0" style="&st3; &st2;">7</tspan></text>
	</g>
	<g ewd:pinNo="8">
		<text transform="matrix(1 0 0 1 14.9785 37.9644)"><tspan x="0" y="0" style="&st3; &st2;">8</tspan></text>
	</g>
	<g ewd:pinNo="9">
		<text transform="matrix(1 0 0 1 29.1431 37.9644)"><tspan x="0" y="0" style="&st3; &st2;">9</tspan></text>
	</g>
	<g ewd:pinNo="10">
		<text transform="matrix(1 0 0 1 41.3447 37.9644)"><tspan x="0" y="0" style="&st3; &st2;">10</tspan></text>
	</g>
	<g ewd:pinNo="11">
		<text transform="matrix(1 0 0 1 56.0283 37.9644)"><tspan x="0" y="0" style="&st3; &st2;">11</tspan></text>
	</g>
	<g ewd:pinNo="12">
		<text transform="matrix(1 0 0 1 69.6733 37.9644)"><tspan x="0" y="0" style="&st3; &st2;">12</tspan></text>
	</g>
	<g ewd:pinNo="13">
		<text transform="matrix(1 0 0 1 83.8379 37.9644)"><tspan x="0" y="0" style="&st3; &st2;">13</tspan></text>
	</g>
	<g ewd:pinNo="14">
		<text transform="matrix(1 0 0 1 98.002 37.9644)"><tspan x="0" y="0" style="&st3; &st2;">14</tspan></text>
	</g>
</g>
</svg>