﻿<?xml version="1.0"?>
<!-- Generator: Adobe Illustrator 10.0, SVG Export Plug-In . SVG Version: 3.0.0 Build 77)  -->
<!DOCTYPE svg PUBLIC "-//W3C//DTD SVG 1.0//EN" "http://www.w3.org/TR/2001/REC-SVG-20010904/DTD/svg10.dtd"[
	<!ENTITY ns_flows "http://ns.adobe.com/Flows/1.0/">
	<!ENTITY ns_svg "http://www.w3.org/2000/svg">
	<!ENTITY ns_xlink "http://www.w3.org/1999/xlink">
	<!ENTITY st0 "fill:none;stroke:#000000;stroke-linecap:round;stroke-linejoin:round;">
	<!ENTITY st1 "fill:none;stroke:#000000;stroke-width:0.6;stroke-linecap:round;stroke-linejoin:round;">
	<!ENTITY st2 "font-size:6px;">
	<!ENTITY st3 "font-family:'Arial';">
	<!ATTLIST svg
		ewd:ver CDATA #IMPLIED
		xmlns:ewd CDATA #FIXED "http://shcl.co.jp/ewd"
		xmlns:a CDATA #FIXED "http://ns.adobe.com/AdobeSVGViewerExtensions/3.0/">
	<!ATTLIST g
		ewd:pinNo CDATA #IMPLIED>
]>
<svg width="51.991" height="51.992" viewBox="0 0 51.991 51.992" style="overflow:visible;enable-background:new 0 0 51.991 51.992" xml:space="preserve" onload="call_execInitLoadProc_svg('connector')" ewd:ver="L2.1.2.7" xmlns="&ns_svg;" xmlns:ewd="http://shcl.co.jp/ewd" xmlns:a="http://ns.adobe.com/AdobeSVGViewerExtensions/3.0/" xmlns:xlink="&ns_xlink;">
<script type="text/javascript" xlink:href="../../../../../system/js/ewd/fig/svgfig.js"/>
<g id="レイヤー_1">
	<path style="&st1;" d="M48.256,30.245c0.563-2.952,0.563-5.546,0-8.499"/>
	<path style="&st1;" d="M30.245,16.081c-2.823-1.21-5.676-1.21-8.499,0"/>
	<path style="&st1;" d="M21.747,35.911c2.823,1.209,5.675,1.209,8.499,0"/>
	<path style="&st1;" d="M30.245,11.832c-2.903-0.871-5.596-0.871-8.499,0"/>
	<path style="&st1;" d="M21.747,40.16c2.903,0.871,5.595,0.871,8.499,0"/>
	<path style="&st0;" d="M51.491,25.996c0-14.08-11.415-25.496-25.496-25.496"/>
	<path style="&st0;" d="M25.996,0.5C11.915,0.5,0.5,11.916,0.5,25.996"/>
	<path style="&st0;" d="M0.5,25.996c0,14.081,11.415,25.496,25.496,25.496"/>
	<path style="&st0;" d="M25.996,51.492c14.081,0,25.496-11.415,25.496-25.496"/>
	<path style="&st1;" d="M21.747,48.257c2.952,0.563,5.546,0.563,8.499,0"/>
	<path style="&st1;" d="M28.829,5.512c-1.979-0.274-3.687-0.274-5.666,0"/>
	<path style="&st1;" d="M23.163,46.48c1.979,0.273,3.687,0.273,5.666,0"/>
	<path style="&st1;" d="M16.789,7.478c-4.948,2.459-8.332,6.245-10.224,11.437"/>
	<path style="&st1;" d="M30.245,3.735c-2.953-0.563-5.546-0.563-8.499,0"/>
	<path style="&st1;" d="M5.511,23.163c-0.274,1.979-0.274,3.686,0,5.666"/>
	<path style="&st1;" d="M46.48,28.829c0.274-1.979,0.274-3.686,0-5.666"/>
	<path style="&st1;" d="M45.426,18.914c-1.892-5.191-5.276-8.977-10.224-11.437"/>
	<path style="&st1;" d="M3.735,21.747c-0.564,2.953-0.564,5.546,0,8.499"/>
	<path style="&st1;" d="M6.565,33.078c1.892,5.191,5.276,8.977,10.224,11.437"/>
	<path style="&st1;" d="M35.203,44.514c4.947-2.459,8.331-6.245,10.224-11.436"/>
	<path style="&st1;" d="M21.747,35.911v-2.833"/>
	<path style="&st1;" d="M11.832,18.914v14.164h9.915V18.914H11.832"/>
	<path style="&st1;" d="M30.245,18.914v14.164h9.915V18.914H30.245"/>
	<path style="&st1;" d="M3.735,21.747h8.096"/>
	<path style="&st1;" d="M30.245,11.832V3.735"/>
	<path style="&st1;" d="M21.747,11.832V3.735"/>
	<path style="&st1;" d="M30.245,48.257V40.16"/>
	<path style="&st1;" d="M3.735,30.245h8.096"/>
	<path style="&st1;" d="M40.16,21.747h8.096"/>
	<path style="&st1;" d="M40.16,30.245h8.096"/>
	<path style="&st1;" d="M21.747,48.257V40.16"/>
	<path style="&st1;" d="M16.789,18.914V7.478"/>
	<path style="&st1;" d="M6.565,18.914h5.266"/>
	<path style="&st1;" d="M35.203,18.914V7.478"/>
	<path style="&st1;" d="M30.245,18.914v-2.833"/>
	<path style="&st1;" d="M45.426,18.914H40.16"/>
	<path style="&st1;" d="M16.789,33.078v11.436"/>
	<path style="&st1;" d="M6.565,33.078h5.266"/>
	<path style="&st1;" d="M35.203,33.078v11.436"/>
	<path style="&st1;" d="M45.426,33.078H40.16"/>
	<path style="&st1;" d="M21.747,18.914v-2.833"/>
	<path style="&st1;" d="M30.245,33.078v2.833"/>
	<g ewd:pinNo="1">
		<text transform="matrix(1 0 0 1 15.293 28.1079)"><tspan x="0" y="0" style="&st3; &st2;">1</tspan></text>
	</g>
	<g ewd:pinNo="2">
		<text transform="matrix(1 0 0 1 33.7065 28.1079)"><tspan x="0" y="0" style="&st3; &st2;">2</tspan></text>
	</g>
</g>
</svg>