﻿<?xml version="1.0"?>
<!-- Generator: Adobe Illustrator 10.0, SVG Export Plug-In . SVG Version: 3.0.0 Build 77)  -->
<!DOCTYPE svg PUBLIC "-//W3C//DTD SVG 1.0//EN" "http://www.w3.org/TR/2001/REC-SVG-20010904/DTD/svg10.dtd"[
	<!ENTITY ns_flows "http://ns.adobe.com/Flows/1.0/">
	<!ENTITY ns_svg "http://www.w3.org/2000/svg">
	<!ENTITY ns_xlink "http://www.w3.org/1999/xlink">
	<!ENTITY st0 "fill:none;stroke:#000000;stroke-linecap:round;stroke-linejoin:round;">
	<!ENTITY st1 "fill:none;stroke:#000000;stroke-width:0.6;stroke-linecap:round;stroke-linejoin:round;">
	<!ENTITY st2 "font-size:6px;">
	<!ENTITY st3 "font-family:'Arial';">
	<!ATTLIST svg
		ewd:ver CDATA #IMPLIED
		xmlns:ewd CDATA #FIXED "http://shcl.co.jp/ewd"
		xmlns:a CDATA #FIXED "http://ns.adobe.com/AdobeSVGViewerExtensions/3.0/">
	<!ATTLIST g
		ewd:pinNo CDATA #IMPLIED>
]>
<svg width="55.58" height="52.7" viewBox="0 0 55.58 52.7" style="overflow:visible;enable-background:new 0 0 55.58 52.7" xml:space="preserve" onload="call_execInitLoadProc_svg('connector')" ewd:ver="L2.1.2.7" xmlns="&ns_svg;" xmlns:ewd="http://shcl.co.jp/ewd" xmlns:a="http://ns.adobe.com/AdobeSVGViewerExtensions/3.0/" xmlns:xlink="&ns_xlink;">
<script type="text/javascript" xlink:href="../../../../../system/js/ewd/fig/svgfig.js"/>
<g id="レイヤー_1">
	<path style="&st1;" d="M23.21,47.242h5.666"/>
	<path style="&st1;" d="M23.21,45.801v3.212"/>
	<path style="&st1;" d="M28.876,45.801v3.212"/>
	<path style="&st1;" d="M19.669,49.013h12.748"/>
	<path style="&st1;" d="M19.669,47.897V52.2"/>
	<path style="&st1;" d="M32.417,47.897V52.2"/>
	<path style="&st0;" d="M12.587,45.271v4.805"/>
	<path style="&st0;" d="M39.499,45.271v4.805"/>
	<path style="&st0;" d="M14.711,52.2h22.663"/>
	<path style="&st1;" d="M7.346,36.619H44.74"/>
	<path style="&st1;" d="M31,12.54h2.833"/>
	<path style="&st1;" d="M33.833,22.455h9.915"/>
	<path style="&st1;" d="M21.085,22.455H31"/>
	<path style="&st1;" d="M35.958,9.707h5.666"/>
	<path style="&st1;" d="M23.21,9.707h5.666"/>
	<path style="&st1;" d="M10.462,9.707h5.666"/>
	<path style="&st1;" d="M18.253,12.54h2.833"/>
	<path style="&st1;" d="M8.338,22.455h9.915"/>
	<path style="&st1;" d="M18.253,11.832V32.37"/>
	<path style="&st1;" d="M33.833,11.832V32.37"/>
	<path style="&st1;" d="M21.085,11.832V32.37"/>
	<path style="&st1;" d="M31,11.832V32.37"/>
	<path style="&st0;" d="M39.499,45.271c1.511-0.125,2.785-0.247,4.292-0.411"/>
	<path style="&st1;" d="M12.587,45.271c9.44,0.779,17.472,0.779,26.912,0"/>
	<path style="&st1;" d="M28.167,3.347c-1.494-0.019-2.755-0.019-4.249,0"/>
	<path style="&st0;" d="M23.918,3.347c-2.242,0.029-4.135,0.09-6.374,0.207"/>
	<path style="&st1;" d="M32.417,47.897c0-1.173-0.951-2.125-2.125-2.125"/>
	<path style="&st1;" d="M30.292,45.772c-0.019,0-0.035,0-0.054,0.001"/>
	<path style="&st1;" d="M21.848,45.772c-1.173-0.03-2.149,0.897-2.179,2.071"/>
	<path style="&st1;" d="M19.669,47.843c0,0.019,0,0.035,0,0.054"/>
	<path style="&st0;" d="M37.375,52.2c1.173,0,2.125-0.951,2.125-2.125"/>
	<path style="&st0;" d="M12.587,50.075c0,1.173,0.951,2.125,2.125,2.125"/>
	<path style="&st0;" d="M34.542,3.554c-2.239-0.116-4.132-0.178-6.374-0.207"/>
	<path style="&st0;" d="M14.711,3.727c-2.259,0.157-4.165,0.327-6.416,0.573"/>
	<path style="&st0;" d="M51.524,22.809c-0.069-4.147-0.322-7.646-0.85-11.759"/>
	<path style="&st1;" d="M44.74,36.619c1.473,0,2.686-1.105,2.821-2.572"/>
	<path style="&st1;" d="M4.525,34.047c0.135,1.467,1.348,2.573,2.821,2.573"/>
	<path style="&st0;" d="M8.295,4.299c-3.633,0.396-6.417,3.125-6.883,6.75"/>
	<path style="&st0;" d="M1.412,11.05c-1.215,9.462-1.215,17.598,0,27.06"/>
	<path style="&st0;" d="M1.412,38.109c0.466,3.625,3.25,6.355,6.884,6.751"/>
	<path style="&st0;" d="M8.295,44.86c1.507,0.165,2.781,0.287,4.292,0.412"/>
	<path style="&st0;" d="M43.791,44.86c3.633-0.396,6.417-3.125,6.883-6.75"/>
	<path style="&st0;" d="M50.675,38.109c0.528-4.114,0.781-7.612,0.85-11.759"/>
	<path style="&st0;" d="M50.675,11.05c-0.466-3.625-3.25-6.355-6.884-6.751"/>
	<path style="&st0;" d="M43.791,4.299c-2.252-0.246-4.157-0.416-6.417-0.573"/>
	<path style="&st1;" d="M4.924,37.656c0.254,1.977,1.771,3.467,3.753,3.684"/>
	<path style="&st1;" d="M43.409,41.341c1.982-0.216,3.501-1.707,3.755-3.685"/>
	<path style="&st1;" d="M47.162,11.503c-0.254-1.978-1.772-3.467-3.754-3.684"/>
	<path style="&st1;" d="M8.677,7.817c-1.982,0.217-3.501,1.707-3.755,3.686"/>
	<path style="&st1;" d="M4.924,11.503c-1.174,9.146-1.174,17.008,0,26.153"/>
	<path style="&st1;" d="M8.677,41.341c12.164,1.328,22.568,1.328,34.731,0"/>
	<path style="&st1;" d="M47.162,37.656c1.174-9.146,1.174-17.008,0-26.153"/>
	<path style="&st1;" d="M43.409,7.817C31.246,6.49,20.84,6.49,8.677,7.817"/>
	<path style="&st1;" d="M18.253,11.832c0-1.173-0.952-2.125-2.125-2.125"/>
	<path style="&st1;" d="M23.21,9.707c-1.173,0-2.125,0.951-2.125,2.125"/>
	<path style="&st1;" d="M31,11.832c0-1.173-0.951-2.125-2.125-2.125"/>
	<path style="&st1;" d="M35.958,9.707c-1.173,0-2.125,0.951-2.125,2.125"/>
	<path style="&st1;" d="M43.749,11.832c0-1.173-0.951-2.125-2.125-2.125"/>
	<path style="&st1;" d="M10.462,9.707c-1.173,0-2.125,0.951-2.125,2.125"/>
	<path style="&st1;" d="M23.918,49.013v1.417h4.249v-1.417"/>
	<path style="&st0;" d="M51.524,26.35h3.556v-3.541h-3.556"/>
	<path style="&st0;" d="M37.375,3.727V0.5h-2.833v3.054"/>
	<path style="&st0;" d="M17.544,3.554V0.5h-2.833v3.227"/>
	<path style="&st0;" d="M23.918,3.347V0.5h4.249v2.847"/>
	<path style="&st1;" d="M43.749,11.832V32.37H8.338V11.832"/>
	<g ewd:pinNo="6">
		<text transform="matrix(1 0 0 1 11.7661 29.7422)"><tspan x="0" y="0" style="&st3; &st2;">6</tspan></text>
	</g>
	<g ewd:pinNo="5">
		<text transform="matrix(1 0 0 1 24.5142 29.7422)"><tspan x="0" y="0" style="&st3; &st2;">5</tspan></text>
	</g>
	<g ewd:pinNo="4">
		<text transform="matrix(1 0 0 1 37.2617 29.7422)"><tspan x="0" y="0" style="&st3; &st2;">4</tspan></text>
	</g>
	<g ewd:pinNo="1">
		<text transform="matrix(1 0 0 1 37.2617 18.4106)"><tspan x="0" y="0" style="&st3; &st2;">1</tspan></text>
	</g>
	<g ewd:pinNo="2">
		<text transform="matrix(1 0 0 1 24.5142 18.4106)"><tspan x="0" y="0" style="&st3; &st2;">2</tspan></text>
	</g>
	<g ewd:pinNo="3">
		<text transform="matrix(1 0 0 1 11.7661 18.4106)"><tspan x="0" y="0" style="&st3; &st2;">3</tspan></text>
	</g>
</g>
</svg>