﻿<?xml version="1.0"?>
<!-- Generator: Adobe Illustrator 10.0, SVG Export Plug-In . SVG Version: 3.0.0 Build 77)  -->
<!DOCTYPE svg PUBLIC "-//W3C//DTD SVG 1.0//EN" "http://www.w3.org/TR/2001/REC-SVG-20010904/DTD/svg10.dtd"[
	<!ENTITY ns_flows "http://ns.adobe.com/Flows/1.0/">
	<!ENTITY ns_svg "http://www.w3.org/2000/svg">
	<!ENTITY ns_xlink "http://www.w3.org/1999/xlink">
	<!ENTITY st0 "fill:none;stroke:#000000;stroke-linecap:round;stroke-linejoin:round;">
	<!ENTITY st1 "fill:none;stroke:#000000;stroke-width:0.6;stroke-linecap:round;stroke-linejoin:round;">
	<!ENTITY st2 "font-size:6px;">
	<!ENTITY st3 "font-family:'Arial';">
	<!ATTLIST svg
		ewd:ver CDATA #IMPLIED
		xmlns:ewd CDATA #FIXED "http://shcl.co.jp/ewd"
		xmlns:a CDATA #FIXED "http://ns.adobe.com/AdobeSVGViewerExtensions/3.0/">
	<!ATTLIST g
		ewd:pinNo CDATA #IMPLIED>
]>
<svg width="40.093" height="24.513" viewBox="0 0 40.093 24.513" style="overflow:visible;enable-background:new 0 0 40.093 24.513" xml:space="preserve" onload="call_execInitLoadProc_svg('connector')" ewd:ver="L2.1.2.7" xmlns="&ns_svg;" xmlns:ewd="http://shcl.co.jp/ewd" xmlns:a="http://ns.adobe.com/AdobeSVGViewerExtensions/3.0/" xmlns:xlink="&ns_xlink;">
<script type="text/javascript" xlink:href="../../../../../system/js/ewd/fig/svgfig.js"/>
<g id="レイヤー_1">
	<path style="&st0;" d="M15.797,0.5h5.099"/>
	<path style="&st0;" d="M32.794,0.5h5.099"/>
	<path style="&st0;" d="M39.593,2.2v18.697"/>
	<path style="&st1;" d="M37.894,22.597H2.2"/>
	<path style="&st0;" d="M0.5,20.896V7.299"/>
	<path style="&st1;" d="M11.548,20.047V8.149"/>
	<path style="&st1;" d="M28.545,20.047V8.149"/>
	<path style="&st0;" d="M0.5,20.896c0,0.939,0.761,1.7,1.7,1.7"/>
	<path style="&st0;" d="M37.894,22.597c0.939,0,1.7-0.761,1.7-1.7"/>
	<path style="&st0;" d="M39.593,2.2c0-0.938-0.761-1.7-1.7-1.7"/>
	<path style="&st0;" d="M32.794,0.5c-0.938,0-1.7,0.761-1.7,1.7"/>
	<path style="&st0;" d="M22.596,2.2c0-0.938-0.761-1.7-1.7-1.7"/>
	<path style="&st0;" d="M15.797,0.5c-0.939,0-1.7,0.761-1.7,1.7"/>
	<path style="&st0;" d="M2.2,5.6c-0.938,0-1.7,0.761-1.7,1.7"/>
	<path style="&st0;" d="M2.2,23.446c0,0.313,0.253,0.566,0.566,0.566"/>
	<path style="&st0;" d="M37.327,24.013c0.313,0,0.566-0.253,0.566-0.566"/>
	<path style="&st0;" d="M31.095,2.2v3.4h-8.499V2.2"/>
	<path style="&st0;" d="M2.2,5.6h11.898V2.2"/>
	<path style="&st1;" d="M33.645,8.149V3.05h3.399v16.997H3.049V8.149h33.995"/>
	<path style="&st1;" d="M20.046,20.047V3.05h-3.399v5.099"/>
	<path style="&st1;" d="M16.647,6.449h3.399"/>
	<path style="&st1;" d="M33.645,6.449h5.949"/>
	<path style="&st0;" d="M2.2,22.597v0.85"/>
	<path style="&st0;" d="M2.766,24.013h34.561"/>
	<path style="&st0;" d="M37.894,22.597v0.85"/>
	<path style="&st1;" d="M37.044,3.05h2.549"/>
	<g ewd:pinNo="1">
		<text transform="matrix(1 0 0 1 5.4995 16.3086)"><tspan x="0" y="0" style="&st3; &st2;">1</tspan></text>
	</g>
	<g ewd:pinNo="2">
		<text transform="matrix(1 0 0 1 13.9985 16.3086)"><tspan x="0" y="0" style="&st3; &st2;">2</tspan></text>
	</g>
	<g ewd:pinNo="3">
		<text transform="matrix(1 0 0 1 22.4971 16.3086)"><tspan x="0" y="0" style="&st3; &st2;">3</tspan></text>
	</g>
	<g ewd:pinNo="4">
		<text transform="matrix(1 0 0 1 30.9956 16.3086)"><tspan x="0" y="0" style="&st3; &st2;">4</tspan></text>
	</g>
</g>
</svg>