﻿<?xml version="1.0"?>
<!-- Generator: Adobe Illustrator 10.0, SVG Export Plug-In . SVG Version: 3.0.0 Build 77)  -->
<!DOCTYPE svg PUBLIC "-//W3C//DTD SVG 1.0//EN" "http://www.w3.org/TR/2001/REC-SVG-20010904/DTD/svg10.dtd"[
	<!ENTITY ns_flows "http://ns.adobe.com/Flows/1.0/">
	<!ENTITY ns_svg "http://www.w3.org/2000/svg">
	<!ENTITY ns_xlink "http://www.w3.org/1999/xlink">
	<!ENTITY st0 "fill:none;stroke:#000000;stroke-linecap:round;stroke-linejoin:round;">
	<!ENTITY st1 "fill:none;stroke:#000000;stroke-width:0.6;stroke-linecap:round;stroke-linejoin:round;">
	<!ENTITY st2 "font-size:6px;">
	<!ENTITY st3 "font-family:'Arial';">
	<!ATTLIST svg
		ewd:ver CDATA #IMPLIED
		xmlns:ewd CDATA #FIXED "http://shcl.co.jp/ewd"
		xmlns:a CDATA #FIXED "http://ns.adobe.com/AdobeSVGViewerExtensions/3.0/">
	<!ATTLIST g
		ewd:pinNo CDATA #IMPLIED>
]>
<svg width="54.148" height="59.584" viewBox="0 0 54.148 59.584" style="overflow:visible;enable-background:new 0 0 54.148 59.584" xml:space="preserve" onload="call_execInitLoadProc_svg('connector')" ewd:ver="L2.1.2.7" xmlns="&ns_svg;" xmlns:ewd="http://shcl.co.jp/ewd" xmlns:a="http://ns.adobe.com/AdobeSVGViewerExtensions/3.0/" xmlns:xlink="&ns_xlink;">
<script type="text/javascript" xlink:href="../../../../../system/js/ewd/fig/svgfig.js"/>
<g id="レイヤー_1">
	<path style="&st1;" d="M40.971,36.446c0.499-0.498,0.748-1.1,0.748-1.805"/>
	<path style="&st0;" d="M52.305,46.622c0.885-0.754,1.343-1.747,1.343-2.91"/>
	<path style="&st1;" d="M35.854,49.084c4.224,0,7.649-3.425,7.649-7.649"/>
	<path style="&st1;" d="M6.875,41.435c0,6.336,5.137,11.473,11.473,11.473"/>
	<path style="&st1;" d="M10.699,41.435c0,4.224,3.424,7.649,7.649,7.649"/>
	<path style="&st1;" d="M13.249,41.435c0,2.816,2.283,5.099,5.099,5.099"/>
	<path style="&st1;" d="M35.345,46.534c2.816,0,5.099-2.283,5.099-5.099"/>
	<path style="&st1;" d="M18.348,15.939c-2.816,0-5.099,2.283-5.099,5.099"/>
	<path style="&st1;" d="M43.503,21.038c0-4.224-3.425-7.648-7.649-7.648"/>
	<path style="&st1;" d="M41.719,27.832c0-0.705-0.25-1.306-0.749-1.804"/>
	<path style="&st1;" d="M35.854,52.908c6.237,0,11.315-4.955,11.47-11.19"/>
	<path style="&st1;" d="M40.444,21.038c0-2.816-2.283-5.099-5.099-5.099"/>
	<path style="&st1;" d="M18.348,13.39c-4.225,0-7.649,3.425-7.649,7.648"/>
	<path style="&st1;" d="M40.659,2.285c0-0.986-0.799-1.785-1.785-1.785"/>
	<path style="&st1;" d="M16.945,5.741c-0.986,0-1.785,0.799-1.785,1.784"/>
	<path style="&st0;" d="M3.104,42.704c0.43,5.167,3.105,9.386,7.596,11.979"/>
	<path style="&st1;" d="M37.398,7.525c0-0.985-0.799-1.784-1.785-1.784"/>
	<path style="&st0;" d="M1.249,33.039C0.75,33.537,0.5,34.138,0.5,34.843"/>
	<path style="&st0;" d="M0.5,39.104c0,0.705,0.25,1.307,0.748,1.804"/>
	<path style="&st0;" d="M53.648,17.18c0-0.811-0.337-1.504-0.975-2.005"/>
	<path style="&st1;" d="M14.466,0.5c-0.985,0-1.785,0.799-1.785,1.785"/>
	<path style="&st1;" d="M35.345,56.724c2.165-0.076,3.987-0.515,5.949-1.433"/>
	<path style="&st1;" d="M12.682,6.829C6.729,9.202,3.05,14.631,3.05,21.038"/>
	<path style="&st1;" d="M22.249,57.667c0,0.782,0.634,1.417,1.416,1.417"/>
	<path style="&st1;" d="M28.328,59.084c0.782,0,1.417-0.634,1.417-1.417"/>
	<path style="&st0;" d="M4.466,0.5C3.684,0.5,3.05,1.134,3.05,1.917"/>
	<path style="&st0;" d="M48.744,1.917c0-0.782-0.634-1.417-1.417-1.417"/>
	<path style="&st0;" d="M41.293,55.291c1.306-0.611,2.341-1.277,3.439-2.213"/>
	<path style="&st1;" d="M10.699,54.685c2.439,1.408,4.833,2.049,7.649,2.049"/>
	<path style="&st0;" d="M10.699,56.251c0,1.564,1.268,2.833,2.833,2.833"/>
	<path style="&st0;" d="M38.461,59.084c1.564,0,2.833-1.269,2.833-2.833"/>
	<path style="&st1;" d="M47.328,21.038c0-6.336-5.137-11.473-11.473-11.473"/>
	<path style="&st1;" d="M18.348,9.565c-6.336,0-11.473,5.137-11.473,11.473"/>
	<path style="&st1;" d="M40.444,36.973l0.527-0.527"/>
	<path style="&st1;" d="M18.348,13.39h17.507"/>
	<path style="&st1;" d="M41.719,27.832v6.81"/>
	<path style="&st1;" d="M18.348,49.084h17.507"/>
	<path style="&st1;" d="M13.249,21.038v20.397"/>
	<path style="&st0;" d="M1.249,33.039l1.801-1.802V1.917"/>
	<path style="&st1;" d="M12.682,6.829V2.285"/>
	<path style="&st1;" d="M17.498,23.588v16.997h16.997V23.588H17.498"/>
	<path style="&st1;" d="M18.348,15.939h16.997"/>
	<path style="&st1;" d="M47.328,21.038v14.023"/>
	<path style="&st1;" d="M18.348,52.908h5.864"/>
	<path style="&st1;" d="M40.444,25.5l0.527,0.527"/>
	<path style="&st1;" d="M18.348,46.534h16.997"/>
	<path style="&st1;" d="M24.211,52.908v3.06h3.569v-3.06"/>
	<path style="&st1;" d="M43.503,21.038v20.397"/>
	<path style="&st1;" d="M40.444,35.698v5.737"/>
	<path style="&st1;" d="M32.937,13.39V5.741"/>
	<path style="&st1;" d="M40.444,26.775h-3.683v8.923h3.683"/>
	<path style="&st0;" d="M1.249,40.908L3.05,42.71"/>
	<path style="&st1;" d="M6.875,35.061H3.05v3.825h3.825"/>
	<path style="&st1;" d="M10.699,21.038v20.397"/>
	<path style="&st1;" d="M27.781,52.908h8.074"/>
	<path style="&st1;" d="M19.622,10.33h13.314"/>
	<path style="&st1;" d="M19.104,0.5v1.275h15.13V0.5"/>
	<path style="&st1;" d="M47.328,35.061h3.824v3.825h-3.827"/>
	<path style="&st0;" d="M0.5,39.104v-4.261"/>
	<path style="&st0;" d="M53.648,43.712V17.18"/>
	<path style="&st1;" d="M19.622,13.39V5.741"/>
	<path style="&st0;" d="M44.733,53.078l7.572-6.456"/>
	<path style="&st1;" d="M16.945,5.741h18.668"/>
	<path style="&st1;" d="M40.659,5.741V2.285"/>
	<path style="&st0;" d="M4.466,0.5h42.861"/>
	<path style="&st1;" d="M15.161,10.016V7.525"/>
	<path style="&st1;" d="M19.622,7.653h13.314"/>
	<path style="&st1;" d="M37.398,9.67V7.525"/>
	<path style="&st1;" d="M18.348,9.565h1.274"/>
	<path style="&st1;" d="M17.39,9.605v3.785"/>
	<path style="&st1;" d="M35.166,9.565v3.824"/>
	<path style="&st1;" d="M35.854,9.565h-2.918"/>
	<path style="&st0;" d="M38.461,59.084H13.532"/>
	<path style="&st1;" d="M29.744,56.732h5.601"/>
	<path style="&st1;" d="M6.875,21.038v14.023"/>
	<path style="&st1;" d="M6.875,38.886v2.549"/>
	<path style="&st1;" d="M47.325,41.718v-2.833"/>
	<path style="&st1;" d="M40.444,26.775v-5.737"/>
	<path style="&st1;" d="M18.348,56.732h3.901"/>
	<path style="&st1;" d="M22.249,57.667v-0.935"/>
	<path style="&st1;" d="M29.744,57.667v-0.935"/>
	<path style="&st1;" d="M25.996,40.585V23.588"/>
	<path style="&st1;" d="M17.498,32.086h16.997"/>
	<path style="&st0;" d="M48.744,12.089V1.917"/>
	<path style="&st1;" d="M40.659,5.741l8.085,6.348"/>
	<path style="&st0;" d="M48.744,12.089l3.929,3.085"/>
	<path style="&st0;" d="M10.699,56.251v-1.566"/>
	<path style="&st0;" d="M41.293,56.251v-0.96"/>
	<g ewd:pinNo="1">
		<text transform="matrix(1 0 0 1 20.1362 30.0083)"><tspan x="0" y="0" style="&st3; &st2;">1</tspan></text>
	</g>
	<g ewd:pinNo="2">
		<text transform="matrix(1 0 0 1 28.6348 30.0083)"><tspan x="0" y="0" style="&st3; &st2;">2</tspan></text>
	</g>
	<g ewd:pinNo="3">
		<text transform="matrix(1 0 0 1 20.1362 38.5068)"><tspan x="0" y="0" style="&st3; &st2;">3</tspan></text>
	</g>
	<g ewd:pinNo="4">
		<text transform="matrix(1 0 0 1 28.6348 38.5068)"><tspan x="0" y="0" style="&st3; &st2;">4</tspan></text>
	</g>
</g>
</svg>