﻿<?xml version="1.0"?>
<!-- Generator: Adobe Illustrator 10.0, SVG Export Plug-In . SVG Version: 3.0.0 Build 77)  -->
<!DOCTYPE svg PUBLIC "-//W3C//DTD SVG 1.0//EN" "http://www.w3.org/TR/2001/REC-SVG-20010904/DTD/svg10.dtd"[
	<!ENTITY ns_flows "http://ns.adobe.com/Flows/1.0/">
	<!ENTITY ns_svg "http://www.w3.org/2000/svg">
	<!ENTITY ns_xlink "http://www.w3.org/1999/xlink">
	<!ENTITY st0 "fill:none;stroke:#000000;stroke-linecap:round;stroke-linejoin:round;">
	<!ENTITY st1 "fill:none;stroke:#000000;stroke-width:0.6;stroke-linecap:round;stroke-linejoin:round;">
	<!ENTITY st2 "fill:none;stroke:#000000;stroke-width:0.8;">
	<!ENTITY st3 "font-size:8px;">
	<!ENTITY st4 "fill:none;stroke:#000000;stroke-width:1.1331;stroke-linecap:round;stroke-linejoin:round;stroke-dasharray:7 7;">
	<!ENTITY st5 "font-family:'Arial';">
	<!ENTITY st6 "font-size:14px;">
	<!ENTITY st7 "fill:none;stroke:#FFFFFF;stroke-width:0.2;">
	<!ATTLIST svg
		xmlns:ewd CDATA #FIXED "http://shcl.co.jp/ewd"
		xmlns:a CDATA #FIXED "http://ns.adobe.com/AdobeSVGViewerExtensions/3.0/"
		ewd:ver CDATA #IMPLIED>
	<!ATTLIST a
		ewd:innerGroupID CDATA #IMPLIED
		ewd:figtype CDATA #IMPLIED
		ewd:code CDATA #IMPLIED
		ewd:pinNo CDATA #IMPLIED>
]>
<svg width="1006.499" height="680.514" viewBox="0 0 1006.499 680.514" style="overflow:visible;enable-background:new 0 0 1006.499 680.514" xml:space="preserve" onload="call_execInitLoadProc_svg('inner')" ewd:ver="L2.1.2.7" xmlns="&ns_svg;" xmlns:ewd="http://shcl.co.jp/ewd" xmlns:a="http://ns.adobe.com/AdobeSVGViewerExtensions/3.0/" xmlns:xlink="&ns_xlink;">
<script type="text/javascript" xlink:href="../../../../../system/js/ewd/fig/svgfig.js"/>
<g id="WAKU">
	<path style="&st7;" d="M510.336,680.415V0.1H0.1v680.314H510.336z"/>
	<path style="&st7;" d="M1006.399,680.415V0.1H496.163v680.314H1006.399z"/>
</g>
<g id="レイヤ_xFF0D__1">
	<path style="&st1;" d="M364.435,292.683c0-0.782-0.635-1.416-1.417-1.416"/>
	<path style="&st1;" d="M363.018,291.267c-0.782,0-1.417,0.634-1.417,1.416"/>
	<path style="&st1;" d="M361.601,292.683c0,0.782,0.635,1.417,1.417,1.417"/>
	<path style="&st1;" d="M363.018,294.1c0.782,0,1.417-0.635,1.417-1.417"/>
	<path style="&st1;" d="M387.097,292.683c0-0.782-0.634-1.416-1.416-1.416"/>
	<path style="&st1;" d="M385.681,291.267c-0.782,0-1.416,0.634-1.416,1.416"/>
	<path style="&st1;" d="M384.265,292.683c0,0.782,0.634,1.417,1.416,1.417"/>
	<path style="&st1;" d="M385.681,294.1c0.782,0,1.416-0.635,1.416-1.417"/>
	<path style="&st1;" d="M364.435,326.677c0-0.782-0.635-1.416-1.417-1.416"/>
	<path style="&st1;" d="M363.018,325.261c-0.782,0-1.417,0.634-1.417,1.416"/>
	<path style="&st1;" d="M361.601,326.677c0,0.782,0.635,1.417,1.417,1.417"/>
	<path style="&st1;" d="M363.018,328.094c0.782,0,1.417-0.635,1.417-1.417"/>
	<path style="&st1;" d="M387.097,326.677c0-0.782-0.634-1.416-1.416-1.416"/>
	<path style="&st1;" d="M385.681,325.261c-0.782,0-1.416,0.634-1.416,1.416"/>
	<path style="&st1;" d="M384.265,326.677c0,0.782,0.634,1.417,1.416,1.417"/>
	<path style="&st1;" d="M385.681,328.094c0.782,0,1.416-0.635,1.416-1.417"/>
	<path style="&st1;" d="M166.134,156.707c0-0.783-0.634-1.417-1.417-1.417"/>
	<path style="&st1;" d="M164.718,155.29c-0.782,0-1.417,0.634-1.417,1.417"/>
	<path style="&st1;" d="M163.301,156.707c0,0.782,0.634,1.416,1.417,1.416"/>
	<path style="&st1;" d="M164.718,158.123c0.782,0,1.417-0.634,1.417-1.416"/>
	<path style="&st1;" d="M143.471,156.707c0-0.783-0.634-1.417-1.417-1.417"/>
	<path style="&st1;" d="M142.055,155.29c-0.782,0-1.416,0.634-1.416,1.417"/>
	<path style="&st1;" d="M140.639,156.707c0,0.782,0.634,1.416,1.416,1.416"/>
	<path style="&st1;" d="M142.055,158.123c0.783,0,1.417-0.634,1.417-1.416"/>
	<path style="&st0;" d="M163.301,156.707c-2.918-0.854-5.813-0.193-8.073,1.842"/>
	<path style="&st0;" d="M163.301,156.707c-3.023-2.172-6.892-2.172-9.915,0"/>
	<path style="&st0;" d="M163.301,156.707c-2.767-3.718-7.984-4.534-11.755-1.841"/>
	<path style="&st0;" d="M143.471,156.707c2.768,3.717,7.985,4.533,11.755,1.84"/>
	<path style="&st0;" d="M143.471,156.707c3.023,2.171,6.892,2.171,9.915,0"/>
	<path style="&st0;" d="M143.471,156.707c2.918,0.854,5.813,0.192,8.073-1.843"/>
	<path style="&st1;" d="M166.134,190.701c0-0.782-0.634-1.417-1.417-1.417"/>
	<path style="&st1;" d="M164.718,189.284c-0.782,0-1.417,0.635-1.417,1.417"/>
	<path style="&st1;" d="M163.301,190.701c0,0.782,0.634,1.416,1.417,1.416"/>
	<path style="&st1;" d="M164.718,192.117c0.782,0,1.417-0.634,1.417-1.416"/>
	<path style="&st1;" d="M143.471,190.701c0-0.782-0.634-1.417-1.417-1.417"/>
	<path style="&st1;" d="M142.055,189.284c-0.782,0-1.416,0.635-1.416,1.417"/>
	<path style="&st1;" d="M140.639,190.701c0,0.782,0.634,1.416,1.416,1.416"/>
	<path style="&st1;" d="M142.055,192.117c0.783,0,1.417-0.634,1.417-1.416"/>
	<path style="&st0;" d="M163.301,190.701c-2.918-0.854-5.813-0.193-8.073,1.842"/>
	<path style="&st0;" d="M163.301,190.701c-3.023-2.171-6.892-2.171-9.915,0"/>
	<path style="&st0;" d="M163.301,190.701c-2.767-3.718-7.984-4.534-11.755-1.84"/>
	<path style="&st0;" d="M143.471,190.701c2.768,3.717,7.985,4.534,11.755,1.84"/>
	<path style="&st0;" d="M143.471,190.701c3.023,2.171,6.892,2.171,9.915,0"/>
	<path style="&st0;" d="M143.471,190.701c2.918,0.854,5.813,0.192,8.073-1.843"/>
	<path style="&st1;" d="M166.134,224.695c0-0.782-0.634-1.417-1.417-1.417"/>
	<path style="&st1;" d="M164.718,223.278c-0.782,0-1.417,0.635-1.417,1.417"/>
	<path style="&st1;" d="M163.301,224.695c0,0.782,0.634,1.416,1.417,1.416"/>
	<path style="&st1;" d="M164.718,226.111c0.782,0,1.417-0.634,1.417-1.416"/>
	<path style="&st1;" d="M143.471,224.695c0-0.782-0.634-1.417-1.417-1.417"/>
	<path style="&st1;" d="M142.055,223.278c-0.782,0-1.416,0.635-1.416,1.417"/>
	<path style="&st1;" d="M140.639,224.695c0,0.782,0.634,1.416,1.416,1.416"/>
	<path style="&st1;" d="M142.055,226.111c0.783,0,1.417-0.634,1.417-1.416"/>
	<path style="&st0;" d="M163.301,224.695c-2.918-0.854-5.813-0.193-8.073,1.843"/>
	<path style="&st0;" d="M163.301,224.695c-3.023-2.171-6.892-2.171-9.915,0"/>
	<path style="&st0;" d="M163.301,224.695c-2.767-3.718-7.984-4.534-11.755-1.84"/>
	<path style="&st0;" d="M143.471,224.695c2.768,3.718,7.985,4.534,11.755,1.84"/>
	<path style="&st0;" d="M143.471,224.695c3.023,2.171,6.892,2.171,9.915,0"/>
	<path style="&st0;" d="M143.471,224.695c2.918,0.854,5.813,0.192,8.073-1.843"/>
	<path style="&st1;" d="M166.134,258.689c0-0.782-0.634-1.416-1.417-1.416"/>
	<path style="&st1;" d="M164.718,257.273c-0.782,0-1.417,0.634-1.417,1.416"/>
	<path style="&st1;" d="M163.301,258.689c0,0.782,0.634,1.416,1.417,1.416"/>
	<path style="&st1;" d="M164.718,260.105c0.782,0,1.417-0.634,1.417-1.416"/>
	<path style="&st1;" d="M143.471,258.689c0-0.782-0.634-1.416-1.417-1.416"/>
	<path style="&st1;" d="M142.055,257.273c-0.782,0-1.416,0.634-1.416,1.416"/>
	<path style="&st1;" d="M140.639,258.689c0,0.782,0.634,1.416,1.416,1.416"/>
	<path style="&st1;" d="M142.055,260.105c0.783,0,1.417-0.634,1.417-1.416"/>
	<path style="&st0;" d="M163.301,258.689c-2.918-0.854-5.813-0.192-8.073,1.843"/>
	<path style="&st0;" d="M163.301,258.689c-3.023-2.171-6.892-2.171-9.915,0"/>
	<path style="&st0;" d="M163.301,258.689c-2.767-3.718-7.984-4.534-11.755-1.84"/>
	<path style="&st0;" d="M143.471,258.689c2.768,3.718,7.985,4.534,11.755,1.84"/>
	<path style="&st0;" d="M143.471,258.689c3.023,2.171,6.892,2.171,9.915,0"/>
	<path style="&st0;" d="M143.471,258.689c2.918,0.854,5.813,0.193,8.073-1.843"/>
	<path style="&st1;" d="M166.134,292.683c0-0.782-0.634-1.416-1.417-1.416"/>
	<path style="&st1;" d="M164.718,291.267c-0.782,0-1.417,0.634-1.417,1.416"/>
	<path style="&st1;" d="M163.301,292.683c0,0.782,0.634,1.417,1.417,1.417"/>
	<path style="&st1;" d="M164.718,294.1c0.782,0,1.417-0.635,1.417-1.417"/>
	<path style="&st1;" d="M143.471,292.683c0-0.782-0.634-1.416-1.417-1.416"/>
	<path style="&st1;" d="M142.055,291.267c-0.782,0-1.416,0.634-1.416,1.416"/>
	<path style="&st1;" d="M140.639,292.683c0,0.782,0.634,1.417,1.416,1.417"/>
	<path style="&st1;" d="M142.055,294.1c0.783,0,1.417-0.635,1.417-1.417"/>
	<path style="&st1;" d="M387.097,156.707c0-0.783-0.634-1.417-1.416-1.417"/>
	<path style="&st1;" d="M385.681,155.29c-0.782,0-1.416,0.634-1.416,1.417"/>
	<path style="&st1;" d="M384.265,156.707c0,0.782,0.634,1.416,1.416,1.416"/>
	<path style="&st1;" d="M385.681,158.123c0.782,0,1.416-0.634,1.416-1.416"/>
	<path style="&st1;" d="M364.435,156.707c0-0.783-0.635-1.417-1.417-1.417"/>
	<path style="&st1;" d="M363.018,155.29c-0.782,0-1.417,0.634-1.417,1.417"/>
	<path style="&st1;" d="M361.601,156.707c0,0.782,0.635,1.416,1.417,1.416"/>
	<path style="&st1;" d="M363.018,158.123c0.782,0,1.417-0.634,1.417-1.416"/>
	<path style="&st0;" d="M384.265,224.695c-2.92-0.854-5.814-0.193-8.073,1.843"/>
	<path style="&st0;" d="M384.265,224.695c-3.024-2.171-6.893-2.171-9.916,0"/>
	<path style="&st0;" d="M384.265,224.695c-2.768-3.718-7.985-4.534-11.756-1.84"/>
	<path style="&st0;" d="M364.435,224.695c2.767,3.718,7.984,4.534,11.755,1.84"/>
	<path style="&st0;" d="M364.435,224.695c3.022,2.171,6.891,2.171,9.914,0"/>
	<path style="&st0;" d="M364.435,224.695c2.918,0.854,5.813,0.192,8.072-1.843"/>
	<path style="&st1;" d="M387.097,190.701c0-0.782-0.634-1.417-1.416-1.417"/>
	<path style="&st1;" d="M385.681,189.284c-0.782,0-1.416,0.635-1.416,1.417"/>
	<path style="&st1;" d="M384.265,190.701c0,0.782,0.634,1.416,1.416,1.416"/>
	<path style="&st1;" d="M385.681,192.117c0.782,0,1.416-0.634,1.416-1.416"/>
	<path style="&st1;" d="M364.435,190.701c0-0.782-0.635-1.417-1.417-1.417"/>
	<path style="&st1;" d="M363.018,189.284c-0.782,0-1.417,0.635-1.417,1.417"/>
	<path style="&st1;" d="M361.601,190.701c0,0.782,0.635,1.416,1.417,1.416"/>
	<path style="&st1;" d="M363.018,192.117c0.782,0,1.417-0.634,1.417-1.416"/>
	<path style="&st0;" d="M384.265,258.689c-2.92-0.854-5.814-0.192-8.073,1.843"/>
	<path style="&st0;" d="M384.265,258.689c-3.024-2.171-6.893-2.171-9.916,0"/>
	<path style="&st0;" d="M384.265,258.689c-2.768-3.718-7.985-4.534-11.756-1.84"/>
	<path style="&st0;" d="M364.435,258.689c2.767,3.718,7.984,4.534,11.755,1.84"/>
	<path style="&st0;" d="M364.435,258.689c3.022,2.171,6.891,2.171,9.914,0"/>
	<path style="&st0;" d="M364.435,258.689c2.918,0.854,5.813,0.193,8.072-1.843"/>
	<path style="&st1;" d="M387.097,224.695c0-0.782-0.634-1.417-1.416-1.417"/>
	<path style="&st1;" d="M385.681,223.278c-0.782,0-1.416,0.635-1.416,1.417"/>
	<path style="&st1;" d="M384.265,224.695c0,0.782,0.634,1.416,1.416,1.416"/>
	<path style="&st1;" d="M385.681,226.111c0.782,0,1.416-0.634,1.416-1.416"/>
	<path style="&st1;" d="M364.435,224.695c0-0.782-0.635-1.417-1.417-1.417"/>
	<path style="&st1;" d="M363.018,223.278c-0.782,0-1.417,0.635-1.417,1.417"/>
	<path style="&st1;" d="M361.601,224.695c0,0.782,0.635,1.416,1.417,1.416"/>
	<path style="&st1;" d="M363.018,226.111c0.782,0,1.417-0.634,1.417-1.416"/>
	<path style="&st0;" d="M384.265,292.683c-2.92-0.854-5.814-0.192-8.073,1.843"/>
	<path style="&st0;" d="M384.265,292.683c-3.024-2.171-6.893-2.171-9.916,0"/>
	<path style="&st0;" d="M384.265,292.683c-2.768-3.717-7.985-4.534-11.756-1.84"/>
	<path style="&st0;" d="M364.435,292.683c2.767,3.718,7.984,4.534,11.755,1.84"/>
	<path style="&st0;" d="M364.435,292.683c3.022,2.171,6.891,2.171,9.914,0"/>
	<path style="&st0;" d="M364.435,292.683c2.918,0.854,5.813,0.193,8.072-1.842"/>
	<path style="&st1;" d="M387.097,258.689c0-0.782-0.634-1.416-1.416-1.416"/>
	<path style="&st1;" d="M385.681,257.273c-0.782,0-1.416,0.634-1.416,1.416"/>
	<path style="&st1;" d="M384.265,258.689c0,0.782,0.634,1.416,1.416,1.416"/>
	<path style="&st1;" d="M385.681,260.105c0.782,0,1.416-0.634,1.416-1.416"/>
	<path style="&st1;" d="M364.435,258.689c0-0.782-0.635-1.416-1.417-1.416"/>
	<path style="&st1;" d="M363.018,257.273c-0.782,0-1.417,0.634-1.417,1.416"/>
	<path style="&st1;" d="M361.601,258.689c0,0.782,0.635,1.416,1.417,1.416"/>
	<path style="&st1;" d="M363.018,260.105c0.782,0,1.417-0.634,1.417-1.416"/>
	<path style="&st0;" d="M384.265,326.677c-2.92-0.854-5.814-0.192-8.073,1.843"/>
	<path style="&st0;" d="M384.265,326.677c-3.024-2.171-6.893-2.171-9.916,0"/>
	<path style="&st0;" d="M384.265,326.677c-2.768-3.717-7.985-4.533-11.756-1.84"/>
	<path style="&st0;" d="M364.435,326.677c2.767,3.718,7.984,4.534,11.755,1.841"/>
	<path style="&st0;" d="M364.435,326.677c3.022,2.171,6.891,2.171,9.914,0"/>
	<path style="&st0;" d="M364.435,326.677c2.918,0.854,5.813,0.193,8.072-1.842"/>
	<path style="&st0;" d="M384.265,387.577c-1.613-2.737-5.141-3.649-7.879-2.036"/>
	<path style="&st0;" d="M376.386,385.541c-0.882,0.52-1.517,1.154-2.037,2.036"/>
	<path style="&st0;" d="M364.435,387.577c1.612,2.738,5.14,3.65,7.877,2.037"/>
	<path style="&st0;" d="M372.312,389.614c0.883-0.52,1.518-1.154,2.037-2.037"/>
	<path style="&st1;" d="M387.097,387.577c0-0.782-0.634-1.416-1.416-1.416"/>
	<path style="&st1;" d="M385.681,386.161c-0.782,0-1.416,0.634-1.416,1.416"/>
	<path style="&st1;" d="M384.265,387.577c0,0.782,0.634,1.417,1.416,1.417"/>
	<path style="&st1;" d="M385.681,388.994c0.782,0,1.416-0.635,1.416-1.417"/>
	<path style="&st1;" d="M364.435,387.577c0-0.782-0.635-1.416-1.417-1.416"/>
	<path style="&st1;" d="M363.018,386.161c-0.782,0-1.417,0.634-1.417,1.416"/>
	<path style="&st1;" d="M361.601,387.577c0,0.782,0.635,1.417,1.417,1.417"/>
	<path style="&st1;" d="M363.018,388.994c0.782,0,1.417-0.635,1.417-1.417"/>
	<path style="&st0;" d="M384.265,421.572c-1.613-2.738-5.141-3.65-7.879-2.037"/>
	<path style="&st0;" d="M376.386,419.535c-0.882,0.52-1.517,1.155-2.037,2.037"/>
	<path style="&st0;" d="M364.435,421.572c1.612,2.737,5.14,3.649,7.877,2.036"/>
	<path style="&st0;" d="M372.312,423.608c0.883-0.52,1.518-1.154,2.037-2.036"/>
	<path style="&st1;" d="M387.097,421.572c0-0.782-0.634-1.417-1.416-1.417"/>
	<path style="&st1;" d="M385.681,420.155c-0.782,0-1.416,0.635-1.416,1.417"/>
	<path style="&st1;" d="M384.265,421.572c0,0.782,0.634,1.416,1.416,1.416"/>
	<path style="&st1;" d="M385.681,422.988c0.782,0,1.416-0.634,1.416-1.416"/>
	<path style="&st1;" d="M364.435,421.572c0-0.782-0.635-1.417-1.417-1.417"/>
	<path style="&st1;" d="M363.018,420.155c-0.782,0-1.417,0.635-1.417,1.417"/>
	<path style="&st1;" d="M361.601,421.572c0,0.782,0.635,1.416,1.417,1.416"/>
	<path style="&st1;" d="M363.018,422.988c0.782,0,1.417-0.634,1.417-1.416"/>
	<path style="&st0;" d="M384.265,455.566c-1.613-2.738-5.141-3.65-7.879-2.037"/>
	<path style="&st0;" d="M376.386,453.529c-0.882,0.52-1.517,1.155-2.037,2.037"/>
	<path style="&st0;" d="M364.435,455.566c1.612,2.737,5.14,3.649,7.877,2.037"/>
	<path style="&st0;" d="M372.312,457.603c0.883-0.521,1.518-1.155,2.037-2.037"/>
	<path style="&st1;" d="M387.097,455.566c0-0.782-0.634-1.417-1.416-1.417"/>
	<path style="&st1;" d="M385.681,454.149c-0.782,0-1.416,0.635-1.416,1.417"/>
	<path style="&st1;" d="M384.265,455.566c0,0.782,0.634,1.416,1.416,1.416"/>
	<path style="&st1;" d="M385.681,456.982c0.782,0,1.416-0.634,1.416-1.416"/>
	<path style="&st1;" d="M364.435,455.566c0-0.782-0.635-1.417-1.417-1.417"/>
	<path style="&st1;" d="M363.018,454.149c-0.782,0-1.417,0.635-1.417,1.417"/>
	<path style="&st1;" d="M361.601,455.566c0,0.782,0.635,1.416,1.417,1.416"/>
	<path style="&st1;" d="M363.018,456.982c0.782,0,1.417-0.634,1.417-1.416"/>
	<path style="&st1;" d="M143.471,387.577c0-0.782-0.634-1.416-1.417-1.416"/>
	<path style="&st1;" d="M142.055,386.161c-0.782,0-1.416,0.634-1.416,1.416"/>
	<path style="&st1;" d="M140.639,387.577c0,0.782,0.634,1.417,1.416,1.417"/>
	<path style="&st1;" d="M142.055,388.994c0.783,0,1.417-0.635,1.417-1.417"/>
	<path style="&st1;" d="M166.134,387.577c0-0.782-0.634-1.416-1.417-1.416"/>
	<path style="&st1;" d="M164.718,386.161c-0.782,0-1.417,0.634-1.417,1.416"/>
	<path style="&st1;" d="M163.301,387.577c0,0.782,0.634,1.417,1.417,1.417"/>
	<path style="&st1;" d="M164.718,388.994c0.782,0,1.417-0.635,1.417-1.417"/>
	<path style="&st1;" d="M253.953,387.577c0-0.782-0.634-1.416-1.416-1.416"/>
	<path style="&st1;" d="M252.537,386.161c-0.782,0-1.417,0.634-1.417,1.416"/>
	<path style="&st1;" d="M251.12,387.577c0,0.782,0.634,1.417,1.417,1.417"/>
	<path style="&st1;" d="M252.537,388.994c0.782,0,1.416-0.635,1.416-1.417"/>
	<path style="&st0;" d="M273.783,387.577c-1.612-2.737-5.141-3.649-7.878-2.036"/>
	<path style="&st0;" d="M265.905,385.541c-0.882,0.52-1.518,1.154-2.037,2.036"/>
	<path style="&st1;" d="M276.616,387.577c0-0.782-0.634-1.416-1.416-1.416"/>
	<path style="&st1;" d="M275.2,386.161c-0.783,0-1.417,0.634-1.417,1.416"/>
	<path style="&st1;" d="M273.783,387.577c0,0.782,0.634,1.417,1.417,1.417"/>
	<path style="&st1;" d="M275.2,388.994c0.782,0,1.416-0.635,1.416-1.417"/>
	<path style="&st0;" d="M253.953,387.577c1.613,2.738,5.141,3.65,7.879,2.037"/>
	<path style="&st0;" d="M261.832,389.614c0.881-0.52,1.517-1.154,2.036-2.037"/>
	<path style="&st1;" d="M143.471,421.572c0-0.782-0.634-1.417-1.417-1.417"/>
	<path style="&st1;" d="M142.055,420.155c-0.782,0-1.416,0.635-1.416,1.417"/>
	<path style="&st1;" d="M140.639,421.572c0,0.782,0.634,1.416,1.416,1.416"/>
	<path style="&st1;" d="M142.055,422.988c0.783,0,1.417-0.634,1.417-1.416"/>
	<path style="&st0;" d="M163.301,421.572c-1.613-2.738-5.14-3.65-7.878-2.037"/>
	<path style="&st0;" d="M155.423,419.535c-0.882,0.52-1.518,1.155-2.037,2.037"/>
	<path style="&st1;" d="M166.134,421.572c0-0.782-0.634-1.417-1.417-1.417"/>
	<path style="&st1;" d="M164.718,420.155c-0.782,0-1.417,0.635-1.417,1.417"/>
	<path style="&st1;" d="M163.301,421.572c0,0.782,0.634,1.416,1.417,1.416"/>
	<path style="&st1;" d="M164.718,422.988c0.782,0,1.417-0.634,1.417-1.416"/>
	<path style="&st0;" d="M143.471,421.572c1.613,2.737,5.14,3.649,7.878,2.036"/>
	<path style="&st0;" d="M151.35,423.608c0.882-0.52,1.517-1.154,2.037-2.036"/>
	<path style="&st0;" d="M163.301,387.577c-1.613-2.737-5.14-3.649-7.878-2.036"/>
	<path style="&st0;" d="M155.423,385.541c-0.882,0.52-1.518,1.154-2.037,2.036"/>
	<path style="&st0;" d="M143.471,387.577c1.613,2.738,5.14,3.65,7.878,2.037"/>
	<path style="&st0;" d="M151.35,389.614c0.882-0.52,1.517-1.155,2.037-2.037"/>
	<path style="&st1;" d="M143.471,455.566c0-0.782-0.634-1.417-1.417-1.417"/>
	<path style="&st1;" d="M142.055,454.149c-0.782,0-1.416,0.635-1.416,1.417"/>
	<path style="&st1;" d="M140.639,455.566c0,0.782,0.634,1.416,1.416,1.416"/>
	<path style="&st1;" d="M142.055,456.982c0.783,0,1.417-0.634,1.417-1.416"/>
	<path style="&st0;" d="M163.301,455.566c-1.613-2.738-5.14-3.65-7.878-2.037"/>
	<path style="&st0;" d="M155.423,453.529c-0.882,0.52-1.518,1.155-2.037,2.037"/>
	<path style="&st1;" d="M166.134,455.566c0-0.782-0.634-1.417-1.417-1.417"/>
	<path style="&st1;" d="M164.718,454.149c-0.782,0-1.417,0.635-1.417,1.417"/>
	<path style="&st1;" d="M163.301,455.566c0,0.782,0.634,1.416,1.417,1.416"/>
	<path style="&st1;" d="M164.718,456.982c0.782,0,1.417-0.634,1.417-1.416"/>
	<path style="&st0;" d="M143.471,455.566c1.613,2.737,5.14,3.649,7.878,2.037"/>
	<path style="&st0;" d="M151.35,457.603c0.882-0.521,1.517-1.155,2.037-2.037"/>
	<path style="&st1;" d="M143.471,489.56c0-0.782-0.634-1.416-1.417-1.416"/>
	<path style="&st1;" d="M142.055,488.144c-0.782,0-1.416,0.634-1.416,1.416"/>
	<path style="&st1;" d="M140.639,489.56c0,0.782,0.634,1.416,1.416,1.416"/>
	<path style="&st1;" d="M142.055,490.976c0.783,0,1.417-0.634,1.417-1.416"/>
	<path style="&st0;" d="M163.301,489.56c-1.613-2.738-5.14-3.649-7.878-2.037"/>
	<path style="&st0;" d="M155.423,487.523c-0.882,0.52-1.518,1.155-2.037,2.037"/>
	<path style="&st1;" d="M166.134,489.56c0-0.782-0.634-1.416-1.417-1.416"/>
	<path style="&st1;" d="M164.718,488.144c-0.782,0-1.417,0.634-1.417,1.416"/>
	<path style="&st1;" d="M163.301,489.56c0,0.782,0.634,1.416,1.417,1.416"/>
	<path style="&st1;" d="M164.718,490.976c0.782,0,1.417-0.634,1.417-1.416"/>
	<path style="&st0;" d="M143.471,489.56c1.613,2.738,5.14,3.649,7.878,2.037"/>
	<path style="&st0;" d="M151.35,491.597c0.882-0.52,1.517-1.155,2.037-2.037"/>
	<path style="&st1;" d="M387.097,515.116c0-0.782-0.634-1.417-1.416-1.417"/>
	<path style="&st1;" d="M385.681,513.699c-0.782,0-1.416,0.635-1.416,1.417"/>
	<path style="&st1;" d="M384.265,515.116c0,0.782,0.634,1.416,1.416,1.416"/>
	<path style="&st1;" d="M385.681,516.532c0.782,0,1.416-0.634,1.416-1.416"/>
	<path style="&st0;" d="M364.435,515.116c1.612,2.737,5.14,3.649,7.877,2.036"/>
	<path style="&st0;" d="M372.312,517.152c0.883-0.52,1.518-1.154,2.037-2.036"/>
	<path style="&st1;" d="M364.435,515.116c0-0.782-0.635-1.417-1.417-1.417"/>
	<path style="&st1;" d="M363.018,513.699c-0.782,0-1.417,0.635-1.417,1.417"/>
	<path style="&st1;" d="M361.601,515.116c0,0.782,0.635,1.416,1.417,1.416"/>
	<path style="&st1;" d="M363.018,516.532c0.782,0,1.417-0.634,1.417-1.416"/>
	<path style="&st0;" d="M384.265,515.116c-1.613-2.738-5.141-3.65-7.879-2.037"/>
	<path style="&st0;" d="M376.386,513.079c-0.882,0.52-1.517,1.154-2.037,2.037"/>
	<path style="&st0;" d="M384.265,549.11c-1.613-2.738-5.141-3.65-7.879-2.037"/>
	<path style="&st0;" d="M376.386,547.073c-0.882,0.52-1.517,1.155-2.037,2.037"/>
	<path style="&st0;" d="M364.435,549.11c1.612,2.737,5.14,3.649,7.877,2.036"/>
	<path style="&st0;" d="M372.312,551.146c0.883-0.52,1.518-1.154,2.037-2.036"/>
	<path style="&st1;" d="M387.097,549.11c0-0.782-0.634-1.417-1.416-1.417"/>
	<path style="&st1;" d="M385.681,547.693c-0.782,0-1.416,0.635-1.416,1.417"/>
	<path style="&st1;" d="M384.265,549.11c0,0.782,0.634,1.416,1.416,1.416"/>
	<path style="&st1;" d="M385.681,550.526c0.782,0,1.416-0.634,1.416-1.416"/>
	<path style="&st1;" d="M364.435,549.11c0-0.782-0.635-1.417-1.417-1.417"/>
	<path style="&st1;" d="M363.018,547.693c-0.782,0-1.417,0.635-1.417,1.417"/>
	<path style="&st1;" d="M361.601,549.11c0,0.782,0.635,1.416,1.417,1.416"/>
	<path style="&st1;" d="M363.018,550.526c0.782,0,1.417-0.634,1.417-1.416"/>
	<path style="&st0;" d="M364.435,190.701c3.022,2.171,6.891,2.171,9.914,0"/>
	<path style="&st0;" d="M364.435,190.701c2.918,0.854,5.813,0.192,8.072-1.843"/>
	<path style="&st0;" d="M384.265,190.701c-3.024-2.171-6.893-2.171-9.916,0"/>
	<path style="&st0;" d="M384.265,190.701c-2.92-0.854-5.814-0.193-8.073,1.842"/>
	<path style="&st0;" d="M364.435,190.701c2.767,3.717,7.984,4.534,11.755,1.84"/>
	<path style="&st0;" d="M384.265,190.701c-2.768-3.718-7.985-4.534-11.756-1.84"/>
	<path style="&st0;" d="M364.435,156.707c3.022,2.171,6.891,2.171,9.914,0"/>
	<path style="&st0;" d="M364.435,156.707c2.918,0.854,5.813,0.192,8.072-1.843"/>
	<path style="&st0;" d="M384.265,156.707c-3.024-2.172-6.893-2.172-9.916,0"/>
	<path style="&st0;" d="M384.265,156.707c-2.92-0.854-5.814-0.193-8.073,1.842"/>
	<path style="&st0;" d="M364.435,156.707c2.767,3.717,7.984,4.533,11.755,1.84"/>
	<path style="&st0;" d="M384.265,156.707c-2.768-3.718-7.985-4.534-11.756-1.841"/>
	<path style="&st0;" d="M143.393,292.683c3.023,2.171,6.892,2.171,9.915,0"/>
	<path style="&st0;" d="M143.393,292.683c2.918,0.854,5.813,0.193,8.073-1.842"/>
	<path style="&st0;" d="M163.223,292.683c-3.023-2.171-6.892-2.171-9.915,0"/>
	<path style="&st0;" d="M163.223,292.683c-2.918-0.854-5.813-0.192-8.073,1.843"/>
	<path style="&st0;" d="M143.393,292.683c2.768,3.718,7.985,4.534,11.755,1.84"/>
	<path style="&st0;" d="M163.223,292.683c-2.767-3.717-7.984-4.534-11.755-1.84"/>
	<path style="&st1;" d="M218.542,139.793c0-0.782-0.634-1.416-1.417-1.416"/>
	<path style="&st1;" d="M217.125,138.377c-0.782,0-1.416,0.634-1.416,1.416"/>
	<path style="&st1;" d="M215.709,139.793c0,0.783,0.634,1.417,1.416,1.417"/>
	<path style="&st1;" d="M217.125,141.21c0.782,0,1.417-0.634,1.417-1.417"/>
	<path style="&st1;" d="M218.542,117.131c0-0.782-0.634-1.417-1.417-1.417"/>
	<path style="&st1;" d="M217.125,115.714c-0.782,0-1.416,0.635-1.416,1.417"/>
	<path style="&st1;" d="M215.709,117.131c0,0.782,0.634,1.416,1.416,1.416"/>
	<path style="&st1;" d="M217.125,118.547c0.782,0,1.417-0.634,1.417-1.416"/>
	<path style="&st0;" d="M217.125,138.377c0.854-2.919,0.193-5.813-1.842-8.072"/>
	<path style="&st0;" d="M217.125,138.377c2.171-3.023,2.171-6.892,0-9.915"/>
	<path style="&st0;" d="M217.125,138.377c3.718-2.768,4.534-7.984,1.84-11.755"/>
	<path style="&st0;" d="M217.125,118.547c-3.717,2.768-4.534,7.985-1.84,11.756"/>
	<path style="&st0;" d="M217.125,118.547c-2.171,3.023-2.171,6.892,0,9.915"/>
	<path style="&st0;" d="M217.125,118.547c-0.854,2.918-0.193,5.814,1.843,8.073"/>
	<path style="&st1;" d="M364.435,122.711c0-0.782-0.635-1.417-1.417-1.417"/>
	<path style="&st1;" d="M363.018,121.295c-0.782,0-1.417,0.634-1.417,1.417"/>
	<path style="&st1;" d="M361.601,122.711c0,0.782,0.635,1.417,1.417,1.417"/>
	<path style="&st1;" d="M363.018,124.128c0.782,0,1.417-0.634,1.417-1.417"/>
	<path style="&st1;" d="M387.097,122.711c0-0.782-0.634-1.417-1.416-1.417"/>
	<path style="&st1;" d="M385.681,121.295c-0.782,0-1.416,0.634-1.416,1.417"/>
	<path style="&st1;" d="M384.265,122.711c0,0.782,0.634,1.417,1.416,1.417"/>
	<path style="&st1;" d="M385.681,124.128c0.782,0,1.416-0.634,1.416-1.417"/>
	<path style="&st0;" d="M364.435,122.711c3.022,2.171,6.891,2.171,9.914,0"/>
	<path style="&st0;" d="M364.435,122.711c2.918,0.854,5.813,0.193,8.072-1.842"/>
	<path style="&st0;" d="M384.265,122.711c-3.024-2.171-6.893-2.171-9.916,0"/>
	<path style="&st0;" d="M384.265,122.711c-2.92-0.854-5.814-0.192-8.073,1.842"/>
	<path style="&st0;" d="M364.435,122.711c2.767,3.718,7.984,4.534,11.755,1.841"/>
	<path style="&st0;" d="M384.265,122.711c-2.768-3.717-7.985-4.534-11.756-1.84"/>
	<path style="&st1;" d="M429.59,84.055H217.125"/>
	<path style="&st1;" d="M89.647,326.677h127.479"/>
	<path style="&st1;" d="M310.61,84.055v242.622h50.991"/>
	<path style="&st1;" d="M429.59,326.677h-42.493"/>
	<path style="&st1;" d="M429.59,292.683h-42.493"/>
	<path style="&st1;" d="M310.61,292.683h50.991"/>
	<path style="&st1;" d="M429.59,258.689h-42.493"/>
	<path style="&st1;" d="M310.61,258.689h50.991"/>
	<path style="&st1;" d="M429.59,224.695h-42.493"/>
	<path style="&st1;" d="M310.61,224.695h50.991"/>
	<path style="&st1;" d="M429.59,190.701h-42.493"/>
	<path style="&st1;" d="M310.61,190.701h50.991"/>
	<path style="&st1;" d="M429.59,156.707h-42.493"/>
	<path style="&st1;" d="M310.61,156.707h50.991"/>
	<path style="&st1;" d="M89.647,292.683h50.992"/>
	<path style="&st1;" d="M217.125,292.683h-50.991"/>
	<path style="&st1;" d="M217.125,258.689h-50.991"/>
	<path style="&st1;" d="M89.647,258.689h50.992"/>
	<path style="&st1;" d="M89.647,224.695h50.992"/>
	<path style="&st1;" d="M217.125,224.695h-50.991"/>
	<path style="&st1;" d="M89.647,190.701h50.992"/>
	<path style="&st1;" d="M217.125,190.701h-50.991"/>
	<path style="&st1;" d="M89.647,156.707h50.992"/>
	<path style="&st1;" d="M217.125,156.707h-50.991"/>
	<path style="&st1;" d="M89.647,387.577h50.992"/>
	<path style="&st1;" d="M89.647,421.572h50.992"/>
	<path style="&st1;" d="M217.125,421.572h-50.991"/>
	<path style="&st1;" d="M217.125,455.566h-50.991"/>
	<path style="&st1;" d="M89.647,455.566h50.992"/>
	<path style="&st1;" d="M89.647,489.56h50.992"/>
	<path style="&st1;" d="M217.125,489.56h-50.991"/>
	<path style="&st1;" d="M361.601,455.566H310.61v-67.989"/>
	<path style="&st1;" d="M429.59,455.566h-42.493"/>
	<path style="&st1;" d="M429.59,421.572h-42.493"/>
	<path style="&st1;" d="M310.61,421.572h50.991"/>
	<path style="&st1;" d="M429.59,387.577h-42.493"/>
	<path style="&st1;" d="M361.601,387.577h-84.985"/>
	<path style="&st1;" d="M251.12,387.577h-84.986"/>
	<path style="&st1;" d="M253.953,642.61c0-0.782-0.634-1.416-1.416-1.416"/>
	<path style="&st1;" d="M252.537,641.194c-0.782,0-1.417,0.634-1.417,1.416"/>
	<path style="&st1;" d="M251.12,642.61c0,0.782,0.634,1.417,1.417,1.417"/>
	<path style="&st1;" d="M252.537,644.027c0.782,0,1.416-0.635,1.416-1.417"/>
	<path style="&st0;" d="M273.783,642.61c-1.612-2.737-5.141-3.649-7.878-2.036"/>
	<path style="&st0;" d="M265.905,640.574c-0.882,0.52-1.518,1.154-2.037,2.036"/>
	<path style="&st1;" d="M276.616,642.61c0-0.782-0.634-1.416-1.416-1.416"/>
	<path style="&st1;" d="M275.2,641.194c-0.783,0-1.417,0.634-1.417,1.416"/>
	<path style="&st1;" d="M273.783,642.61c0,0.782,0.634,1.417,1.417,1.417"/>
	<path style="&st1;" d="M275.2,644.027c0.782,0,1.416-0.635,1.416-1.417"/>
	<path style="&st0;" d="M253.953,642.61c1.613,2.738,5.141,3.65,7.879,2.037"/>
	<path style="&st0;" d="M261.832,644.647c0.881-0.52,1.517-1.154,2.036-2.037"/>
	<path style="&st1;" d="M429.59,642.61H276.616"/>
	<path style="&st1;" d="M251.12,642.61H89.647"/>
	<path style="&st1;" d="M218.318,325.675l0.272,0.47l0.093,0.532l-0.093,0.533l-0.272,0.47l-0.414,0.346l-0.507,0.188h-0.543    l-0.507-0.188l-0.414-0.346l-0.272-0.47l-0.094-0.533l0.094-0.532l0.272-0.47l0.414-0.346l0.507-0.188h0.543l0.507,0.188    L218.318,325.675l-0.394,0.711v0.583l-0.374,0.445l-0.572,0.099l-0.504-0.289l-0.198-0.547l0.198-0.546l0.504-0.289l0.572,0.099    l-0.425,0.736"/>
	<path style="&st1;" d="M218.318,155.704l0.272,0.47l0.093,0.533l-0.093,0.532l-0.272,0.47l-0.414,0.346l-0.507,0.188h-0.543    l-0.507-0.188l-0.414-0.346l-0.272-0.47l-0.094-0.532l0.094-0.533l0.272-0.47l0.414-0.346l0.507-0.188h0.543l0.507,0.188    L218.318,155.704l-0.394,0.711v0.583l-0.374,0.445l-0.572,0.099l-0.504-0.289l-0.198-0.546l0.198-0.547l0.504-0.289l0.572,0.099    l-0.425,0.737"/>
	<path style="&st1;" d="M218.318,189.698l0.272,0.47l0.093,0.533l-0.093,0.532l-0.272,0.471l-0.414,0.345l-0.507,0.188h-0.543    l-0.507-0.188l-0.414-0.345l-0.272-0.471l-0.094-0.532l0.094-0.533l0.272-0.47l0.414-0.346l0.507-0.188h0.543l0.507,0.188    L218.318,189.698l-0.394,0.711v0.584l-0.374,0.444l-0.572,0.099l-0.504-0.288l-0.198-0.547l0.198-0.547l0.504-0.289l0.572,0.099    l-0.425,0.737"/>
	<path style="&st1;" d="M218.318,223.692l0.272,0.47l0.093,0.533l-0.093,0.532l-0.272,0.471l-0.414,0.346l-0.507,0.187h-0.543    l-0.507-0.187l-0.414-0.346l-0.272-0.471l-0.094-0.532l0.094-0.533l0.272-0.47l0.414-0.346l0.507-0.187h0.543l0.507,0.187    L218.318,223.692l-0.394,0.711v0.584l-0.374,0.444l-0.572,0.1l-0.504-0.289l-0.198-0.547l0.198-0.547l0.504-0.289l0.572,0.1    l-0.425,0.736"/>
	<path style="&st1;" d="M218.318,257.686l0.272,0.471l0.093,0.532l-0.093,0.532l-0.272,0.471l-0.414,0.346l-0.507,0.187h-0.543    l-0.507-0.187l-0.414-0.346l-0.272-0.471l-0.094-0.532l0.094-0.532l0.272-0.471l0.414-0.346l0.507-0.187h0.543l0.507,0.187    L218.318,257.686l-0.394,0.711v0.584l-0.374,0.444l-0.572,0.1l-0.504-0.289l-0.198-0.547l0.198-0.547l0.504-0.289l0.572,0.1    l-0.425,0.736"/>
	<path style="&st1;" d="M218.318,291.68l0.272,0.471l0.093,0.532l-0.093,0.533l-0.272,0.47l-0.414,0.346l-0.507,0.188h-0.543    l-0.507-0.188l-0.414-0.346l-0.272-0.47l-0.094-0.533l0.094-0.532l0.272-0.471l0.414-0.346l0.507-0.187h0.543l0.507,0.187    L218.318,291.68l-0.394,0.712v0.583l-0.374,0.444l-0.572,0.1l-0.504-0.289l-0.198-0.547l0.198-0.547l0.504-0.289l0.572,0.1    l-0.425,0.736"/>
	<path style="&st1;" d="M218.318,386.575l0.272,0.47l0.093,0.532l-0.093,0.533l-0.272,0.47l-0.414,0.346l-0.507,0.188h-0.543    l-0.507-0.188l-0.414-0.346l-0.272-0.47l-0.094-0.533l0.094-0.532l0.272-0.47l0.414-0.346l0.507-0.188h0.543l0.507,0.188    L218.318,386.575l-0.394,0.711v0.583l-0.374,0.445l-0.572,0.099l-0.504-0.289l-0.198-0.547l0.198-0.546l0.504-0.289l0.572,0.099    l-0.425,0.736"/>
	<path style="&st1;" d="M218.318,420.569l0.272,0.47l0.093,0.533l-0.093,0.532l-0.272,0.471l-0.414,0.345l-0.507,0.188h-0.543    l-0.507-0.188l-0.414-0.345l-0.272-0.471l-0.094-0.532l0.094-0.533l0.272-0.47l0.414-0.346l0.507-0.188h0.543l0.507,0.188    L218.318,420.569l-0.394,0.711v0.583l-0.374,0.445l-0.572,0.099l-0.504-0.289l-0.198-0.546l0.198-0.547l0.504-0.289l0.572,0.099    l-0.425,0.737"/>
	<path style="&st1;" d="M218.318,454.563l0.272,0.47l0.093,0.533l-0.093,0.532l-0.272,0.471l-0.414,0.346l-0.507,0.187h-0.543    l-0.507-0.187l-0.414-0.346l-0.272-0.471l-0.094-0.532l0.094-0.533l0.272-0.47l0.414-0.346l0.507-0.187h0.543l0.507,0.187    L218.318,454.563l-0.394,0.711v0.584l-0.374,0.444l-0.572,0.1l-0.504-0.289l-0.198-0.547l0.198-0.547l0.504-0.289l0.572,0.1    l-0.425,0.736"/>
	<path style="&st1;" d="M143.471,523.555c0-0.783-0.634-1.417-1.417-1.417"/>
	<path style="&st1;" d="M142.055,522.138c-0.782,0-1.416,0.634-1.416,1.417"/>
	<path style="&st1;" d="M140.639,523.555c0,0.782,0.634,1.416,1.416,1.416"/>
	<path style="&st1;" d="M142.055,524.971c0.783,0,1.417-0.634,1.417-1.416"/>
	<path style="&st0;" d="M163.301,523.555c-1.613-2.738-5.14-3.65-7.878-2.037"/>
	<path style="&st0;" d="M155.423,521.518c-0.882,0.52-1.518,1.154-2.037,2.037"/>
	<path style="&st1;" d="M166.134,523.555c0-0.783-0.634-1.417-1.417-1.417"/>
	<path style="&st1;" d="M164.718,522.138c-0.782,0-1.417,0.634-1.417,1.417"/>
	<path style="&st1;" d="M163.301,523.555c0,0.782,0.634,1.416,1.417,1.416"/>
	<path style="&st1;" d="M164.718,524.971c0.782,0,1.417-0.634,1.417-1.416"/>
	<path style="&st0;" d="M143.471,523.555c1.613,2.737,5.14,3.649,7.878,2.036"/>
	<path style="&st0;" d="M151.35,525.591c0.882-0.52,1.517-1.154,2.037-2.036"/>
	<path style="&st1;" d="M89.647,523.555h50.992"/>
	<path style="&st1;" d="M217.125,523.555h-50.991"/>
	<path style="&st1;" d="M218.318,488.557l0.272,0.471l0.093,0.532l-0.093,0.533l-0.272,0.47l-0.414,0.346l-0.507,0.188h-0.543    l-0.507-0.188l-0.414-0.346l-0.272-0.47l-0.094-0.533l0.094-0.532l0.272-0.471l0.414-0.346l0.507-0.187h0.543l0.507,0.187    L218.318,488.557l-0.394,0.712v0.583l-0.374,0.445l-0.572,0.099l-0.504-0.289l-0.198-0.547l0.198-0.547l0.504-0.288l0.572,0.099    l-0.425,0.736"/>
	<path style="&st1;" d="M311.803,386.575l0.271,0.47l0.093,0.532l-0.093,0.533l-0.271,0.47l-0.414,0.346l-0.507,0.188h-0.545    l-0.506-0.188l-0.414-0.346l-0.272-0.47l-0.093-0.533l0.093-0.532l0.272-0.47l0.414-0.346l0.506-0.188h0.545l0.507,0.188    L311.803,386.575l-0.395,0.711v0.583l-0.374,0.445l-0.572,0.099l-0.504-0.289l-0.198-0.547l0.198-0.546l0.504-0.289l0.572,0.099    l-0.425,0.736"/>
	<path style="&st1;" d="M311.803,420.569l0.271,0.47l0.093,0.533l-0.093,0.532l-0.271,0.471l-0.414,0.345l-0.507,0.188h-0.545    l-0.506-0.188l-0.414-0.345l-0.272-0.471l-0.093-0.532l0.093-0.533l0.272-0.47l0.414-0.346l0.506-0.188h0.545l0.507,0.188    L311.803,420.569l-0.395,0.711v0.583l-0.374,0.445l-0.572,0.099l-0.504-0.289l-0.198-0.546l0.198-0.547l0.504-0.289l0.572,0.099    l-0.425,0.737"/>
	<path style="&st1;" d="M311.803,291.68l0.271,0.471l0.093,0.532l-0.093,0.533l-0.271,0.47l-0.414,0.346l-0.507,0.188h-0.545    l-0.506-0.188l-0.414-0.346l-0.272-0.47l-0.093-0.533l0.093-0.532l0.272-0.471l0.414-0.346l0.506-0.187h0.545l0.507,0.187    L311.803,291.68l-0.395,0.712v0.583l-0.374,0.444l-0.572,0.1l-0.504-0.289l-0.198-0.547l0.198-0.547l0.504-0.289l0.572,0.1    l-0.425,0.736"/>
	<path style="&st1;" d="M311.803,257.686l0.271,0.471l0.093,0.532l-0.093,0.532l-0.271,0.471l-0.414,0.346l-0.507,0.187h-0.545    l-0.506-0.187l-0.414-0.346l-0.272-0.471l-0.093-0.532l0.093-0.532l0.272-0.471l0.414-0.346l0.506-0.187h0.545l0.507,0.187    L311.803,257.686l-0.395,0.711v0.584l-0.374,0.444l-0.572,0.1l-0.504-0.289l-0.198-0.547l0.198-0.547l0.504-0.289l0.572,0.1    l-0.425,0.736"/>
	<path style="&st1;" d="M311.803,223.692l0.271,0.47l0.093,0.533l-0.093,0.532l-0.271,0.471l-0.414,0.346l-0.507,0.187h-0.545    l-0.506-0.187l-0.414-0.346l-0.272-0.471l-0.093-0.532l0.093-0.533l0.272-0.47l0.414-0.346l0.506-0.187h0.545l0.507,0.187    L311.803,223.692l-0.395,0.711v0.584l-0.374,0.444l-0.572,0.1l-0.504-0.289l-0.198-0.547l0.198-0.547l0.504-0.289l0.572,0.1    l-0.425,0.736"/>
	<path style="&st1;" d="M311.803,189.698l0.271,0.47l0.093,0.533l-0.093,0.532l-0.271,0.471l-0.414,0.345l-0.507,0.188h-0.545    l-0.506-0.188l-0.414-0.345l-0.272-0.471l-0.093-0.532l0.093-0.533l0.272-0.47l0.414-0.346l0.506-0.188h0.545l0.507,0.188    L311.803,189.698l-0.395,0.711v0.584l-0.374,0.444l-0.572,0.099l-0.504-0.288l-0.198-0.547l0.198-0.547l0.504-0.289l0.572,0.099    l-0.425,0.737"/>
	<path style="&st1;" d="M311.803,155.704l0.271,0.47l0.093,0.533l-0.093,0.532l-0.271,0.47l-0.414,0.346l-0.507,0.188h-0.545    l-0.506-0.188l-0.414-0.346l-0.272-0.47l-0.093-0.532l0.093-0.533l0.272-0.47l0.414-0.346l0.506-0.188h0.545l0.507,0.188    L311.803,155.704l-0.395,0.711v0.583l-0.374,0.445l-0.572,0.099l-0.504-0.289l-0.198-0.546l0.198-0.547l0.504-0.289l0.572,0.099    l-0.425,0.737"/>
	<path style="&st1;" d="M311.803,83.052l0.271,0.47l0.093,0.533l-0.093,0.532l-0.271,0.47l-0.414,0.346l-0.507,0.187h-0.545    l-0.506-0.187l-0.414-0.346l-0.272-0.47l-0.093-0.532l0.093-0.533l0.272-0.47l0.414-0.346l0.506-0.187h0.545l0.507,0.187    L311.803,83.052l-0.395,0.711v0.583l-0.374,0.445l-0.572,0.099l-0.504-0.289l-0.198-0.546l0.198-0.547l0.504-0.289l0.572,0.099    l-0.425,0.737"/>
	<path style="&st1;" d="M311.803,548.107l0.271,0.47l0.093,0.533l-0.093,0.532l-0.271,0.471l-0.414,0.346l-0.507,0.187h-0.545    l-0.506-0.187l-0.414-0.346l-0.272-0.471l-0.093-0.532l0.093-0.533l0.272-0.47l0.414-0.346l0.506-0.188h0.545l0.507,0.188    L311.803,548.107l-0.395,0.711v0.583l-0.374,0.445l-0.572,0.1l-0.504-0.289l-0.198-0.547l0.198-0.547l0.504-0.289l0.572,0.1    l-0.425,0.736"/>
	<path style="&st1;" d="M429.59,549.11h-42.493"/>
	<path style="&st1;" d="M361.601,515.116H310.61v33.994"/>
	<path style="&st1;" d="M89.647,549.11h271.954"/>
	<path style="&st1;" d="M429.59,515.116h-42.493"/>
	<path style="&st1;" d="M387.097,583.104c0-0.782-0.634-1.417-1.416-1.417"/>
	<path style="&st1;" d="M385.681,581.687c-0.782,0-1.416,0.635-1.416,1.417"/>
	<path style="&st1;" d="M384.265,583.104c0,0.782,0.634,1.416,1.416,1.416"/>
	<path style="&st1;" d="M385.681,584.52c0.782,0,1.416-0.634,1.416-1.416"/>
	<path style="&st0;" d="M364.435,583.104c1.612,2.737,5.14,3.649,7.877,2.037"/>
	<path style="&st0;" d="M372.312,585.141c0.883-0.521,1.518-1.155,2.037-2.037"/>
	<path style="&st1;" d="M364.435,583.104c0-0.782-0.635-1.417-1.417-1.417"/>
	<path style="&st1;" d="M363.018,581.687c-0.782,0-1.417,0.635-1.417,1.417"/>
	<path style="&st1;" d="M361.601,583.104c0,0.782,0.635,1.416,1.417,1.416"/>
	<path style="&st1;" d="M363.018,584.52c0.782,0,1.417-0.634,1.417-1.416"/>
	<path style="&st0;" d="M384.265,583.104c-1.613-2.738-5.141-3.65-7.879-2.037"/>
	<path style="&st0;" d="M376.386,581.067c-0.882,0.52-1.517,1.155-2.037,2.037"/>
	<path style="&st0;" d="M384.265,617.098c-1.613-2.738-5.141-3.649-7.879-2.037"/>
	<path style="&st0;" d="M376.386,615.061c-0.882,0.52-1.517,1.155-2.037,2.037"/>
	<path style="&st0;" d="M364.435,617.098c1.612,2.738,5.14,3.649,7.877,2.037"/>
	<path style="&st0;" d="M372.312,619.135c0.883-0.52,1.518-1.155,2.037-2.037"/>
	<path style="&st1;" d="M387.097,617.098c0-0.782-0.634-1.416-1.416-1.416"/>
	<path style="&st1;" d="M385.681,615.682c-0.782,0-1.416,0.634-1.416,1.416"/>
	<path style="&st1;" d="M384.265,617.098c0,0.782,0.634,1.416,1.416,1.416"/>
	<path style="&st1;" d="M385.681,618.514c0.782,0,1.416-0.634,1.416-1.416"/>
	<path style="&st1;" d="M364.435,617.098c0-0.782-0.635-1.416-1.417-1.416"/>
	<path style="&st1;" d="M363.018,615.682c-0.782,0-1.417,0.634-1.417,1.416"/>
	<path style="&st1;" d="M361.601,617.098c0,0.782,0.635,1.416,1.417,1.416"/>
	<path style="&st1;" d="M363.018,618.514c0.782,0,1.417-0.634,1.417-1.416"/>
	<path style="&st1;" d="M311.803,616.095l0.271,0.471l0.093,0.532l-0.093,0.532l-0.271,0.471l-0.414,0.346l-0.507,0.187h-0.545    l-0.506-0.187l-0.414-0.346l-0.272-0.471l-0.093-0.532l0.093-0.532l0.272-0.471l0.414-0.346l0.506-0.187h0.545l0.507,0.187    L311.803,616.095l-0.395,0.711v0.584l-0.374,0.444l-0.572,0.1l-0.504-0.289l-0.198-0.547l0.198-0.547l0.504-0.289l0.572,0.1    l-0.425,0.736"/>
	<path style="&st1;" d="M429.59,617.098h-42.493"/>
	<path style="&st1;" d="M361.601,583.104H310.61v33.994"/>
	<path style="&st1;" d="M89.647,617.098h271.954"/>
	<path style="&st1;" d="M429.59,583.104h-42.493"/>
	<path style="&st0;" d="M89.647,58.559v606.9"/>
	<path style="&st0;" d="M429.59,665.459v-606.9H89.647"/>
	<path style="&st1;" d="M311.803,121.708l0.271,0.471l0.093,0.532l-0.093,0.533l-0.271,0.47l-0.414,0.346l-0.507,0.188h-0.545    l-0.506-0.188l-0.414-0.346l-0.272-0.47l-0.093-0.533l0.093-0.532l0.272-0.471l0.414-0.345l0.506-0.188h0.545l0.507,0.188    L311.803,121.708l-0.395,0.711v0.583l-0.374,0.445l-0.572,0.099l-0.504-0.289l-0.198-0.547l0.198-0.547l0.504-0.288l0.572,0.099    l-0.425,0.736"/>
	<path style="&st1;" d="M429.59,122.711h-42.493"/>
	<path style="&st1;" d="M310.61,122.711h50.991"/>
	<path style="&st1;" d="M89.647,100.219h127.479"/>
	<path style="&st1;" d="M218.318,99.216l0.272,0.471l0.093,0.532l-0.093,0.533l-0.272,0.47l-0.414,0.346l-0.507,0.187h-0.543    l-0.507-0.187l-0.414-0.346l-0.272-0.47l-0.094-0.533l0.094-0.532l0.272-0.471l0.414-0.346l0.507-0.187h0.543l0.507,0.187    L218.318,99.216l-0.394,0.711v0.583l-0.374,0.445l-0.572,0.099l-0.504-0.289l-0.198-0.547l0.198-0.546l0.504-0.29l0.572,0.1    l-0.425,0.736"/>
	<path style="&st1;" d="M217.125,523.555V141.21"/>
	<path style="&st1;" d="M217.125,115.714V84.055"/>
	<path style="&st4;" d="M89.647,348.023H429.59"/>
	<path style="&st0;" d="M89.647,665.459H429.59"/>
	<path style="&st0;" d="M805.256,87.55l22.663-5.665"/>
	<path style="&st1;" d="M798.174,87.55h4.249"/>
	<path style="&st1;" d="M827.919,87.55h4.249"/>
	<path style="&st1;" d="M832.168,113.046h-8.498"/>
	<path style="&st1;" d="M806.672,113.046h-8.498"/>
	<path style="&st0;" d="M805.256,198.032l22.663-5.666"/>
	<path style="&st1;" d="M798.174,198.032h4.249"/>
	<path style="&st1;" d="M827.919,198.032h4.249"/>
	<path style="&st1;" d="M832.168,223.528h-8.498"/>
	<path style="&st1;" d="M806.672,223.528h-8.498"/>
	<path style="&st0;" d="M805.256,308.514l22.663-5.666"/>
	<path style="&st1;" d="M798.174,308.514h4.249"/>
	<path style="&st1;" d="M827.919,308.514h4.249"/>
	<path style="&st1;" d="M832.168,334.009h-8.498"/>
	<path style="&st1;" d="M806.672,334.009h-8.498"/>
	<path style="&st0;" d="M805.256,435.998l22.663-5.666"/>
	<path style="&st1;" d="M798.174,435.998h4.249"/>
	<path style="&st1;" d="M827.919,435.998h4.249"/>
	<path style="&st1;" d="M832.168,461.494h-8.498"/>
	<path style="&st1;" d="M806.672,461.494h-8.498"/>
	<path style="&st1;" d="M805.256,87.55c0-0.782-0.634-1.416-1.416-1.416"/>
	<path style="&st1;" d="M803.84,86.134c-0.782,0-1.417,0.634-1.417,1.416"/>
	<path style="&st1;" d="M802.423,87.55c0,0.783,0.635,1.417,1.417,1.417"/>
	<path style="&st1;" d="M803.84,88.967c0.782,0,1.416-0.634,1.416-1.417"/>
	<path style="&st1;" d="M827.919,87.55c0-0.782-0.635-1.416-1.417-1.416"/>
	<path style="&st1;" d="M826.502,86.134c-0.782,0-1.416,0.634-1.416,1.416"/>
	<path style="&st1;" d="M825.086,87.55c0,0.783,0.634,1.417,1.416,1.417"/>
	<path style="&st1;" d="M826.502,88.967c0.782,0,1.417-0.634,1.417-1.417"/>
	<path style="&st1;" d="M823.67,113.046c0-1.956-1.586-3.541-3.542-3.541"/>
	<path style="&st1;" d="M820.128,109.505c-1.955,0-3.541,1.585-3.541,3.541"/>
	<path style="&st1;" d="M816.587,113.046c0,0.99,0.355,1.836,1.063,2.529"/>
	<path style="&st1;" d="M817.65,115.576c1.396-1.369,1.42-3.611,0.051-5.008"/>
	<path style="&st1;" d="M817.701,110.568c-1.368-1.397-3.611-1.42-5.009-0.051"/>
	<path style="&st1;" d="M812.692,110.517c-1.396,1.369-1.419,3.611-0.051,5.008"/>
	<path style="&st1;" d="M812.641,115.525c0.018,0.019,0.033,0.033,0.051,0.051"/>
	<path style="&st1;" d="M812.692,115.576c1.397-1.369,1.42-3.611,0.052-5.008"/>
	<path style="&st1;" d="M812.744,110.568c-1.369-1.397-3.611-1.42-5.009-0.051"/>
	<path style="&st1;" d="M807.735,110.517c-0.707,0.693-1.063,1.539-1.063,2.53"/>
	<path style="&st1;" d="M805.256,198.032c0-0.782-0.634-1.417-1.416-1.417"/>
	<path style="&st1;" d="M803.84,196.616c-0.782,0-1.417,0.634-1.417,1.417"/>
	<path style="&st1;" d="M802.423,198.032c0,0.782,0.635,1.417,1.417,1.417"/>
	<path style="&st1;" d="M803.84,199.449c0.782,0,1.416-0.634,1.416-1.417"/>
	<path style="&st1;" d="M827.919,198.032c0-0.782-0.635-1.417-1.417-1.417"/>
	<path style="&st1;" d="M826.502,196.616c-0.782,0-1.416,0.634-1.416,1.417"/>
	<path style="&st1;" d="M825.086,198.032c0,0.782,0.634,1.417,1.416,1.417"/>
	<path style="&st1;" d="M826.502,199.449c0.782,0,1.417-0.634,1.417-1.417"/>
	<path style="&st1;" d="M823.67,223.528c0-1.956-1.586-3.541-3.542-3.541"/>
	<path style="&st1;" d="M820.128,219.987c-1.955,0-3.541,1.585-3.541,3.541"/>
	<path style="&st1;" d="M816.587,223.528c0,0.991,0.355,1.836,1.063,2.529"/>
	<path style="&st1;" d="M817.65,226.058c1.396-1.369,1.42-3.611,0.051-5.008"/>
	<path style="&st1;" d="M817.701,221.049c-1.368-1.397-3.611-1.42-5.009-0.051"/>
	<path style="&st1;" d="M812.692,220.998c-1.396,1.369-1.419,3.612-0.051,5.009"/>
	<path style="&st1;" d="M812.641,226.007c0.018,0.018,0.033,0.033,0.051,0.051"/>
	<path style="&st1;" d="M812.692,226.058c1.397-1.369,1.42-3.611,0.052-5.008"/>
	<path style="&st1;" d="M812.744,221.049c-1.369-1.397-3.611-1.42-5.009-0.051"/>
	<path style="&st1;" d="M807.735,220.998c-0.707,0.693-1.063,1.539-1.063,2.53"/>
	<path style="&st1;" d="M805.256,308.514c0-0.782-0.634-1.417-1.416-1.417"/>
	<path style="&st1;" d="M803.84,307.097c-0.782,0-1.417,0.634-1.417,1.417"/>
	<path style="&st1;" d="M802.423,308.514c0,0.782,0.635,1.417,1.417,1.417"/>
	<path style="&st1;" d="M803.84,309.93c0.782,0,1.416-0.634,1.416-1.417"/>
	<path style="&st1;" d="M827.919,308.514c0-0.782-0.635-1.417-1.417-1.417"/>
	<path style="&st1;" d="M826.502,307.097c-0.782,0-1.416,0.634-1.416,1.417"/>
	<path style="&st1;" d="M825.086,308.514c0,0.782,0.634,1.417,1.416,1.417"/>
	<path style="&st1;" d="M826.502,309.93c0.782,0,1.417-0.634,1.417-1.417"/>
	<path style="&st1;" d="M823.67,334.009c0-1.956-1.586-3.541-3.542-3.541"/>
	<path style="&st1;" d="M820.128,330.468c-1.955,0-3.541,1.585-3.541,3.541"/>
	<path style="&st1;" d="M816.587,334.009c0,0.991,0.355,1.836,1.063,2.529"/>
	<path style="&st1;" d="M817.65,336.539c1.396-1.369,1.42-3.611,0.051-5.008"/>
	<path style="&st1;" d="M817.701,331.531c-1.368-1.397-3.611-1.42-5.009-0.051"/>
	<path style="&st1;" d="M812.692,331.48c-1.396,1.369-1.419,3.611-0.051,5.008"/>
	<path style="&st1;" d="M812.641,336.488c0.018,0.018,0.033,0.033,0.051,0.051"/>
	<path style="&st1;" d="M812.692,336.539c1.397-1.369,1.42-3.611,0.052-5.008"/>
	<path style="&st1;" d="M812.744,331.531c-1.369-1.397-3.611-1.42-5.009-0.051"/>
	<path style="&st1;" d="M807.735,331.48c-0.707,0.693-1.063,1.539-1.063,2.529"/>
	<path style="&st1;" d="M805.256,435.998c0-0.782-0.634-1.416-1.416-1.416"/>
	<path style="&st1;" d="M803.84,434.582c-0.782,0-1.417,0.634-1.417,1.416"/>
	<path style="&st1;" d="M802.423,435.998c0,0.782,0.635,1.416,1.417,1.416"/>
	<path style="&st1;" d="M803.84,437.414c0.782,0,1.416-0.634,1.416-1.416"/>
	<path style="&st1;" d="M827.919,435.998c0-0.782-0.635-1.416-1.417-1.416"/>
	<path style="&st1;" d="M826.502,434.582c-0.782,0-1.416,0.634-1.416,1.416"/>
	<path style="&st1;" d="M825.086,435.998c0,0.782,0.634,1.416,1.416,1.416"/>
	<path style="&st1;" d="M826.502,437.414c0.782,0,1.417-0.634,1.417-1.416"/>
	<path style="&st1;" d="M823.67,461.494c0-1.956-1.586-3.541-3.542-3.541"/>
	<path style="&st1;" d="M820.128,457.953c-1.955,0-3.541,1.585-3.541,3.541"/>
	<path style="&st1;" d="M816.587,461.494c0,0.99,0.355,1.836,1.063,2.529"/>
	<path style="&st1;" d="M817.65,464.023c1.396-1.368,1.42-3.611,0.051-5.009"/>
	<path style="&st1;" d="M817.701,459.014c-1.368-1.396-3.611-1.419-5.009-0.051"/>
	<path style="&st1;" d="M812.692,458.963c-1.396,1.369-1.419,3.612-0.051,5.009"/>
	<path style="&st1;" d="M812.641,463.972c0.018,0.018,0.033,0.033,0.051,0.051"/>
	<path style="&st1;" d="M812.692,464.023c1.397-1.368,1.42-3.611,0.052-5.009"/>
	<path style="&st1;" d="M812.744,459.014c-1.369-1.396-3.611-1.419-5.009-0.051"/>
	<path style="&st1;" d="M807.735,458.963c-0.707,0.694-1.063,1.54-1.063,2.53"/>
	<path style="&st0;" d="M693.358,87.55c-1.612-2.737-5.14-3.649-7.878-2.037"/>
	<path style="&st0;" d="M685.48,85.514c-0.882,0.52-1.518,1.155-2.037,2.037"/>
	<path style="&st0;" d="M673.529,87.55c1.612,2.738,5.14,3.65,7.877,2.037"/>
	<path style="&st0;" d="M681.406,89.587c0.883-0.52,1.518-1.155,2.037-2.037"/>
	<path style="&st1;" d="M696.191,87.55c0-0.782-0.635-1.416-1.416-1.416"/>
	<path style="&st1;" d="M694.775,86.134c-0.783,0-1.417,0.634-1.417,1.416"/>
	<path style="&st1;" d="M693.358,87.55c0,0.783,0.634,1.417,1.417,1.417"/>
	<path style="&st1;" d="M694.775,88.967c0.781,0,1.416-0.634,1.416-1.417"/>
	<path style="&st1;" d="M673.529,87.55c0-0.782-0.635-1.416-1.417-1.416"/>
	<path style="&st1;" d="M672.112,86.134c-0.782,0-1.417,0.634-1.417,1.416"/>
	<path style="&st1;" d="M670.695,87.55c0,0.783,0.635,1.417,1.417,1.417"/>
	<path style="&st1;" d="M672.112,88.967c0.782,0,1.417-0.634,1.417-1.417"/>
	<path style="&st0;" d="M693.358,198.032c-1.612-2.738-5.14-3.65-7.878-2.037"/>
	<path style="&st0;" d="M685.48,195.996c-0.882,0.52-1.518,1.155-2.037,2.037"/>
	<path style="&st0;" d="M673.529,198.032c1.612,2.738,5.14,3.65,7.877,2.037"/>
	<path style="&st0;" d="M681.406,200.069c0.883-0.52,1.518-1.155,2.037-2.037"/>
	<path style="&st1;" d="M696.191,198.032c0-0.782-0.635-1.417-1.416-1.417"/>
	<path style="&st1;" d="M694.775,196.616c-0.783,0-1.417,0.634-1.417,1.417"/>
	<path style="&st1;" d="M693.358,198.032c0,0.782,0.634,1.417,1.417,1.417"/>
	<path style="&st1;" d="M694.775,199.449c0.781,0,1.416-0.634,1.416-1.417"/>
	<path style="&st1;" d="M673.529,198.032c0-0.782-0.635-1.417-1.417-1.417"/>
	<path style="&st1;" d="M672.112,196.616c-0.782,0-1.417,0.634-1.417,1.417"/>
	<path style="&st1;" d="M670.695,198.032c0,0.782,0.635,1.417,1.417,1.417"/>
	<path style="&st1;" d="M672.112,199.449c0.782,0,1.417-0.634,1.417-1.417"/>
	<path style="&st0;" d="M693.358,308.514c-1.612-2.738-5.14-3.65-7.878-2.037"/>
	<path style="&st0;" d="M685.48,306.477c-0.882,0.52-1.518,1.155-2.037,2.037"/>
	<path style="&st0;" d="M673.529,308.514c1.612,2.738,5.14,3.65,7.877,2.037"/>
	<path style="&st0;" d="M681.406,310.55c0.883-0.52,1.518-1.155,2.037-2.037"/>
	<path style="&st1;" d="M696.191,308.514c0-0.782-0.635-1.417-1.416-1.417"/>
	<path style="&st1;" d="M694.775,307.097c-0.783,0-1.417,0.634-1.417,1.417"/>
	<path style="&st1;" d="M693.358,308.514c0,0.782,0.634,1.417,1.417,1.417"/>
	<path style="&st1;" d="M694.775,309.93c0.781,0,1.416-0.634,1.416-1.417"/>
	<path style="&st1;" d="M673.529,308.514c0-0.782-0.635-1.417-1.417-1.417"/>
	<path style="&st1;" d="M672.112,307.097c-0.782,0-1.417,0.634-1.417,1.417"/>
	<path style="&st1;" d="M670.695,308.514c0,0.782,0.635,1.417,1.417,1.417"/>
	<path style="&st1;" d="M672.112,309.93c0.782,0,1.417-0.634,1.417-1.417"/>
	<path style="&st1;" d="M696.191,435.998c0-0.782-0.635-1.416-1.416-1.416"/>
	<path style="&st1;" d="M694.775,434.582c-0.783,0-1.417,0.634-1.417,1.416"/>
	<path style="&st1;" d="M693.358,435.998c0,0.782,0.634,1.416,1.417,1.416"/>
	<path style="&st1;" d="M694.775,437.414c0.781,0,1.416-0.634,1.416-1.416"/>
	<path style="&st1;" d="M673.529,435.998c0-0.782-0.635-1.416-1.417-1.416"/>
	<path style="&st1;" d="M672.112,434.582c-0.782,0-1.417,0.634-1.417,1.416"/>
	<path style="&st1;" d="M670.695,435.998c0,0.782,0.635,1.416,1.417,1.416"/>
	<path style="&st1;" d="M672.112,437.414c0.782,0,1.417-0.634,1.417-1.416"/>
	<path style="&st0;" d="M832.168,121.545V79.052h-33.994v42.493H832.168"/>
	<path style="&st1;" d="M832.168,113.046h93.484"/>
	<path style="&st1;" d="M925.653,87.55h-93.484"/>
	<path style="&st1;" d="M798.174,87.55H696.191"/>
	<path style="&st0;" d="M832.168,232.026v-42.493h-33.994v42.493H832.168"/>
	<path style="&st1;" d="M925.653,198.032h-93.484"/>
	<path style="&st1;" d="M925.653,223.528h-93.484"/>
	<path style="&st1;" d="M696.191,198.032h101.983"/>
	<path style="&st0;" d="M832.168,342.507v-42.492h-33.994v42.492H832.168"/>
	<path style="&st1;" d="M925.653,308.514h-93.484"/>
	<path style="&st1;" d="M925.653,334.009h-93.484"/>
	<path style="&st1;" d="M696.191,308.514h101.983"/>
	<path style="&st0;" d="M832.168,469.993V427.5h-33.994v42.493H832.168"/>
	<path style="&st1;" d="M925.653,435.998h-93.484"/>
	<path style="&st1;" d="M925.653,461.494h-93.484"/>
	<path style="&st1;" d="M696.191,435.998h101.983"/>
	<path style="&st1;" d="M798.174,461.494h-33.995v25.495h161.474"/>
	<path style="&st1;" d="M619.704,198.032h50.991"/>
	<path style="&st1;" d="M670.695,435.998h-50.991V87.55"/>
	<path style="&st1;" d="M619.704,308.514h50.991"/>
	<path style="&st1;" d="M762.987,86.548l-0.271,0.47l-0.094,0.532l0.094,0.533l0.271,0.47l0.414,0.346l0.507,0.188h0.544    l0.507-0.188l0.414-0.346l0.271-0.47l0.094-0.533l-0.094-0.532l-0.271-0.47l-0.414-0.346l-0.507-0.187h-0.544l-0.507,0.187    L762.987,86.548l0.394,0.711v0.583l0.374,0.445l0.573,0.099l0.504-0.289l0.198-0.547l-0.198-0.546l-0.504-0.289l-0.573,0.099    l0.425,0.736"/>
	<path style="&st1;" d="M762.987,197.029l-0.271,0.47l-0.094,0.533l0.094,0.533l0.271,0.47l0.414,0.345l0.507,0.188h0.544    l0.507-0.188l0.414-0.345l0.271-0.47l0.094-0.533l-0.094-0.533l-0.271-0.47l-0.414-0.346l-0.507-0.187h-0.544l-0.507,0.187    L762.987,197.029l0.394,0.711v0.584l0.374,0.444l0.573,0.099l0.504-0.289l0.198-0.547l-0.198-0.547l-0.504-0.289l-0.573,0.099    l0.425,0.737"/>
	<path style="&st1;" d="M762.987,307.511l-0.271,0.47l-0.094,0.533l0.094,0.533l0.271,0.47l0.414,0.346l0.507,0.187h0.544    l0.507-0.187l0.414-0.346l0.271-0.47l0.094-0.533l-0.094-0.533l-0.271-0.47l-0.414-0.345l-0.507-0.187h-0.544l-0.507,0.187    L762.987,307.511l0.394,0.711v0.583l0.374,0.445l0.573,0.099l0.504-0.289l0.198-0.547l-0.198-0.547l-0.504-0.289l-0.573,0.099    l0.425,0.736"/>
	<path style="&st1;" d="M762.987,434.996l-0.271,0.47l-0.094,0.532l0.094,0.532l0.271,0.471l0.414,0.346l0.507,0.188h0.544    l0.507-0.188l0.414-0.346l0.271-0.471l0.094-0.532l-0.094-0.532l-0.271-0.47l-0.414-0.346l-0.507-0.188h-0.544l-0.507,0.188    L762.987,434.996l0.394,0.71v0.584l0.374,0.445l0.573,0.099l0.504-0.289l0.198-0.547l-0.198-0.547l-0.504-0.289l-0.573,0.1    l0.425,0.736"/>
	<path style="&st1;" d="M618.511,307.511l-0.271,0.47l-0.094,0.533l0.094,0.533l0.271,0.47l0.414,0.346l0.506,0.187h0.545    l0.507-0.187l0.413-0.346l0.272-0.47l0.093-0.533l-0.093-0.533l-0.272-0.47l-0.413-0.345l-0.507-0.187h-0.545l-0.506,0.187    L618.511,307.511l0.394,0.711v0.583l0.374,0.445l0.572,0.099l0.504-0.289l0.199-0.547l-0.199-0.547l-0.504-0.289l-0.572,0.099    l0.425,0.736"/>
	<path style="&st1;" d="M618.511,197.029l-0.271,0.47l-0.094,0.533l0.094,0.533l0.271,0.47l0.414,0.345l0.506,0.188h0.545    l0.507-0.188l0.413-0.345l0.272-0.47l0.093-0.533l-0.093-0.533l-0.272-0.47l-0.413-0.346l-0.507-0.187h-0.545l-0.506,0.187    L618.511,197.029l0.394,0.711v0.584l0.374,0.444l0.572,0.099l0.504-0.289l0.199-0.547l-0.199-0.547l-0.504-0.289l-0.572,0.099    l0.425,0.737"/>
	<path style="&st1;" d="M764.179,87.55V62.055h161.474"/>
	<path style="&st1;" d="M925.653,172.537H764.179v25.496"/>
	<path style="&st1;" d="M764.179,461.494v-59.496h161.474"/>
	<path style="&st1;" d="M764.179,198.032v25.496h33.995"/>
	<path style="&st1;" d="M764.179,308.514v-25.496h161.474"/>
	<path style="&st1;" d="M764.179,223.528v25.496h161.474"/>
	<path style="&st1;" d="M762.987,222.525l-0.271,0.47l-0.094,0.533l0.094,0.533l0.271,0.47l0.414,0.346l0.507,0.187h0.544    l0.507-0.187l0.414-0.346l0.271-0.47l0.094-0.533l-0.094-0.533l-0.271-0.47l-0.414-0.345l-0.507-0.187h-0.544l-0.507,0.187    L762.987,222.525l0.394,0.711v0.583l0.374,0.445l0.573,0.099l0.504-0.289l0.198-0.547l-0.198-0.547l-0.504-0.289l-0.573,0.099    l0.425,0.736"/>
	<path style="&st1;" d="M762.987,460.491l-0.271,0.47l-0.094,0.533l0.094,0.532l0.271,0.471l0.414,0.346l0.507,0.187h0.544    l0.507-0.187l0.414-0.346l0.271-0.471l0.094-0.532l-0.094-0.533l-0.271-0.47l-0.414-0.346l-0.507-0.187h-0.544l-0.507,0.187    L762.987,460.491l0.394,0.711v0.583l0.374,0.445l0.573,0.1l0.504-0.289l0.198-0.547l-0.198-0.547l-0.504-0.289l-0.573,0.1    l0.425,0.736"/>
	<path style="&st1;" d="M764.179,401.998v-16.996h110.482v-76.488"/>
	<path style="&st1;" d="M762.987,400.996l-0.271,0.47l-0.094,0.532l0.094,0.533l0.271,0.471l0.414,0.346l0.507,0.187h0.544    l0.507-0.187l0.414-0.346l0.271-0.471l0.094-0.533l-0.094-0.532l-0.271-0.47l-0.414-0.346l-0.507-0.187h-0.544l-0.507,0.187    L762.987,400.996l0.394,0.711v0.584l0.374,0.444l0.573,0.1l0.504-0.29l0.198-0.547l-0.198-0.546l-0.504-0.289l-0.573,0.099    l0.425,0.736"/>
	<path style="&st1;" d="M873.468,307.511l-0.271,0.47l-0.094,0.533l0.094,0.533l0.271,0.47l0.414,0.346l0.507,0.187h0.544    l0.508-0.187l0.413-0.346l0.272-0.47l0.093-0.533l-0.093-0.533l-0.272-0.47l-0.413-0.345l-0.508-0.187h-0.544l-0.507,0.187    L873.468,307.511l0.394,0.711v0.583l0.375,0.445l0.571,0.099l0.505-0.289l0.198-0.547l-0.198-0.547l-0.505-0.289l-0.571,0.099    l0.425,0.736"/>
	<path style="&st1;" d="M618.511,86.548l-0.271,0.47l-0.094,0.532l0.094,0.533l0.271,0.47l0.414,0.346l0.506,0.188h0.545    l0.507-0.188l0.413-0.346l0.272-0.47l0.093-0.533l-0.093-0.532l-0.272-0.47l-0.413-0.346l-0.507-0.187h-0.545l-0.506,0.187    L618.511,86.548l0.394,0.711v0.583l0.374,0.445l0.572,0.099l0.504-0.289l0.199-0.547l-0.199-0.546l-0.504-0.289l-0.572,0.099    l0.425,0.736"/>
	<path style="&st1;" d="M585.709,87.55h84.985"/>
	<path style="&st0;" d="M585.709,36.559v467.427h339.943V36.559"/>
	<path style="&st1;" d="M925.653,359.505H764.179v-25.496h33.995"/>
	<path style="&st1;" d="M925.653,138.542H764.179v-25.496h33.995"/>
	<path style="&st0;" d="M585.709,36.559h339.943"/>
</g>
<g id="キャプション">
	<text transform="matrix(1 0 0 1 61.9653 102.876)"><tspan x="0" y="0" style="&st5; &st3;">1</tspan></text>
	<a ewd:code="1F" ewd:figtype="jbc" style="cursor:pointer;">
		<path style="fill:#FFFFFF;stroke:#000000;stroke-width:0.8;" d="M78.587,105.609c2.977,0,5.39-2.414,5.39-5.39c0-2.977-2.413-5.391-5.39-5.391h-4.582     c-2.977,0-5.391,2.414-5.391,5.391c0,2.977,2.414,5.39,5.391,5.39H78.587z"/>
		<text transform="matrix(1 0 0 1 71.6284 103.0117)"><tspan x="0" y="0" style="&st5; &st3;">1F</tspan></text>
	</a>
	<text transform="matrix(1 0 0 1 61.9653 159.3638)"><tspan x="0" y="0" style="&st5; &st3;">1</tspan></text>
	<a ewd:code="1G" ewd:figtype="jbc" style="cursor:pointer;">
		<path style="fill:#FFFFFF;stroke:#000000;stroke-width:0.8;" d="M78.587,162.096c2.977,0,5.39-2.413,5.39-5.39c0-2.978-2.413-5.391-5.39-5.391h-4.582     c-2.977,0-5.391,2.413-5.391,5.391c0,2.977,2.414,5.39,5.391,5.39H78.587z"/>
		<text transform="matrix(1 0 0 1 70.9604 159.4985)"><tspan x="0" y="0" style="&st5; &st3;">1G</tspan></text>
	</a>
	<text transform="matrix(1 0 0 1 437.1138 86.7119)"><tspan x="0" y="0" style="&st5; &st3;">1</tspan></text>
	<a ewd:code="1E" ewd:figtype="jbc" style="cursor:pointer;">
		<path style="fill:#FFFFFF;stroke:#000000;stroke-width:0.8;" d="M453.736,89.445c2.977,0,5.39-2.413,5.39-5.39c0-2.977-2.413-5.391-5.39-5.391h-4.582     c-2.977,0-5.391,2.414-5.391,5.391c0,2.977,2.414,5.39,5.391,5.39H453.736z"/>
		<text transform="matrix(1 0 0 1 446.5522 86.8477)"><tspan x="0" y="0" style="&st5; &st3;">1E</tspan></text>
	</a>
	<text transform="matrix(1 0 0 1 437.1138 227.3521)"><tspan x="0" y="0" style="&st5; &st3;">2</tspan></text>
	<a ewd:code="1B" ewd:figtype="jbc" style="cursor:pointer;">
		<path style="fill:#FFFFFF;stroke:#000000;stroke-width:0.8;" d="M453.736,230.084c2.977,0,5.39-2.413,5.39-5.39c0-2.978-2.413-5.391-5.39-5.391h-4.582     c-2.977,0-5.391,2.413-5.391,5.391c0,2.977,2.414,5.39,5.391,5.39H453.736z"/>
		<text transform="matrix(1 0 0 1 446.5522 227.4878)"><tspan x="0" y="0" style="&st5; &st3;">1B</tspan></text>
	</a>
	<text transform="matrix(1 0 0 1 437.1128 193.3579)"><tspan x="0" y="0" style="&st5; &st3;">1</tspan></text>
	<a ewd:code="1B" ewd:figtype="jbc" style="cursor:pointer;">
		<path style="fill:#FFFFFF;stroke:#000000;stroke-width:0.8;" d="M453.736,196.09c2.977,0,5.39-2.413,5.39-5.39c0-2.978-2.413-5.391-5.39-5.391h-4.582     c-2.977,0-5.391,2.413-5.391,5.391c0,2.977,2.414,5.39,5.391,5.39H453.736z"/>
		<text transform="matrix(1 0 0 1 446.5522 193.4937)"><tspan x="0" y="0" style="&st5; &st3;">1B</tspan></text>
	</a>
	<text transform="matrix(1 0 0 1 437.1138 261.3462)"><tspan x="0" y="0" style="&st5; &st3;">1</tspan></text>
	<a ewd:code="1C" ewd:figtype="jbc" style="cursor:pointer;">
		<path style="fill:#FFFFFF;stroke:#000000;stroke-width:0.8;" d="M453.736,264.08c2.977,0,5.39-2.414,5.39-5.391c0-2.977-2.413-5.391-5.39-5.391h-4.582     c-2.977,0-5.391,2.414-5.391,5.391c0,2.977,2.414,5.391,5.391,5.391H453.736z"/>
		<text transform="matrix(1 0 0 1 446.3315 261.4819)"><tspan x="0" y="0" style="&st5; &st3;">1C</tspan></text>
	</a>
	<text transform="matrix(1 0 0 1 437.1138 295.3403)"><tspan x="0" y="0" style="&st5; &st3;">2</tspan></text>
	<a ewd:code="1C" ewd:figtype="jbc" style="cursor:pointer;">
		<path style="fill:#FFFFFF;stroke:#000000;stroke-width:0.8;" d="M453.736,298.074c2.977,0,5.39-2.414,5.39-5.391c0-2.977-2.413-5.391-5.39-5.391h-4.582     c-2.977,0-5.391,2.414-5.391,5.391c0,2.977,2.414,5.391,5.391,5.391H453.736z"/>
		<text transform="matrix(1 0 0 1 446.3315 295.4761)"><tspan x="0" y="0" style="&st5; &st3;">1C</tspan></text>
	</a>
	<text transform="matrix(1 0 0 1 437.1128 329.3345)"><tspan x="0" y="0" style="&st5; &st3;">1</tspan></text>
	<a ewd:code="1D" ewd:figtype="jbc" style="cursor:pointer;">
		<path style="fill:#FFFFFF;stroke:#000000;stroke-width:0.8;" d="M453.736,332.068c2.977,0,5.39-2.413,5.39-5.391c0-2.977-2.413-5.39-5.39-5.39h-4.582     c-2.977,0-5.391,2.413-5.391,5.39c0,2.978,2.414,5.391,5.391,5.391H453.736z"/>
		<text transform="matrix(1 0 0 1 446.3315 329.4702)"><tspan x="0" y="0" style="&st5; &st3;">1D</tspan></text>
	</a>
	<g>
		<text transform="matrix(1 0 0 1 449.2202 424.3647)"><tspan x="0" y="0" style="&st5; &st3;">1</tspan></text>
		<path style="&st2;" d="M453.736,426.961c2.977,0,5.39-2.413,5.39-5.39c0-2.978-2.413-5.391-5.39-5.391h-4.582     c-2.977,0-5.391,2.413-5.391,5.391c0,2.977,2.414,5.39,5.391,5.39H453.736z"/>
	</g>
	<g>
		<text transform="matrix(1 0 0 1 449.2202 458.3589)"><tspan x="0" y="0" style="&st5; &st3;">1</tspan></text>
		<path style="&st2;" d="M453.736,460.956c2.977,0,5.39-2.413,5.39-5.39c0-2.978-2.413-5.391-5.39-5.391h-4.582     c-2.977,0-5.391,2.413-5.391,5.391c0,2.977,2.414,5.39,5.391,5.39H453.736z"/>
	</g>
	<g>
		<text transform="matrix(1 0 0 1 449.2202 517.9077)"><tspan x="0" y="0" style="&st5; &st3;">1</tspan></text>
		<path style="&st2;" d="M453.736,520.505c2.977,0,5.39-2.413,5.39-5.39c0-2.978-2.413-5.391-5.39-5.391h-4.582     c-2.977,0-5.391,2.413-5.391,5.391c0,2.977,2.414,5.39,5.391,5.39H453.736z"/>
	</g>
	<g>
		<text transform="matrix(1 0 0 1 449.2202 551.9028)"><tspan x="0" y="0" style="&st5; &st3;">1</tspan></text>
		<path style="&st2;" d="M453.736,554.5c2.977,0,5.39-2.413,5.39-5.39c0-2.978-2.413-5.391-5.39-5.391h-4.582     c-2.977,0-5.391,2.413-5.391,5.391c0,2.977,2.414,5.39,5.391,5.39H453.736z"/>
	</g>
	<g>
		<text transform="matrix(1 0 0 1 449.2202 390.3696)"><tspan x="0" y="0" style="&st5; &st3;">1</tspan></text>
		<path style="&st2;" d="M453.736,392.967c2.977,0,5.39-2.413,5.39-5.391c0-2.977-2.413-5.39-5.39-5.39h-4.582     c-2.977,0-5.391,2.413-5.391,5.39c0,2.978,2.414,5.391,5.391,5.391H453.736z"/>
	</g>
	<text transform="matrix(1 0 0 1 61.9653 193.3579)"><tspan x="0" y="0" style="&st5; &st3;">3</tspan></text>
	<a ewd:code="1B" ewd:figtype="jbc" style="cursor:pointer;">
		<path style="fill:#FFFFFF;stroke:#000000;stroke-width:0.8;" d="M78.587,196.09c2.977,0,5.39-2.413,5.39-5.39c0-2.978-2.413-5.391-5.39-5.391h-4.582     c-2.977,0-5.391,2.413-5.391,5.391c0,2.977,2.414,5.39,5.391,5.39H78.587z"/>
		<text transform="matrix(1 0 0 1 71.4038 193.4937)"><tspan x="0" y="0" style="&st5; &st3;">1B</tspan></text>
	</a>
	<text transform="matrix(1 0 0 1 61.9653 227.3521)"><tspan x="0" y="0" style="&st5; &st3;">4</tspan></text>
	<a ewd:code="1B" ewd:figtype="jbc" style="cursor:pointer;">
		<path style="fill:#FFFFFF;stroke:#000000;stroke-width:0.8;" d="M78.587,230.084c2.977,0,5.39-2.413,5.39-5.39c0-2.978-2.413-5.391-5.39-5.391h-4.582     c-2.977,0-5.391,2.413-5.391,5.391c0,2.977,2.414,5.39,5.391,5.39H78.587z"/>
		<text transform="matrix(1 0 0 1 71.4038 227.4878)"><tspan x="0" y="0" style="&st5; &st3;">1B</tspan></text>
	</a>
	<text transform="matrix(1 0 0 1 61.9653 261.3462)"><tspan x="0" y="0" style="&st5; &st3;">3</tspan></text>
	<a ewd:code="1C" ewd:figtype="jbc" style="cursor:pointer;">
		<path style="fill:#FFFFFF;stroke:#000000;stroke-width:0.8;" d="M78.587,264.08c2.977,0,5.39-2.414,5.39-5.391c0-2.977-2.413-5.391-5.39-5.391h-4.582     c-2.977,0-5.391,2.414-5.391,5.391c0,2.977,2.414,5.391,5.391,5.391H78.587z"/>
		<text transform="matrix(1 0 0 1 71.1831 261.4819)"><tspan x="0" y="0" style="&st5; &st3;">1C</tspan></text>
	</a>
	<text transform="matrix(1 0 0 1 61.9653 329.3345)"><tspan x="0" y="0" style="&st5; &st3;">1</tspan></text>
	<a ewd:code="1A" ewd:figtype="jbc" style="cursor:pointer;">
		<path style="fill:#FFFFFF;stroke:#000000;stroke-width:0.8;" d="M78.587,332.068c2.977,0,5.39-2.413,5.39-5.391c0-2.977-2.413-5.39-5.39-5.39h-4.582     c-2.977,0-5.391,2.413-5.391,5.39c0,2.978,2.414,5.391,5.391,5.391H78.587z"/>
		<text transform="matrix(1 0 0 1 71.4038 329.4702)"><tspan x="0" y="0" style="&st5; &st3;">1A</tspan></text>
	</a>
	<g>
		<text transform="matrix(1 0 0 1 74.0718 458.3589)"><tspan x="0" y="0" style="&st5; &st3;">1</tspan></text>
		<path style="&st2;" d="M78.587,460.956c2.977,0,5.39-2.413,5.39-5.39c0-2.978-2.413-5.391-5.39-5.391h-4.582     c-2.977,0-5.391,2.413-5.391,5.391c0,2.977,2.414,5.39,5.391,5.39H78.587z"/>
	</g>
	<g>
		<text transform="matrix(1 0 0 1 74.0718 424.3647)"><tspan x="0" y="0" style="&st5; &st3;">1</tspan></text>
		<path style="&st2;" d="M78.587,426.961c2.977,0,5.39-2.413,5.39-5.39c0-2.978-2.413-5.391-5.39-5.391h-4.582     c-2.977,0-5.391,2.413-5.391,5.391c0,2.977,2.414,5.39,5.391,5.39H78.587z"/>
	</g>
	<g>
		<text transform="matrix(1 0 0 1 74.0718 390.3696)"><tspan x="0" y="0" style="&st5; &st3;">1</tspan></text>
		<path style="&st2;" d="M78.587,392.967c2.977,0,5.39-2.413,5.39-5.391c0-2.977-2.413-5.39-5.39-5.39h-4.582     c-2.977,0-5.391,2.413-5.391,5.39c0,2.978,2.414,5.391,5.391,5.391H78.587z"/>
	</g>
	<g>
		<text transform="matrix(1 0 0 1 74.0718 492.353)"><tspan x="0" y="0" style="&st5; &st3;">1</tspan></text>
		<path style="&st2;" d="M78.587,494.95c2.977,0,5.39-2.413,5.39-5.39c0-2.978-2.413-5.391-5.39-5.391h-4.582     c-2.977,0-5.391,2.413-5.391,5.391c0,2.977,2.414,5.39,5.391,5.39H78.587z"/>
	</g>
	<g>
		<text transform="matrix(1 0 0 1 74.0718 551.9028)"><tspan x="0" y="0" style="&st5; &st3;">1</tspan></text>
		<path style="&st2;" d="M78.587,554.5c2.977,0,5.39-2.413,5.39-5.39c0-2.978-2.413-5.391-5.39-5.391h-4.582     c-2.977,0-5.391,2.413-5.391,5.391c0,2.977,2.414,5.39,5.391,5.39H78.587z"/>
	</g>
	<text transform="matrix(1 0 0 1 103.2183 77.5073)"><tspan x="0" y="0" style="&st5; &st6;">Unit A</tspan></text>
	<text transform="matrix(1 0 0 1 103.2183 369.2778)"><tspan x="0" y="0" style="&st5; &st6;">Unit D</tspan></text>
	<text transform="matrix(1 0 0 1 223.5933 131.1753)"><tspan x="0" y="0" style="&st5; &st3;">100A ALT</tspan></text>
	<text transform="matrix(1 0 0 1 348.564 185.2754)"><tspan x="0" y="0" style="&st5; &st3;">30A CDS FAN</tspan></text>
	<text transform="matrix(1 0 0 1 343.8999 245.2754)"><tspan x="0" y="0" style="&st5; &st3;">40A FR HTR (*3)</tspan><tspan x="0" y="8" style="&st5; &st3;">50A FR HTR (*4)</tspan></text>
	<text transform="matrix(1 0 0 1 347.6694 287.0254)"><tspan x="0" y="0" style="&st5; &st3;">30A ABS NO.2</tspan></text>
	<text transform="matrix(1 0 0 1 136.9331 219.0254)"><tspan x="0" y="0" style="&st5; &st3;">30A AM2</tspan></text>
	<text transform="matrix(1 0 0 1 135.1577 253.0195)"><tspan x="0" y="0" style="&st5; &st3;">40A MAIN</tspan></text>
	<text transform="matrix(1 0 0 1 61.9653 295.3403)"><tspan x="0" y="0" style="&st5; &st3;">4</tspan></text>
	<a ewd:code="1C" ewd:figtype="jbc" style="cursor:pointer;">
		<path style="fill:#FFFFFF;stroke:#000000;stroke-width:0.8;" d="M78.587,298.074c2.977,0,5.39-2.414,5.39-5.391c0-2.977-2.413-5.391-5.39-5.391h-4.582     c-2.977,0-5.391,2.414-5.391,5.391c0,2.977,2.414,5.391,5.391,5.391H78.587z"/>
		<text transform="matrix(1 0 0 1 71.1831 295.4761)"><tspan x="0" y="0" style="&st5; &st3;">1C</tspan></text>
	</a>
	<text transform="matrix(1 0 0 1 117.0713 278.7397)"><tspan x="0" y="0" style="&st5; &st3;">50A A/PUMP (*9)</tspan><tspan x="0" y="8" style="&st5; &st3;">50A H-LP CLN (*10)</tspan></text>
	<text transform="matrix(1 0 0 1 246.9731 398.9155)"><tspan x="0" y="0" style="&st5; &st3;">30A DCC</tspan></text>
	<text transform="matrix(1 0 0 1 345.4683 398.7974)"><tspan x="0" y="0" style="&st5; &st3;">7.5A ECU-B (*1)</tspan><tspan x="0" y="8" style="&st5; &st3;">10A ECU-B (*2)</tspan></text>
	<text transform="matrix(1 0 0 1 347.894 432.9106)"><tspan x="0" y="0" style="&st5; &st3;">15A RAD (*11)</tspan><tspan x="0" y="8" style="&st5; &st3;">20A RAD (*12)</tspan></text>
	<text transform="matrix(1 0 0 1 353.0093 466.9048)"><tspan x="0" y="0" style="&st5; &st3;">7.5A DOME</tspan></text>
	<text transform="matrix(1 0 0 1 342.562 526.4546)"><tspan x="0" y="0" style="&st5; &st3;">20A H-LP RH (*5)</tspan><tspan x="0" y="8" style="&st5; &st3;">15A H-LP RH (*6)</tspan></text>
	<text transform="matrix(1 0 0 1 343.2261 560.4487)"><tspan x="0" y="0" style="&st5; &st3;">20A H-LP LH (*5)</tspan><tspan x="0" y="8" style="&st5; &st3;">15A H-LP LH (*6)</tspan></text>
	<text transform="matrix(1 0 0 1 132.7104 466.9048)"><tspan x="0" y="0" style="&st5; &st3;">7.5A ALT-S</tspan></text>
	<text transform="matrix(1 0 0 1 134.4897 432.9106)"><tspan x="0" y="0" style="&st5; &st3;">10A ETCS</tspan></text>
	<text transform="matrix(1 0 0 1 124.7163 500.8989)"><tspan x="0" y="0" style="&st5; &st3;">15A TURN-HAZ</tspan></text>
	<text transform="matrix(1 0 0 1 128.9331 185.0313)"><tspan x="0" y="0" style="&st5; &st3;">50A BATT P/I</tspan></text>
	<text transform="matrix(1 0 0 1 132.9351 151.0371)"><tspan x="0" y="0" style="&st5; &st3;">80A GLOW</tspan></text>
	<g>
		<text transform="matrix(1 0 0 1 277.2261 384.7417)"><tspan x="0" y="0" style="&st5; &st3;">2</tspan></text>
	</g>
	<g>
		<text transform="matrix(1 0 0 1 246.061 384.7417)"><tspan x="0" y="0" style="&st5; &st3;">1</tspan></text>
	</g>
	<g>
		<text transform="matrix(1 0 0 1 449.2202 645.4028)"><tspan x="0" y="0" style="&st5; &st3;">1</tspan></text>
		<path style="&st2;" d="M453.736,648c2.977,0,5.39-2.413,5.39-5.391c0-2.977-2.413-5.39-5.39-5.39h-4.582     c-2.977,0-5.391,2.413-5.391,5.39c0,2.978,2.414,5.391,5.391,5.391H453.736z"/>
	</g>
	<g>
		<text transform="matrix(1 0 0 1 74.0718 645.4028)"><tspan x="0" y="0" style="&st5; &st3;">1</tspan></text>
		<path style="&st2;" d="M78.587,648c2.977,0,5.39-2.413,5.39-5.391c0-2.977-2.413-5.39-5.39-5.39h-4.582     c-2.977,0-5.391,2.413-5.391,5.39c0,2.978,2.414,5.391,5.391,5.391H78.587z"/>
	</g>
	<text transform="matrix(1 0 0 1 220.1714 653.9487)"><tspan x="0" y="0" style="&st5; &st3;">7.5A ECU-IG NO.2 (*11)</tspan><tspan x="0" y="8" style="&st5; &st3;">10A ECU-IG NO.2 (*12)</tspan></text>
	<g>
		<text transform="matrix(1 0 0 1 277.2036 639.9429)"><tspan x="0" y="0" style="&st5; &st3;">2</tspan></text>
	</g>
	<g>
		<text transform="matrix(1 0 0 1 246.061 639.7749)"><tspan x="0" y="0" style="&st5; &st3;">1</tspan></text>
	</g>
	<g>
		<text transform="matrix(1 0 0 1 387.7075 384.7417)"><tspan x="0" y="0" style="&st5; &st3;">2</tspan></text>
	</g>
	<g>
		<text transform="matrix(1 0 0 1 356.5415 384.7417)"><tspan x="0" y="0" style="&st5; &st3;">1</tspan></text>
	</g>
	<g>
		<text transform="matrix(1 0 0 1 387.7075 418.7417)"><tspan x="0" y="0" style="&st5; &st3;">2</tspan></text>
	</g>
	<g>
		<text transform="matrix(1 0 0 1 356.5415 418.7417)"><tspan x="0" y="0" style="&st5; &st3;">1</tspan></text>
	</g>
	<g>
		<text transform="matrix(1 0 0 1 387.7075 452.4917)"><tspan x="0" y="0" style="&st5; &st3;">2</tspan></text>
	</g>
	<g>
		<text transform="matrix(1 0 0 1 356.5415 452.731)"><tspan x="0" y="0" style="&st5; &st3;">1</tspan></text>
	</g>
	<g>
		<text transform="matrix(1 0 0 1 387.7075 512.2808)"><tspan x="0" y="0" style="&st5; &st3;">2</tspan></text>
	</g>
	<g>
		<text transform="matrix(1 0 0 1 356.5415 512.2808)"><tspan x="0" y="0" style="&st5; &st3;">1</tspan></text>
	</g>
	<g>
		<text transform="matrix(1 0 0 1 387.7075 546.2749)"><tspan x="0" y="0" style="&st5; &st3;">2</tspan></text>
	</g>
	<g>
		<text transform="matrix(1 0 0 1 356.5415 546.2749)"><tspan x="0" y="0" style="&st5; &st3;">1</tspan></text>
	</g>
	<g>
		<text transform="matrix(1 0 0 1 449.2202 585.897)"><tspan x="0" y="0" style="&st5; &st3;">1</tspan></text>
		<path style="&st2;" d="M453.736,588.494c2.977,0,5.39-2.413,5.39-5.39c0-2.978-2.413-5.391-5.39-5.391h-4.582     c-2.977,0-5.391,2.413-5.391,5.391c0,2.977,2.414,5.39,5.391,5.39H453.736z"/>
	</g>
	<g>
		<text transform="matrix(1 0 0 1 449.2202 619.8911)"><tspan x="0" y="0" style="&st5; &st3;">1</tspan></text>
		<path style="&st2;" d="M453.736,622.489c2.977,0,5.39-2.414,5.39-5.391c0-2.978-2.413-5.391-5.39-5.391h-4.582     c-2.977,0-5.391,2.413-5.391,5.391c0,2.977,2.414,5.391,5.391,5.391H453.736z"/>
	</g>
	<g>
		<text transform="matrix(1 0 0 1 74.0718 619.8911)"><tspan x="0" y="0" style="&st5; &st3;">1</tspan></text>
		<path style="&st2;" d="M78.587,622.489c2.977,0,5.39-2.414,5.39-5.391c0-2.978-2.413-5.391-5.39-5.391h-4.582     c-2.977,0-5.391,2.413-5.391,5.391c0,2.977,2.414,5.391,5.391,5.391H78.587z"/>
	</g>
	<text transform="matrix(1 0 0 1 343.2261 594.437)"><tspan x="0" y="0" style="&st5; &st3;">20A H-LP RL (*5)</tspan><tspan x="0" y="8" style="&st5; &st3;">15A H-LP RL (*6)</tspan></text>
	<text transform="matrix(1 0 0 1 343.8901 628.437)"><tspan x="0" y="0" style="&st5; &st3;">20A H-LP LL (*5)</tspan><tspan x="0" y="8" style="&st5; &st3;">15A H-LP LL (*6)</tspan></text>
	<g>
		<text transform="matrix(1 0 0 1 387.7075 579.7632)"><tspan x="0" y="0" style="&st5; &st3;">2</tspan></text>
	</g>
	<g>
		<text transform="matrix(1 0 0 1 356.5415 579.7632)"><tspan x="0" y="0" style="&st5; &st3;">1</tspan></text>
	</g>
	<g>
		<text transform="matrix(1 0 0 1 387.7075 614.2632)"><tspan x="0" y="0" style="&st5; &st3;">2</tspan></text>
	</g>
	<g>
		<text transform="matrix(1 0 0 1 356.5415 614.2632)"><tspan x="0" y="0" style="&st5; &st3;">1</tspan></text>
	</g>
	<g>
		<text transform="matrix(1 0 0 1 166.7441 452.731)"><tspan x="0" y="0" style="&st5; &st3;">1</tspan></text>
	</g>
	<g>
		<text transform="matrix(1 0 0 1 135.5796 452.731)"><tspan x="0" y="0" style="&st5; &st3;">2</tspan></text>
	</g>
	<g>
		<text transform="matrix(1 0 0 1 166.7441 418.7368)"><tspan x="0" y="0" style="&st5; &st3;">1</tspan></text>
	</g>
	<g>
		<text transform="matrix(1 0 0 1 135.5796 418.7368)"><tspan x="0" y="0" style="&st5; &st3;">2</tspan></text>
	</g>
	<text transform="matrix(1 0 0 1 138.9351 398.9155)"><tspan x="0" y="0" style="&st5; &st3;">20A A/F</tspan></text>
	<g>
		<text transform="matrix(1 0 0 1 166.7441 384.7417)"><tspan x="0" y="0" style="&st5; &st3;">1</tspan></text>
	</g>
	<g>
		<text transform="matrix(1 0 0 1 135.5796 384.7417)"><tspan x="0" y="0" style="&st5; &st3;">2</tspan></text>
	</g>
	<g>
		<text transform="matrix(1 0 0 1 166.7441 486.7251)"><tspan x="0" y="0" style="&st5; &st3;">1</tspan></text>
	</g>
	<g>
		<text transform="matrix(1 0 0 1 135.5796 486.7251)"><tspan x="0" y="0" style="&st5; &st3;">2</tspan></text>
	</g>
	<g>
		<text transform="matrix(1 0 0 1 74.0718 526.3472)"><tspan x="0" y="0" style="&st5; &st3;">1</tspan></text>
		<path style="&st2;" d="M78.587,528.945c2.977,0,5.39-2.413,5.39-5.39c0-2.978-2.413-5.391-5.39-5.391h-4.582     c-2.977,0-5.391,2.413-5.391,5.391c0,2.977,2.414,5.39,5.391,5.39H78.587z"/>
	</g>
	<text transform="matrix(1 0 0 1 121.1538 534.894)"><tspan x="0" y="0" style="&st5; &st3;">7.5A ECU-B NO.2</tspan></text>
	<g>
		<text transform="matrix(1 0 0 1 166.7441 520.7202)"><tspan x="0" y="0" style="&st5; &st3;">1</tspan></text>
	</g>
	<g>
		<text transform="matrix(1 0 0 1 135.5796 520.7202)"><tspan x="0" y="0" style="&st5; &st3;">2</tspan></text>
	</g>
	<text transform="matrix(1 0 0 1 339.8843 211.1733)"><tspan x="0" y="0" style="&st5; &st3;">40A ABS NO.1 (*1)</tspan><tspan x="0" y="8" style="&st5; &st3;">40A RR CLR (*2)</tspan></text>
	<text transform="matrix(1 0 0 1 437.1138 125.3687)"><tspan x="0" y="0" style="&st5; &st3;">1</tspan></text>
	<a ewd:code="1L" ewd:figtype="jbc" style="cursor:pointer;">
		<path style="fill:#FFFFFF;stroke:#000000;stroke-width:0.8;" d="M453.736,128.101c2.977,0,5.39-2.413,5.39-5.39c0-2.978-2.413-5.391-5.39-5.391h-4.582     c-2.977,0-5.391,2.413-5.391,5.391c0,2.977,2.414,5.39,5.391,5.39H453.736z"/>
		<text transform="matrix(1 0 0 1 446.9956 125.5044)"><tspan x="0" y="0" style="&st5; &st3;">1L</tspan></text>
	</a>
	<text transform="matrix(1 0 0 1 339.8843 109.1899)"><tspan x="0" y="0" style="&st5; &st3;">50A H-LP CLN (*7)</tspan><tspan x="0" y="8" style="&st5; &st3;">50A PTC NO.1 (*8)</tspan></text>
	<text transform="matrix(1 0 0 1 437.1128 159.3638)"><tspan x="0" y="0" style="&st5; &st3;">1</tspan></text>
	<a ewd:code="1K" ewd:figtype="jbc" style="cursor:pointer;">
		<path style="fill:#FFFFFF;stroke:#000000;stroke-width:0.8;" d="M453.736,162.096c2.977,0,5.39-2.413,5.39-5.39c0-2.978-2.413-5.391-5.39-5.391h-4.582     c-2.977,0-5.391,2.413-5.391,5.391c0,2.977,2.414,5.39,5.391,5.39H453.736z"/>
		<text transform="matrix(1 0 0 1 446.5522 159.4985)"><tspan x="0" y="0" style="&st5; &st3;">1K</tspan></text>
	</a>
	<text transform="matrix(1 0 0 1 345.23 151.0371)"><tspan x="0" y="0" style="&st5; &st3;">30A PWR SEAT</tspan></text>
	<text transform="matrix(1 0 0 1 340.1343 313.1733)"><tspan x="0" y="0" style="&st5; &st3;">40A RR CLR (*1)</tspan><tspan x="0" y="8" style="&st5; &st3;">40A ABS NO.1 (*2)</tspan></text>
	<text transform="matrix(1 0 0 1 67.3354 28.395)"><tspan x="0" y="0" style="&st5; &st3;">* 1:Before Aug. 2008 Production</tspan></text>
	<text transform="matrix(1 0 0 1 67.3354 36.332)"><tspan x="0" y="0" style="&st5; &st3;">* 2:From Aug. 2008 Production</tspan></text>
	<text transform="matrix(1 0 0 1 199.1997 28.395)"><tspan x="0" y="0" style="&st5; &st3;">* 5:Before Jun. 2011 Production</tspan></text>
	<text transform="matrix(1 0 0 1 199.1997 36.332)"><tspan x="0" y="0" style="&st5; &st3;">* 6:From Jun. 2011 Production</tspan></text>
	<text transform="matrix(1 0 0 1 326.2769 28.395)"><tspan x="0" y="0" style="&st5; &st3;">* 9:2TR-FE</tspan></text>
	<text transform="matrix(1 0 0 1 326.2769 36.332)"><tspan x="0" y="0" style="&st5; &st3;">* 10:1KD-FTV</tspan></text>
	<text transform="matrix(1 0 0 1 199.1997 44.269)"><tspan x="0" y="0" style="&st5; &st3;">* 7:1GR-FE</tspan></text>
	<text transform="matrix(1 0 0 1 199.1997 52.2061)"><tspan x="0" y="0" style="&st5; &st3;">* 8:1KD-FTV, 5L-E</tspan></text>
	<text transform="matrix(1 0 0 1 326.2769 44.269)"><tspan x="0" y="0" style="&st5; &st3;">* 11:Before Aug. 2013 Production</tspan></text>
	<text transform="matrix(1 0 0 1 326.2769 52.2061)"><tspan x="0" y="0" style="&st5; &st3;">* 12:From Aug. 2013 Production</tspan></text>
	<text transform="matrix(1 0 0 1 67.3354 44.269)"><tspan x="0" y="0" style="&st5; &st3;">* 3:Before Aug. 2009 Production</tspan></text>
	<text transform="matrix(1 0 0 1 67.3354 52.2061)"><tspan x="0" y="0" style="&st5; &st3;">* 4:From Aug. 2009 Production</tspan></text>
	<text transform="matrix(1 0 0 1 558.0278 90.2075)"><tspan x="0" y="0" style="&st5; &st3;">1</tspan></text>
	<a ewd:code="1H" ewd:figtype="jbc" style="cursor:pointer;">
		<path style="fill:#FFFFFF;stroke:#000000;stroke-width:0.8;" d="M574.65,92.94c2.977,0,5.391-2.413,5.391-5.39c0-2.977-2.414-5.39-5.391-5.39h-4.582     c-2.977,0-5.391,2.414-5.391,5.39c0,2.977,2.414,5.39,5.391,5.39H574.65z"/>
		<text transform="matrix(1 0 0 1 567.2456 90.3433)"><tspan x="0" y="0" style="&st5; &st3;">1H</tspan></text>
	</a>
	<text transform="matrix(1 0 0 1 933.1753 64.7119)"><tspan x="0" y="0" style="&st5; &st3;">1</tspan></text>
	<a ewd:code="1I" ewd:figtype="jbc" style="cursor:pointer;">
		<path style="fill:#FFFFFF;stroke:#000000;stroke-width:0.8;" d="M949.798,67.445c2.977,0,5.39-2.413,5.39-5.39c0-2.977-2.413-5.391-5.39-5.391h-4.582     c-2.977,0-5.391,2.414-5.391,5.391c0,2.977,2.414,5.39,5.391,5.39H949.798z"/>
		<text transform="matrix(1 0 0 1 944.1714 64.8481)"><tspan x="0" y="0" style="&st5; &st3;">1I</tspan></text>
	</a>
	<text transform="matrix(1 0 0 1 933.1753 90.2075)"><tspan x="0" y="0" style="&st5; &st3;">4</tspan></text>
	<a ewd:code="1I" ewd:figtype="jbc" style="cursor:pointer;">
		<path style="fill:#FFFFFF;stroke:#000000;stroke-width:0.8;" d="M949.798,92.94c2.977,0,5.39-2.413,5.39-5.39c0-2.977-2.413-5.39-5.39-5.39h-4.582     c-2.977,0-5.391,2.414-5.391,5.39c0,2.977,2.414,5.39,5.391,5.39H949.798z"/>
		<text transform="matrix(1 0 0 1 944.1714 90.3433)"><tspan x="0" y="0" style="&st5; &st3;">1I</tspan></text>
	</a>
	<text transform="matrix(1 0 0 1 933.1753 115.7036)"><tspan x="0" y="0" style="&st5; &st3;">3</tspan></text>
	<a ewd:code="1I" ewd:figtype="jbc" style="cursor:pointer;">
		<path style="fill:#FFFFFF;stroke:#000000;stroke-width:0.8;" d="M949.798,118.437c2.977,0,5.39-2.413,5.39-5.39c0-2.977-2.413-5.391-5.39-5.391h-4.582     c-2.977,0-5.391,2.414-5.391,5.391c0,2.977,2.414,5.39,5.391,5.39H949.798z"/>
		<text transform="matrix(1 0 0 1 944.1714 115.8394)"><tspan x="0" y="0" style="&st5; &st3;">1I</tspan></text>
	</a>
	<text transform="matrix(1 0 0 1 933.1753 141.1992)"><tspan x="0" y="0" style="&st5; &st3;">2</tspan></text>
	<a ewd:code="1I" ewd:figtype="jbc" style="cursor:pointer;">
		<path style="fill:#FFFFFF;stroke:#000000;stroke-width:0.8;" d="M949.798,143.932c2.977,0,5.39-2.413,5.39-5.39c0-2.977-2.413-5.39-5.39-5.39h-4.582     c-2.977,0-5.391,2.413-5.391,5.39c0,2.977,2.414,5.39,5.391,5.39H949.798z"/>
		<text transform="matrix(1 0 0 1 944.1714 141.335)"><tspan x="0" y="0" style="&st5; &st3;">1I</tspan></text>
	</a>
	<text transform="matrix(1 0 0 1 933.1753 175.1938)"><tspan x="0" y="0" style="&st5; &st3;">5</tspan></text>
	<a ewd:code="1I" ewd:figtype="jbc" style="cursor:pointer;">
		<path style="fill:#FFFFFF;stroke:#000000;stroke-width:0.8;" d="M949.798,177.926c2.977,0,5.39-2.413,5.39-5.39c0-2.978-2.413-5.391-5.39-5.391h-4.582     c-2.977,0-5.391,2.413-5.391,5.391c0,2.977,2.414,5.39,5.391,5.39H949.798z"/>
		<text transform="matrix(1 0 0 1 944.1714 175.3296)"><tspan x="0" y="0" style="&st5; &st3;">1I</tspan></text>
	</a>
	<text transform="matrix(1 0 0 1 933.1753 200.6895)"><tspan x="0" y="0" style="&st5; &st3;">8</tspan></text>
	<a ewd:code="1I" ewd:figtype="jbc" style="cursor:pointer;">
		<path style="fill:#FFFFFF;stroke:#000000;stroke-width:0.8;" d="M949.798,203.422c2.977,0,5.39-2.414,5.39-5.39c0-2.977-2.413-5.391-5.39-5.391h-4.582     c-2.977,0-5.391,2.414-5.391,5.391c0,2.977,2.414,5.39,5.391,5.39H949.798z"/>
		<text transform="matrix(1 0 0 1 944.1714 200.8252)"><tspan x="0" y="0" style="&st5; &st3;">1I</tspan></text>
	</a>
	<text transform="matrix(1 0 0 1 933.1753 226.1851)"><tspan x="0" y="0" style="&st5; &st3;">7</tspan></text>
	<a ewd:code="1I" ewd:figtype="jbc" style="cursor:pointer;">
		<path style="fill:#FFFFFF;stroke:#000000;stroke-width:0.8;" d="M949.798,228.918c2.977,0,5.39-2.414,5.39-5.39c0-2.977-2.413-5.391-5.39-5.391h-4.582     c-2.977,0-5.391,2.414-5.391,5.391c0,2.977,2.414,5.39,5.391,5.39H949.798z"/>
		<text transform="matrix(1 0 0 1 944.1714 226.3208)"><tspan x="0" y="0" style="&st5; &st3;">1I</tspan></text>
	</a>
	<text transform="matrix(1 0 0 1 933.1753 251.6812)"><tspan x="0" y="0" style="&st5; &st3;">6</tspan></text>
	<a ewd:code="1I" ewd:figtype="jbc" style="cursor:pointer;">
		<path style="fill:#FFFFFF;stroke:#000000;stroke-width:0.8;" d="M949.798,254.414c2.977,0,5.39-2.413,5.39-5.39c0-2.978-2.413-5.391-5.39-5.391h-4.582     c-2.977,0-5.391,2.413-5.391,5.391c0,2.977,2.414,5.39,5.391,5.39H949.798z"/>
		<text transform="matrix(1 0 0 1 944.1714 251.8164)"><tspan x="0" y="0" style="&st5; &st3;">1I</tspan></text>
	</a>
	<text transform="matrix(1 0 0 1 933.1753 285.6753)"><tspan x="0" y="0" style="&st5; &st3;">1</tspan></text>
	<a ewd:code="1J" ewd:figtype="jbc" style="cursor:pointer;">
		<path style="fill:#FFFFFF;stroke:#000000;stroke-width:0.8;" d="M949.798,288.408c2.977,0,5.39-2.414,5.39-5.39c0-2.977-2.413-5.391-5.39-5.391h-4.582     c-2.977,0-5.391,2.414-5.391,5.391c0,2.977,2.414,5.39,5.391,5.39H949.798z"/>
		<text transform="matrix(1 0 0 1 943.2827 285.811)"><tspan x="0" y="0" style="&st5; &st3;">1J</tspan></text>
	</a>
	<text transform="matrix(1 0 0 1 933.1753 311.1709)"><tspan x="0" y="0" style="&st5; &st3;">4</tspan></text>
	<a ewd:code="1J" ewd:figtype="jbc" style="cursor:pointer;">
		<path style="fill:#FFFFFF;stroke:#000000;stroke-width:0.8;" d="M949.798,313.904c2.977,0,5.39-2.414,5.39-5.39c0-2.977-2.413-5.391-5.39-5.391h-4.582     c-2.977,0-5.391,2.414-5.391,5.391c0,2.977,2.414,5.39,5.391,5.39H949.798z"/>
		<text transform="matrix(1 0 0 1 943.2827 311.3066)"><tspan x="0" y="0" style="&st5; &st3;">1J</tspan></text>
	</a>
	<text transform="matrix(1 0 0 1 933.1753 336.6665)"><tspan x="0" y="0" style="&st5; &st3;">3</tspan></text>
	<a ewd:code="1J" ewd:figtype="jbc" style="cursor:pointer;">
		<path style="fill:#FFFFFF;stroke:#000000;stroke-width:0.8;" d="M949.798,339.399c2.977,0,5.39-2.413,5.39-5.39c0-2.977-2.413-5.39-5.39-5.39h-4.582     c-2.977,0-5.391,2.413-5.391,5.39c0,2.977,2.414,5.39,5.391,5.39H949.798z"/>
		<text transform="matrix(1 0 0 1 943.2827 336.8022)"><tspan x="0" y="0" style="&st5; &st3;">1J</tspan></text>
	</a>
	<text transform="matrix(1 0 0 1 933.1753 362.1626)"><tspan x="0" y="0" style="&st5; &st3;">2</tspan></text>
	<a ewd:code="1J" ewd:figtype="jbc" style="cursor:pointer;">
		<path style="fill:#FFFFFF;stroke:#000000;stroke-width:0.8;" d="M949.798,364.896c2.977,0,5.39-2.414,5.39-5.391c0-2.977-2.413-5.391-5.39-5.391h-4.582     c-2.977,0-5.391,2.414-5.391,5.391c0,2.977,2.414,5.391,5.391,5.391H949.798z"/>
		<text transform="matrix(1 0 0 1 943.2827 362.2983)"><tspan x="0" y="0" style="&st5; &st3;">1J</tspan></text>
	</a>
	<text transform="matrix(1 0 0 1 933.1753 404.6548)"><tspan x="0" y="0" style="&st5; &st3;">5</tspan></text>
	<a ewd:code="1J" ewd:figtype="jbc" style="cursor:pointer;">
		<path style="fill:#FFFFFF;stroke:#000000;stroke-width:0.8;" d="M949.798,407.388c2.977,0,5.39-2.414,5.39-5.391c0-2.977-2.413-5.391-5.39-5.391h-4.582     c-2.977,0-5.391,2.414-5.391,5.391c0,2.977,2.414,5.391,5.391,5.391H949.798z"/>
		<text transform="matrix(1 0 0 1 943.2827 404.7905)"><tspan x="0" y="0" style="&st5; &st3;">1J</tspan></text>
	</a>
	<text transform="matrix(1 0 0 1 933.1753 438.6548)"><tspan x="0" y="0" style="&st5; &st3;">8</tspan></text>
	<a ewd:code="1J" ewd:figtype="jbc" style="cursor:pointer;">
		<path style="fill:#FFFFFF;stroke:#000000;stroke-width:0.8;" d="M949.798,441.388c2.977,0,5.39-2.414,5.39-5.391c0-2.977-2.413-5.391-5.39-5.391h-4.582     c-2.977,0-5.391,2.414-5.391,5.391c0,2.977,2.414,5.391,5.391,5.391H949.798z"/>
		<text transform="matrix(1 0 0 1 943.2827 438.7905)"><tspan x="0" y="0" style="&st5; &st3;">1J</tspan></text>
	</a>
	<text transform="matrix(1 0 0 1 933.1753 464.1509)"><tspan x="0" y="0" style="&st5; &st3;">7</tspan></text>
	<a ewd:code="1J" ewd:figtype="jbc" style="cursor:pointer;">
		<path style="fill:#FFFFFF;stroke:#000000;stroke-width:0.8;" d="M949.798,466.884c2.977,0,5.39-2.414,5.39-5.391c0-2.977-2.413-5.391-5.39-5.391h-4.582     c-2.977,0-5.391,2.414-5.391,5.391c0,2.977,2.414,5.391,5.391,5.391H949.798z"/>
		<text transform="matrix(1 0 0 1 943.2827 464.2866)"><tspan x="0" y="0" style="&st5; &st3;">1J</tspan></text>
	</a>
	<text transform="matrix(1 0 0 1 933.1753 489.647)"><tspan x="0" y="0" style="&st5; &st3;">6</tspan></text>
	<a ewd:code="1J" ewd:figtype="jbc" style="cursor:pointer;">
		<path style="fill:#FFFFFF;stroke:#000000;stroke-width:0.8;" d="M949.798,492.379c2.977,0,5.39-2.413,5.39-5.391c0-2.977-2.413-5.39-5.39-5.39h-4.582     c-2.977,0-5.391,2.413-5.391,5.39c0,2.978,2.414,5.391,5.391,5.391H949.798z"/>
		<text transform="matrix(1 0 0 1 943.2827 489.7827)"><tspan x="0" y="0" style="&st5; &st3;">1J</tspan></text>
	</a>
	<text transform="matrix(1 0 0 1 600.645 59.5864)"><tspan x="0" y="0" style="&st5; &st6;">Unit B</tspan></text>
	<text transform="matrix(1 0 0 1 665.6362 84.7158)"><tspan x="0" y="0" style="&st5; &st3;">1</tspan></text>
	<text transform="matrix(1 0 0 1 696.8003 84.7158)"><tspan x="0" y="0" style="&st5; &st3;">2</tspan></text>
	<text transform="matrix(1 0 0 1 665.6362 195.1973)"><tspan x="0" y="0" style="&st5; &st3;">1</tspan></text>
	<text transform="matrix(1 0 0 1 696.8003 195.1973)"><tspan x="0" y="0" style="&st5; &st3;">2</tspan></text>
	<text transform="matrix(1 0 0 1 665.6362 305.6792)"><tspan x="0" y="0" style="&st5; &st3;">1</tspan></text>
	<text transform="matrix(1 0 0 1 696.8003 305.6792)"><tspan x="0" y="0" style="&st5; &st3;">2</tspan></text>
	<text transform="matrix(1 0 0 1 666.5483 98.8887)"><tspan x="0" y="0" style="&st5; &st3;">15A FOG</tspan></text>
	<text transform="matrix(1 0 0 1 795.1782 75.6509)"><tspan x="0" y="0" style="&st5; &st3;">FOG Relay</tspan></text>
	<text transform="matrix(1 0 0 1 588.7808 542.5015)"><tspan x="0" y="0" style="&st5; &st3;">* 2:1KD-FTV, 5L-E</tspan></text>
	<text transform="matrix(1 0 0 1 588.7808 534.5649)"><tspan x="0" y="0" style="&st5; &st3;">* 1:1GR-FE, 2TR-FE</tspan></text>
	<text transform="matrix(1 0 0 1 792.0669 186.1323)"><tspan x="0" y="0" style="&st5; &st3;">HORN Relay</tspan></text>
	<text transform="matrix(1 0 0 1 793.8442 296.6138)"><tspan x="0" y="0" style="&st5; &st3;">MAIN Relay</tspan></text>
	<text transform="matrix(1 0 0 1 783.4067 416.1431)"><tspan x="0" y="0" style="&st5; &st3;">C/OPN Relay (*1)</tspan><tspan x="0" y="8" style="&st5; &st3;">EDU Relay (*2)</tspan></text>
	<text transform="matrix(0 -1 1 0 760.145 456.3833)"><tspan x="0" y="0" style="&st5; &st3;">(*2)</tspan></text>
	<text transform="matrix(1 0 0 1 837.5757 483.8853)"><tspan x="0" y="0" style="&st5; &st3;">(*1)</tspan></text>
	<text transform="matrix(1 0 0 1 663.437 209.3701)"><tspan x="0" y="0" style="&st5; &st3;">10A HORN</tspan></text>
	<text transform="matrix(1 0 0 1 668.9917 319.8521)"><tspan x="0" y="0" style="&st5; &st3;">25A EFI</tspan></text>
</g>
</svg>