﻿<?xml version="1.0" encoding="UTF-8"?>
<!DOCTYPE svg PUBLIC "-//W3C//DTD SVG 1.0//EN" "http://www.w3.org/TR/2001/REC-SVG-20010904/DTD/svg10.dtd"[
	<!ENTITY ns_flows "http://ns.adobe.com/Flows/1.0/">
	<!ENTITY ns_svg "http://www.w3.org/2000/svg">
	<!ENTITY ns_xlink "http://www.w3.org/1999/xlink">
	<!ENTITY st0 "font-size:7px;font-family:'MS-PGothic';adobe-font-script:japanese;">
	<!ENTITY st1 "font-size:6px;font-family:'ArialMT';">
	<!-- White fill  -->
	<!ENTITY st2 "fill:#FFFFFF;stroke:#000000; stroke-width:1.41;stroke-linecap:round;stroke-linejoin:round;">
	<!-- Yellow fill  -->
	<!ENTITY st3 "fill:#FFFFCC;stroke:#FFFFCC; stroke-width:0.1;stroke-linecap:round;stroke-linejoin:round;">
	<!-- Gray fill  -->
	<!ENTITY st4 "fill:#CCCCCC;stroke:#CCCCCC; stroke-width:0.1;stroke-linecap:round;stroke-linejoin:round;">
	<!-- Light-blue fill -->
	<!ENTITY st5 "fill:#CCECF4;stroke:#000000; stroke-width:1.133;stroke-linecap:round;stroke-linejoin:round;">
	<!ENTITY st6 "fill:none;stroke-linecap:butt; stroke-linejoin:round;">
	<!ENTITY st7 "fill:none;stroke:#000000;stroke-linecap:round;stroke-linejoin:round;">
	<!ENTITY st8 "enable-background:new    ;">
	<!-- Black fill -->
	<!ENTITY st9 "fill:#000000;stroke:#000000; stroke-linecap:round;stroke-linejoin:round;">
	<!-- SRS note   -->
	<!ENTITY st10 "font-size:9px;font-family:'ArialMT';">
	<!ENTITY st11 "font-size:9px;font-family:'Svg Symbol';">
	<!ENTITY st12 "font-size:6px;font-family:'Svg Symbol';">
	<!ENTITY st13 "fill:none;stroke:#ff0000;stroke-linecap:round;stroke-linejoin:round;">
	<!-- Yellow fill  -->
	<!ENTITY st14 "fill:#FFFF00;stroke:#FFFF00; stroke-width:0.1;stroke-linecap:round;stroke-linejoin:round;">
	<!ENTITY st15 "font-size:6px;font-family:'MS-PGothic';adobe-font-script:japanese;">
	<!ENTITY st16 "1.00 0.00 0.00 1.00">
	<!ENTITY st17 "0.00 -1.00 1.00 0.00">
	<!ENTITY st18 "font-size:6px;font-family:'Arial';">
	<!ENTITY st19 "font-size:9px;font-family:'Arial';">
	<!ENTITY st20 "font-size:6px;font-family:'MS-PGothic','MS PGothic';adobe-font-script:japanese;">
	<!ENTITY st21 "font-size:7px;font-family:'MS-PGothic','MS PGothic';adobe-font-script:japanese;">
	<!ATTLIST svg
		xmlns:ewd CDATA #FIXED "http://shcl.co.jp/ewd"
		xmlns:a CDATA #FIXED "http://ns.adobe.com/AdobeSVGViewerExtensions/3.0/"
		ewd:ver CDATA #IMPLIED
	>
	<!ATTLIST a
		ewd:lineID CDATA #IMPLIED
		ewd:groupID CDATA #IMPLIED
		ewd:figtype CDATA #IMPLIED
		ewd:code CDATA #IMPLIED
		ewd:figID CDATA #IMPLIED
		ewd:pinNo CDATA #IMPLIED
		ewd:comment CDATA #IMPLIED >
	<!ATTLIST g
		ewd:lineID CDATA #IMPLIED
		ewd:groupID CDATA #IMPLIED
		ewd:figtype CDATA #IMPLIED
		ewd:code CDATA #IMPLIED
		ewd:figID CDATA #IMPLIED
		ewd:pinNo CDATA #IMPLIED
		ewd:comment CDATA #IMPLIED >
	<!ATTLIST text
		ewd:textID CDATA #IMPLIED >
	<!ATTLIST title
		ewd:textID CDATA #IMPLIED >
]>
<!-- Generator: Shintec Hozumi YS   -->
<svg onload="call_execInitLoadProc_svg('system')" style="overflow:visible;  enable-background:new 0 0 510.440 710.000" viewBox="0 0 510.440 710.000" height="710.000" width="510.440" xml:space="preserve" ewd:ver="L2.1.2.7" xmlns="&ns_svg;" xmlns:a="http://ns.adobe.com/AdobeSVGViewerExtensions/3.0/" xmlns:ewd="http://shcl.co.jp/ewd" xmlns:xlink="&ns_xlink;">
	<script type="text/javascript" xlink:href="../../../../../system/js/ewd/fig/svgfig.js"/>
	<defs>
		<font horiz-adv-x="1229">
			<font-face font-family="Svg Symbol" units-per-em="2048" panose-1="5 5 1 2 1 7 6 2 5 7" ascent="2059" descent="450" alphabetic="0"/>
			<missing-glyph d="M 103,0 l 0,1280 1024,0 0,-1280 -1024,0 z m 32,32 l 960,0 0,1216 -960,0 0,-1216 z"/>
			<glyph unicode="&#xF057;" horiz-adv-x="1573" d="M 1517,0 l -567,0 24,279 q 141,59 207.5,168 66.5,109 66.5,306    0,272 -132.5,417.5 -132.5,145.5 -333.5,145.5 -194,0 -328,-147.5 -134,-147.5 -134,-401.5 0,-200 68.5,-319 68.5,-119     206.5,-169 l 25,-279 -564,0 0,279 35,0 q 3,-61 32,-83 45,-35 137,-35 l 270,0 0,70 q -210,61 -324.5,209 -114.5,148     -114.5,349 0,252 186.5,425 186.5,173 504.5,173 195,0 358.5,-73.5 163.5,-73.5 252,-214.5 88.5,-141 88.5,-310 0,-207     -121.5,-360.5 -121.5,-153.5 -317.5,-197.5 l -8,-70 275,0 q 92,0 128,28 36,28 42,90 l 38,0 0,-279 z"/>
		</font>
	</defs>
<g id="ewd_top">
	<a ewd:code="B12" ewd:figID="1" ewd:figtype="conn" style="cursor:pointer;">
		<path d=" M  127.48,  545.69  L  127.48,  613.68  L  229.46,  613.68  L  229.46,  545.69  L  127.48,  545.69 " style="&st5;"/>
		<title ewd:textID="9">Blower SW (Rear)</title>
	</a>
	<a ewd:code="J34" ewd:figID="2" ewd:figtype="conn" style="cursor:pointer;">
		<path d=" M  467.42,  656.18  L  467.42,  673.17  L  484.42,  673.17  L  484.42,  656.18  L  467.42,  656.18 " style="&st5;"/>
		<title ewd:textID="11">Junction Connector</title>
	</a>
	<a ewd:code="R10" ewd:figID="3" ewd:figtype="conn" style="cursor:pointer;">
		<path d=" M  135.98,  231.25  L  135.98,  265.24  L   93.48,  265.24  L   93.48,  231.25  L  135.98,  231.25 " style="&st5;"/>
		<title ewd:textID="13">Rear Cooler Relay</title>
	</a>
	<a ewd:code="1" ewd:figID="4" ewd:figtype="rb" style="cursor:pointer;">
		<path d=" M  208.22,   35.78  L  208.22,   78.27  L  233.71,   78.27  L  233.71,   35.78  L  208.22,   35.78 " style="&st5;"/>
	</a>
	<a ewd:code="B10" ewd:figID="5" ewd:figtype="conn" style="cursor:pointer;">
		<path d=" M  327.20,  291.88  L  327.20,  291.88  L  327.20,  287.90  L  335.69,  287.90  L  335.70,  291.88  C  337.05   292.66   338.02   293.63   338.80   294.98  L  338.80,  294.98  C  341.15   299.05   339.76   304.25   335.70   306.60  L  335.69,  306.60  L  335.69,  310.57  L  327.20,  310.57  L  327.20,  306.60  C  325.84   305.81   324.87   304.84   324.08   303.48  L  324.08,  303.48  C  321.74   299.42   323.13   294.22   327.20   291.87 " style="&st5;"/>
		<title ewd:textID="7">Blower Motor (Rear)</title>
	</a>
	<a ewd:code="B11" ewd:figID="6" ewd:figtype="conn" style="cursor:pointer;">
		<path d=" M  271.95,  375.72  L  271.95,  469.21  L  152.97,  469.21  L  152.97,  375.72  L  271.95,  375.72 " style="&st5;"/>
		<title ewd:textID="8">Blower Resistor (Rear)</title>
	</a>
	<a ewd:code="C15" ewd:figID="7" ewd:figtype="conn" style="cursor:pointer;">
		<path d=" M  118.98,  477.71  L   25.50,  477.71  L   25.50,  392.72  L  118.98,  392.72  L  118.98,  477.71 " style="&st5;"/>
		<title ewd:textID="10">Cooler Control SW (Rear)</title>
	</a>
	<a ewd:code="J22" ewd:figID="8" ewd:figtype="conn" style="cursor:pointer;">
		<path d=" M   93.48,  154.76  L  110.48,  154.76  L  110.48,  171.76  L   93.48,  171.76  L   93.48,  154.76 " style="&st5;"/>
		<title ewd:textID="11">Junction Connector</title>
	</a>
	<a ewd:code="B14" ewd:figID="9" ewd:figtype="conn" style="cursor:pointer;">
		<path d=" M  288.95,  528.70  L  288.95,  613.68  L  446.18,  613.68  L  446.18,  528.70  L  288.95,  528.70 " style="&st5;"/>
		<title ewd:textID="9">Blower SW (Rear)</title>
	</a>
	<a ewd:code="1" ewd:figID="10" ewd:figtype="jb" style="cursor:pointer;">
		<path d=" M  203.97,   95.27  L  203.97,  112.27  L  246.46,  112.27  L  246.46,   95.27  L  203.97,   95.27 " style="&st4;"/>
	</a>
	<a ewd:code="2" ewd:figID="11" ewd:figtype="jb" style="cursor:pointer;">
		<path d=" M   25.50,   35.78  L   25.50,  112.27  L  118.98,  112.27  L  118.98,   35.78  L   25.50,   35.78 " style="&st4;"/>
	</a>
	<a ewd:code="FUSE44" ewd:figID="12" ewd:figtype="fuse" style="cursor:pointer;">
		<path d=" M  114.73,   78.27  L  114.73,   35.78  L   89.24,   35.78  L   89.24,   78.27  L  114.73,   78.27 " style="&st7;"/>
	</a>
	<a ewd:code="FUSE31" ewd:figID="13" ewd:figtype="fuse" style="cursor:pointer;">
		<path d=" M  233.71,   78.27  L  233.71,   35.78  L  208.22,   35.78  L  208.22,   78.27  L  233.71,   78.27 " style="&st7;"/>
	</a>
	<a ewd:lineID="1" style="cursor:pointer;">
		<path d=" M   42.49,  577.42  L   42.49,  630.68  L  203.97,  630.68  L  203.97,  613.68 " style="stroke:#992903;stroke-width: 5.10 ;&st6;"/>
	</a>
	<a ewd:lineID="2" style="cursor:pointer;">
		<path d=" M  407.93,  613.68  L  407.93,  647.68  L   25.50,  647.68  L   25.50,  596.69  L   42.49,  579.69  L   42.49,  577.42 " style="stroke:#992903;stroke-width: 5.10 ;&st6;"/>
	</a>
	<a ewd:lineID="3" style="cursor:pointer;">
		<path d=" M   42.49,  477.71  L   42.49,  554.19 " style="stroke:#992903;stroke-width: 5.10 ;&st6;"/>
	</a>
	<a ewd:lineID="4" style="cursor:pointer;">
		<path d=" M   42.49,  112.27  L   42.49,  392.72 " style="stroke:#FF0000;stroke-width: 5.10 ;&st6;"/>
		<path d=" M   42.49,  112.27  L   42.49,  392.72 " style="stroke:#FFFFFF;stroke-width: 2.27 ;&st6;"/>
		<path d=" M   42.49,  112.27  L   42.49,  392.72 " style="stroke:#00A0C6;stroke-width: 1.13 ;&st6;"/>
	</a>
	<a ewd:lineID="5" style="cursor:pointer;">
		<path d=" M  101.98,  341.73  L  101.98,  392.72 " style="stroke:#00A0C6;stroke-width: 5.10 ;&st6;"/>
		<path d=" M  101.98,  341.73  L  101.98,  392.72 " style="stroke:#FFFFFF;stroke-width: 2.27 ;&st6;"/>
		<path d=" M  101.98,  341.73  L  101.98,  392.72 " style="stroke:#000000;stroke-width: 1.13 ;&st6;"/>
	</a>
	<a ewd:lineID="6" style="cursor:pointer;">
		<path d=" M  101.98,  265.24  L  101.98,  318.22 " style="stroke:#00A0C6;stroke-width: 5.10 ;&st6;"/>
		<path d=" M  101.98,  265.24  L  101.98,  318.22 " style="stroke:#FFFFFF;stroke-width: 2.27 ;&st6;"/>
		<path d=" M  101.98,  265.24  L  101.98,  318.22 " style="stroke:#000000;stroke-width: 1.13 ;&st6;"/>
	</a>
	<a ewd:lineID="7" style="cursor:pointer;">
		<path d=" M  101.98,  189.89  L  101.98,  231.25 " style="stroke:#FF0000;stroke-width: 5.10 ;&st6;"/>
		<path d=" M  101.98,  189.89  L  101.98,  231.25 " style="stroke:#FFFFFF;stroke-width: 2.27 ;&st6;"/>
		<path d=" M  101.98,  189.89  L  101.98,  231.25 " style="stroke:#00A0C6;stroke-width: 1.13 ;&st6;"/>
	</a>
	<a ewd:lineID="8" style="cursor:pointer;">
		<path d=" M  101.98,  112.27  L  101.98,  136.63 " style="stroke:#FF0000;stroke-width: 5.10 ;&st6;"/>
		<path d=" M  101.98,  112.27  L  101.98,  136.63 " style="stroke:#FFFFFF;stroke-width: 2.27 ;&st6;"/>
		<path d=" M  101.98,  112.27  L  101.98,  136.63 " style="stroke:#00A0C6;stroke-width: 1.13 ;&st6;"/>
	</a>
	<a ewd:lineID="9" style="cursor:pointer;">
		<path d=" M  331.44,  287.90  L  331.44,  265.24  L  280.45,  265.24  L  280.45,  307.73  L  127.48,  307.73  L  127.48,  265.24 " style="stroke:#00A0C6;stroke-width: 5.10 ;&st6;"/>
	</a>
	<a ewd:lineID="10" style="cursor:pointer;">
		<path d=" M  220.96,  186.49  L  220.96,  205.75  L  127.48,  205.75  L  127.48,  231.25 " style="stroke:#FF0000;stroke-width: 5.10 ;&st6;"/>
	</a>
	<a ewd:lineID="11" style="cursor:pointer;">
		<path d=" M  135.98,  248.24  L  475.92,  248.24  L  475.92,  656.18 " style="stroke:#000000;stroke-width: 5.10 ;&st6;"/>
		<path d=" M  135.98,  248.24  L  475.92,  248.24  L  475.92,  656.18 " style="stroke:#FFFFFF;stroke-width: 4.53 ;&st6;"/>
		<path d=" M  135.98,  248.24  L  475.92,  248.24  L  475.92,  656.18 " style="stroke:#000000;stroke-width: 1.13 ;&st6;"/>
	</a>
	<a ewd:lineID="12" style="cursor:pointer;">
		<path d=" M  169.97,  469.21  L  169.97,  545.69 " style="stroke:#F668B2;stroke-width: 5.10 ;&st6;"/>
	</a>
	<a ewd:lineID="13" style="cursor:pointer;">
		<path d=" M  356.94,  528.70  L  356.94,  511.70  L  186.97,  511.70  L  186.97,  494.70  L  169.97,  477.71  L  169.97,  469.21 " style="stroke:#FFE600;stroke-width: 5.10 ;&st6;"/>
		<path d=" M  356.94,  528.70  L  356.94,  511.70  L  186.97,  511.70  L  186.97,  494.70  L  169.97,  477.71  L  169.97,  469.21 " style="stroke:#FFFFFF;stroke-width: 2.27 ;&st6;"/>
		<path d=" M  356.94,  528.70  L  356.94,  511.70  L  186.97,  511.70  L  186.97,  494.70  L  169.97,  477.71  L  169.97,  469.21 " style="stroke:#FF0000;stroke-width: 1.13 ;&st6;"/>
	</a>
	<a ewd:lineID="14" style="cursor:pointer;">
		<path d=" M  169.97,  375.72  L  169.97,  350.23  L  322.95,  350.23 " style="stroke:#FF0000;stroke-width: 5.10 ;&st6;"/>
		<path d=" M  169.97,  375.72  L  169.97,  350.23  L  322.95,  350.23 " style="stroke:#FFFFFF;stroke-width: 2.27 ;&st6;"/>
		<path d=" M  169.97,  375.72  L  169.97,  350.23  L  322.95,  350.23 " style="stroke:#000000;stroke-width: 1.13 ;&st6;"/>
	</a>
	<a ewd:lineID="15" style="cursor:pointer;">
		<path d=" M  203.97,  469.21  L  203.97,  528.70  L  186.97,  528.70  L  186.97,  545.69 " style="stroke:#FFE600;stroke-width: 5.10 ;&st6;"/>
		<path d=" M  203.97,  469.21  L  203.97,  528.70  L  186.97,  528.70  L  186.97,  545.69 " style="stroke:#FFFFFF;stroke-width: 2.27 ;&st6;"/>
		<path d=" M  203.97,  469.21  L  203.97,  528.70  L  186.97,  528.70  L  186.97,  545.69 " style="stroke:#FF0000;stroke-width: 1.13 ;&st6;"/>
	</a>
	<a ewd:lineID="16" style="cursor:pointer;">
		<path d=" M  203.97,  469.21  L  203.97,  477.71  L  212.46,  486.20  L  382.44,  486.20  L  382.44,  528.70 " style="stroke:#56077D;stroke-width: 5.10 ;&st6;"/>
	</a>
	<a ewd:lineID="17" style="cursor:pointer;">
		<path d=" M  220.96,  613.68  L  220.96,  681.67 " style="stroke:#000000;stroke-width: 5.10 ;&st6;"/>
		<path d=" M  220.96,  613.68  L  220.96,  681.67 " style="stroke:#FFFFFF;stroke-width: 4.53 ;&st6;"/>
		<path d=" M  220.96,  613.68  L  220.96,  681.67 " style="stroke:#000000;stroke-width: 1.13 ;&st6;"/>
	</a>
	<a ewd:lineID="18" style="cursor:pointer;">
		<path d=" M  220.96,  681.67  L  220.96,  673.17  L  229.46,  664.67  L  254.96,  664.67  L  254.96,  469.21 " style="stroke:#000000;stroke-width: 5.10 ;&st6;"/>
		<path d=" M  220.96,  681.67  L  220.96,  673.17  L  229.46,  664.67  L  254.96,  664.67  L  254.96,  469.21 " style="stroke:#FFFFFF;stroke-width: 4.53 ;&st6;"/>
		<path d=" M  220.96,  681.67  L  220.96,  673.17  L  229.46,  664.67  L  254.96,  664.67  L  254.96,  469.21 " style="stroke:#000000;stroke-width: 1.13 ;&st6;"/>
	</a>
	<a ewd:lineID="19" style="cursor:pointer;">
		<path d=" M  220.96,  112.27  L  220.96,  171.76 " style="stroke:#FF0000;stroke-width: 5.10 ;&st6;"/>
	</a>
	<a ewd:lineID="20" style="cursor:pointer;">
		<path d=" M  331.44,  528.70  L  331.44,  358.73 " style="stroke:#FF0000;stroke-width: 5.10 ;&st6;"/>
		<path d=" M  331.44,  528.70  L  331.44,  358.73 " style="stroke:#FFFFFF;stroke-width: 2.27 ;&st6;"/>
		<path d=" M  331.44,  528.70  L  331.44,  358.73 " style="stroke:#000000;stroke-width: 1.13 ;&st6;"/>
	</a>
	<a ewd:lineID="21" style="cursor:pointer;">
		<path d=" M  331.44,  310.57  L  331.44,  341.73 " style="stroke:#FF0000;stroke-width: 5.10 ;&st6;"/>
		<path d=" M  331.44,  310.57  L  331.44,  341.73 " style="stroke:#FFFFFF;stroke-width: 2.27 ;&st6;"/>
		<path d=" M  331.44,  310.57  L  331.44,  341.73 " style="stroke:#000000;stroke-width: 1.13 ;&st6;"/>
	</a>
	<a ewd:lineID="22" style="cursor:pointer;">
		<path d=" M  433.43,  613.68  L  433.43,  664.67  L  467.42,  664.67 " style="stroke:#000000;stroke-width: 5.10 ;&st6;"/>
		<path d=" M  433.43,  613.68  L  433.43,  664.67  L  467.42,  664.67 " style="stroke:#FFFFFF;stroke-width: 4.53 ;&st6;"/>
		<path d=" M  433.43,  613.68  L  433.43,  664.67  L  467.42,  664.67 " style="stroke:#000000;stroke-width: 1.13 ;&st6;"/>
	</a>
	<path d=" M  135.98,  248.24  L  133.14,  248.24 " style="stroke-width: 0.85 ;&st7; "/>
	<path d=" M  101.98,  256.74  L  101.98,  265.24 " style="stroke-width: 0.85 ;&st7; "/>
	<path d=" M  101.98,  231.25  L  101.98,  239.75 " style="stroke-width: 0.85 ;&st7; "/>
	<path d=" M  127.48,  231.25  L  127.48,  235.50 " style="stroke-width: 0.85 ;&st7; "/>
	<path d=" M  127.48,  260.99  L  127.48,  265.24 " style="stroke-width: 0.85 ;&st7; "/>
	<path d=" M  127.48,  258.16  L  133.14,  235.50 " style="stroke-width: 1.42 ;&st7; "/>
	<path d=" M  101.98,   69.77  L  101.98,  103.77 " style="stroke-width: 0.85 ;&st7; "/>
	<path d=" M  104.11,  103.77  L   99.86,  103.77 " style="stroke-width: 1.42 ;&st7; "/>
	<path d=" M  104.11,  112.27  L   99.86,  112.27 " style="stroke-width: 1.42 ;&st7; "/>
	<path d=" M  220.96,   69.77  L  220.96,   95.27 " style="stroke-width: 0.85 ;&st7; "/>
	<path d=" M  229.46,  180.26  L  220.96,  180.26 " style="stroke-width: 1.42 ;&st7; "/>
	<path d=" M   42.49,  462.12  L   48.16,  439.46 " style="stroke-width: 1.42 ;&st7; "/>
	<path d=" M   42.49,  469.21  L   42.49,  464.96 " style="stroke-width: 0.85 ;&st7; "/>
	<path d=" M   42.49,  439.46  L   42.49,  435.21 " style="stroke-width: 0.85 ;&st7; "/>
	<path d=" M   42.49,  401.22  L   42.49,  405.47 " style="stroke-width: 0.85 ;&st7; "/>
	<path d=" M   42.49,  413.97  L   42.49,  418.22 " style="stroke-width: 0.85 ;&st7; "/>
	<path d=" M   44.62,  103.77  L   40.37,  103.77 " style="stroke-width: 1.42 ;&st7; "/>
	<path d=" M   44.62,  112.27  L   40.37,  112.27 " style="stroke-width: 1.42 ;&st7; "/>
	<path d=" M  339.94,  346.70  L  334.97,  341.73 " style="stroke-width: 1.42 ;&st7; "/>
	<path d=" M  322.95,  353.76  L  327.91,  358.73 " style="stroke-width: 1.42 ;&st7; "/>
	<path d=" M  334.97,  358.73  L  339.94,  353.76 " style="stroke-width: 1.42 ;&st7; "/>
	<path d=" M  327.91,  341.73  L  322.95,  346.70 " style="stroke-width: 1.42 ;&st7; "/>
	<path d=" M   50.99,  571.19  L   42.49,  571.19 " style="stroke-width: 1.42 ;&st7; "/>
	<path d=" M  223.09,   95.27  L  218.84,   95.27 " style="stroke-width: 1.42 ;&st7; "/>
	<path d=" M  223.09,  112.27  L  218.84,  112.27 " style="stroke-width: 1.42 ;&st7; "/>
	<path d=" M  223.09,  103.77  L  218.84,  103.77 " style="stroke-width: 1.42 ;&st7; "/>
	<path d=" M   93.48,  324.73  L  101.98,  324.73 " style="stroke-width: 1.42 ;&st7; "/>
	<path d=" M   41.30,  425.71  L   41.03,  426.18  L   40.93,  426.71  L   41.03,  427.25  L   41.30,  427.72  L   41.71,  428.06  L   42.22,  428.25  L   42.76,  428.25  L   43.27,  428.06  L   43.69,  427.72  L   43.96,  427.25  L   44.05,  426.71  L   43.96,  426.18  L   43.69,  425.71  L   43.27,  425.37  L   42.76,  425.18  L   42.22,  425.18  L   41.71,  425.37  L   41.30,  425.71  L   41.69,  426.42  L   41.69,  427.01  L   42.07,  427.45  L   42.64,  427.55  L   43.14,  427.26  L   43.34,  426.71  L   43.14,  426.17  L   42.64,  425.88  L   42.07,  425.98  L   42.49,  426.71 " style="stroke-width: 0.85 ;&st7; "/>
	<path d=" M  202.77,  451.21  L  202.50,  451.68  L  202.41,  452.21  L  202.50,  452.74  L  202.77,  453.21  L  203.19,  453.56  L  203.69,  453.75  L  204.24,  453.75  L  204.74,  453.56  L  205.16,  453.21  L  205.43,  452.74  L  205.52,  452.21  L  205.43,  451.68  L  205.16,  451.21  L  204.74,  450.86  L  204.24,  450.67  L  203.69,  450.67  L  203.19,  450.86  L  202.77,  451.21  L  203.17,  451.92  L  203.17,  452.50  L  203.54,  452.95  L  204.11,  453.05  L  204.62,  452.76  L  204.82,  452.21  L  204.62,  451.66  L  204.11,  451.37  L  203.54,  451.47  L  203.97,  452.21 " style="stroke-width: 0.85 ;&st7; "/>
	<path d=" M  168.78,  451.21  L  168.51,  451.68  L  168.41,  452.21  L  168.51,  452.74  L  168.78,  453.21  L  169.19,  453.56  L  169.70,  453.75  L  170.24,  453.75  L  170.75,  453.56  L  171.16,  453.21  L  171.44,  452.74  L  171.53,  452.21  L  171.44,  451.68  L  171.16,  451.21  L  170.75,  450.86  L  170.24,  450.67  L  169.70,  450.67  L  169.19,  450.86  L  168.78,  451.21  L  169.17,  451.92  L  169.17,  452.50  L  169.55,  452.95  L  170.12,  453.05  L  170.62,  452.76  L  170.82,  452.21  L  170.62,  451.66  L  170.12,  451.37  L  169.55,  451.47  L  169.97,  452.21 " style="stroke-width: 0.85 ;&st7; "/>
	<path d=" M  218.13,  707.17  L  223.80,  707.17 " style="stroke-width: 0.85 ;&st7; "/>
	<path d=" M  212.46,  701.50  L  229.46,  701.50 " style="stroke-width: 0.85 ;&st7; "/>
	<path d=" M  216.71,  704.33  L  225.21,  704.33 " style="stroke-width: 0.85 ;&st7; "/>
	<path d=" M  171.39,  605.18  L  202.55,  605.18 " style="stroke-width: 0.85 ;&st7; "/>
	<path d=" M  220.96,  697.25  L  220.96,  701.50 " style="stroke-width: 0.85 ;&st7; "/>
	<path d=" M  205.38,  605.18  L  219.55,  605.18 " style="stroke-width: 0.85 ;&st7; "/>
	<path d=" M  127.48,  596.69  L  229.46,  596.69 " style="stroke-width: 0.85 ;&st7; "/>
	<path d=" M  195.47,  613.68  L  195.47,  545.69 " style="stroke-width: 0.85 ;&st7; "/>
	<path d=" M  178.47,  613.68  L  178.47,  545.69 " style="stroke-width: 0.85 ;&st7; "/>
	<path d=" M  205.38,  588.19  L  219.55,  588.19 " style="stroke-width: 0.85 ;&st7; "/>
	<path d=" M  127.48,  579.69  L  229.46,  579.69 " style="stroke-width: 0.85 ;&st7; "/>
	<path d=" M  205.38,  571.19  L  219.55,  571.19 " style="stroke-width: 0.85 ;&st7; "/>
	<path d=" M  161.47,  613.68  L  161.47,  545.69 " style="stroke-width: 0.85 ;&st7; "/>
	<path d=" M  127.48,  545.69  L  127.48,  613.68  L  229.46,  613.68  L  229.46,  545.69  L  127.48,  545.69 " style="stroke-width: 1.42 ;&st7; "/>
	<path d=" M  127.48,  562.69  L  229.46,  562.69 " style="stroke-width: 0.85 ;&st7; "/>
	<path d=" M  212.46,  613.68  L  212.46,  545.69 " style="stroke-width: 0.85 ;&st7; "/>
	<path d=" M  467.42,  656.18  L  467.42,  673.17  L  484.42,  673.17  L  484.42,  656.18  L  467.42,  656.18 " style="stroke-width: 1.42 ;&st7; "/>
	<path d=" M  475.92,  681.67  L  475.92,  656.18 " style="stroke-width: 0.85 ;&st7; "/>
	<path d=" M  188.39,  588.19  L  202.55,  588.19 " style="stroke-width: 0.85 ;&st7; "/>
	<path d=" M  135.98,  231.25  L  135.98,  265.24  L   93.48,  265.24  L   93.48,  231.25  L  135.98,  231.25 " style="stroke-width: 1.42 ;&st7; "/>
	<path d=" M  114.73,   78.27  L  114.73,   35.78  L   89.24,   35.78  L   89.24,   78.27  L  114.73,   78.27 " style="stroke-width: 1.42 ;&st7; "/>
	<path d=" M  101.98,   98.87  L   99.15,   96.04  L   99.15,  100.29  L  101.98,  103.12  L  104.82,  100.29  L  104.82,   96.04  L  101.98,   98.87 " style="stroke-width: 0.28 ;&st9;"/>
	<path d=" M  233.71,   78.27  L  233.71,   35.78  L  208.22,   35.78  L  208.22,   78.27  L  233.71,   78.27 " style="stroke-width: 1.42 ;&st7; "/>
	<path d=" M   93.48,  154.76  L  110.48,  154.76  L  110.48,  171.76  L   93.48,  171.76  L   93.48,  154.76 " style="stroke-width: 1.42 ;&st7; "/>
	<path d=" M  101.98,  154.76  L  101.98,  171.76 " style="stroke-width: 0.85 ;&st7; "/>
	<path d=" M  225.21,  189.32  L  220.96,  185.07  L  216.71,  189.32 " style="stroke-width: 1.42 ;&st7; "/>
	<path d=" M  225.21,  185.92  L  220.96,  181.67  L  216.71,  185.92 " style="stroke-width: 1.42 ;&st7; "/>
	<path d=" M  475.92,  697.25  L  475.92,  701.50 " style="stroke-width: 0.85 ;&st7; "/>
	<path d=" M  467.42,  701.50  L  484.42,  701.50 " style="stroke-width: 0.85 ;&st7; "/>
	<path d=" M  471.67,  704.33  L  480.17,  704.33 " style="stroke-width: 0.85 ;&st7; "/>
	<path d=" M  473.09,  707.17  L  478.75,  707.17 " style="stroke-width: 0.85 ;&st7; "/>
	<path d=" M  474.50,  710.00  L  477.34,  710.00 " style="stroke-width: 0.85 ;&st7; "/>
	<path d=" M  219.55,  710.00  L  222.38,  710.00 " style="stroke-width: 0.85 ;&st7; "/>
	<path d=" M  118.98,  477.71  L   25.50,  477.71  L   25.50,  392.72  L  118.98,  392.72  L  118.98,  477.71 " style="stroke-width: 1.42 ;&st7; "/>
	<path d=" M   42.49,  426.71  L  101.98,  426.71  L  101.98,  392.72 " style="stroke-width: 0.85 ;&st7; "/>
	<path d=" M   42.49,  477.71  L   42.49,  469.21 " style="stroke-width: 0.85 ;&st7; "/>
	<path d=" M   42.49,  418.22  L   42.49,  435.21 " style="stroke-width: 0.85 ;&st7; "/>
	<path d=" M   42.49,  392.72  L   42.49,  401.22 " style="stroke-width: 0.85 ;&st7; "/>
	<path d=" M   42.49,   98.87  L   39.66,   96.04  L   39.66,  100.29  L   42.49,  103.12  L   45.33,  100.29  L   45.33,   96.04  L   42.49,   98.87 " style="stroke-width: 0.28 ;&st9;"/>
	<path d=" M  101.98,   86.77  L   42.49,   86.77  L   42.49,  103.77 " style="stroke-width: 0.85 ;&st7; "/>
	<path d=" M  271.95,  375.72  L  271.95,  469.21  L  152.97,  469.21  L  152.97,  375.72  L  271.95,  375.72 " style="stroke-width: 1.42 ;&st7; "/>
	<path d=" M  203.97,  452.21  L  203.97,  469.21 " style="stroke-width: 0.85 ;&st7; "/>
	<path d=" M  169.97,  452.21  L  169.97,  443.71  L  167.14,  442.29  L  172.80,  439.46  L  167.14,  436.63  L  172.80,  433.80  L  167.14,  430.96  L  172.80,  428.13  L  169.97,  426.71  L  169.97,  418.22 " style="stroke-width: 0.85 ;&st7; "/>
	<path d=" M  169.97,  452.21  L  178.47,  452.21  L  179.89,  449.38  L  182.72,  455.04  L  185.55,  449.38  L  188.39,  455.04  L  191.22,  449.38  L  194.05,  455.04  L  195.47,  452.21  L  203.97,  452.21 " style="stroke-width: 0.85 ;&st7; "/>
	<path d=" M  212.46,  452.21  L  220.96,  452.21  L  222.38,  449.38  L  225.21,  455.04  L  228.05,  449.38  L  230.88,  455.04  L  233.71,  449.38  L  236.54,  455.04  L  237.96,  452.21  L  246.46,  452.21 " style="stroke-width: 0.85 ;&st7; "/>
	<path d=" M  169.97,  375.72  L  169.97,  392.72 " style="stroke-width: 0.85 ;&st7; "/>
	<path d=" M  169.97,  452.21  L  169.97,  469.21 " style="stroke-width: 0.85 ;&st7; "/>
	<path d=" M  203.97,  452.21  L  212.46,  452.21 " style="stroke-width: 0.85 ;&st7; "/>
	<path d=" M  246.46,  452.21  L  254.96,  452.21  L  254.96,  469.21 " style="stroke-width: 0.85 ;&st7; "/>
	<path d=" M  474.73,  663.67  L  474.46,  664.14  L  474.36,  664.67  L  474.46,  665.21  L  474.73,  665.68  L  475.14,  666.02  L  475.65,  666.21  L  476.19,  666.21  L  476.70,  666.02  L  477.11,  665.68  L  477.38,  665.21  L  477.48,  664.67  L  477.38,  664.14  L  477.11,  663.67  L  476.70,  663.33  L  476.19,  663.14  L  475.65,  663.14  L  475.14,  663.33  L  474.73,  663.67  L  475.12,  664.38  L  475.12,  664.97  L  475.50,  665.41  L  476.07,  665.51  L  476.57,  665.22  L  476.77,  664.67  L  476.57,  664.13  L  476.07,  663.84  L  475.50,  663.94  L  475.92,  664.67 " style="stroke-width: 0.85 ;&st7; "/>
	<path d=" M  327.20,  291.88  L  327.20,  287.90  L  335.69,  287.90  L  335.69,  291.88 " style="stroke-width: 1.42 ;&st7; "/>
	<path d=" M  327.20,  306.60  L  327.20,  310.57  L  335.69,  310.57  L  335.69,  306.60 " style="stroke-width: 1.42 ;&st7; "/>
	<path d=" M  467.42,  664.67  L  475.92,  664.67 " style="stroke-width: 0.85 ;&st7; "/>
	<path d=" M  409.35,  605.18  L  432.01,  605.18 " style="stroke-width: 0.85 ;&st7; "/>
	<path d=" M  332.86,  605.18  L  406.52,  605.18 " style="stroke-width: 0.85 ;&st7; "/>
	<path d=" M  420.68,  528.70  L  420.68,  613.68 " style="stroke-width: 0.85 ;&st7; "/>
	<path d=" M  369.69,  613.68  L  369.69,  528.70 " style="stroke-width: 0.85 ;&st7; "/>
	<path d=" M  383.85,  571.19  L  406.52,  571.19 " style="stroke-width: 0.85 ;&st7; "/>
	<path d=" M  395.18,  613.68  L  395.18,  528.70 " style="stroke-width: 0.85 ;&st7; "/>
	<path d=" M  288.95,  545.69  L  446.18,  545.69 " style="stroke-width: 0.85 ;&st7; "/>
	<path d=" M  288.95,  528.70  L  288.95,  613.68  L  446.18,  613.68  L  446.18,  528.70  L  288.95,  528.70 " style="stroke-width: 1.42 ;&st7; "/>
	<path d=" M  318.70,  613.68  L  318.70,  528.70 " style="stroke-width: 0.85 ;&st7; "/>
	<path d=" M  409.35,  554.19  L  432.01,  554.19 " style="stroke-width: 0.85 ;&st7; "/>
	<path d=" M  288.95,  562.69  L  446.18,  562.69 " style="stroke-width: 0.85 ;&st7; "/>
	<path d=" M  409.35,  571.19  L  432.01,  571.19 " style="stroke-width: 0.85 ;&st7; "/>
	<path d=" M  344.19,  613.68  L  344.19,  528.70 " style="stroke-width: 0.85 ;&st7; "/>
	<path d=" M  288.95,  579.69  L  446.18,  579.69 " style="stroke-width: 0.85 ;&st7; "/>
	<path d=" M  409.35,  588.19  L  432.01,  588.19 " style="stroke-width: 0.85 ;&st7; "/>
	<path d=" M  358.36,  588.19  L  406.52,  588.19 " style="stroke-width: 0.85 ;&st7; "/>
	<path d=" M  288.95,  596.69  L  446.18,  596.69 " style="stroke-width: 0.85 ;&st7; "/>
	<path d=" M   46.74,  576.86  L   42.49,  572.61  L   38.24,  576.86 " style="stroke-width: 1.42 ;&st7; "/>
	<path d=" M   46.74,  580.26  L   42.49,  576.01  L   38.24,  580.26 " style="stroke-width: 1.42 ;&st7; "/>
	<path d=" M  220.96,   90.37  L  218.13,   87.54  L  218.13,   91.79  L  220.96,   94.62  L  223.80,   91.79  L  223.80,   87.54  L  220.96,   90.37 " style="stroke-width: 0.28 ;&st9;"/>
	<path d=" M  106.23,  319.07  L  101.98,  323.31  L   97.73,  319.07 " style="stroke-width: 1.42 ;&st7; "/>
	<path d=" M   97.73,  315.67  L  101.98,  319.92  L  106.23,  315.67 " style="stroke-width: 1.42 ;&st7; "/>
	<path d=" M  100.79,   85.77  L  100.52,   86.24  L  100.42,   86.77  L  100.52,   87.30  L  100.79,   87.77  L  101.20,   88.12  L  101.71,   88.31  L  102.25,   88.31  L  102.76,   88.12  L  103.18,   87.77  L  103.45,   87.30  L  103.54,   86.77  L  103.45,   86.24  L  103.18,   85.77  L  102.76,   85.42  L  102.25,   85.24  L  101.71,   85.24  L  101.20,   85.42  L  100.79,   85.77  L  101.18,   86.48  L  101.18,   87.06  L  101.56,   87.51  L  102.13,   87.61  L  102.63,   87.32  L  102.83,   86.77  L  102.63,   86.22  L  102.13,   85.94  L  101.56,   86.03  L  101.98,   86.77 " style="stroke-width: 0.85 ;&st7; "/>
	<path d=" M  171.39,  605.18  C  171.39   604.40   170.75   603.77   169.97   603.77 " style="stroke-width: 0.85 ;&st7; "/>
	<path d=" M  169.97,  603.77  C  169.19   603.77   168.56   604.40   168.56   605.18 " style="stroke-width: 0.85 ;&st7; "/>
	<path d=" M  168.56,  605.18  C  168.56   605.97   169.19   606.60   169.97   606.60 " style="stroke-width: 0.85 ;&st7; "/>
	<path d=" M  169.97,  606.60  C  170.75   606.60   171.39   605.97   171.39   605.18 " style="stroke-width: 0.85 ;&st7; "/>
	<path d=" M  205.38,  605.18  C  205.38   604.40   204.75   603.77   203.97   603.77 " style="stroke-width: 0.85 ;&st7; "/>
	<path d=" M  203.97,  603.77  C  203.18   603.77   202.55   604.40   202.55   605.18 " style="stroke-width: 0.85 ;&st7; "/>
	<path d=" M  202.55,  605.18  C  202.55   605.97   203.18   606.60   203.97   606.60 " style="stroke-width: 0.85 ;&st7; "/>
	<path d=" M  203.97,  606.60  C  204.75   606.60   205.38   605.97   205.38   605.18 " style="stroke-width: 0.85 ;&st7; "/>
	<path d=" M  222.38,  605.18  C  222.38   604.40   221.75   603.77   220.96   603.77 " style="stroke-width: 0.85 ;&st7; "/>
	<path d=" M  220.96,  603.77  C  220.18   603.77   219.55   604.40   219.55   605.18 " style="stroke-width: 0.85 ;&st7; "/>
	<path d=" M  219.55,  605.18  C  219.55   605.97   220.18   606.60   220.96   606.60 " style="stroke-width: 0.85 ;&st7; "/>
	<path d=" M  220.96,  606.60  C  221.75   606.60   222.38   605.97   222.38   605.18 " style="stroke-width: 0.85 ;&st7; "/>
	<path d=" M  205.38,  588.19  C  205.38   587.40   204.75   586.77   203.97   586.77 " style="stroke-width: 0.85 ;&st7; "/>
	<path d=" M  203.97,  586.77  C  203.18   586.77   202.55   587.40   202.55   588.19 " style="stroke-width: 0.85 ;&st7; "/>
	<path d=" M  202.55,  588.19  C  202.55   588.97   203.18   589.60   203.97   589.60 " style="stroke-width: 0.85 ;&st7; "/>
	<path d=" M  203.97,  589.60  C  204.75   589.60   205.38   588.97   205.38   588.19 " style="stroke-width: 0.85 ;&st7; "/>
	<path d=" M  222.38,  588.19  C  222.38   587.40   221.75   586.77   220.96   586.77 " style="stroke-width: 0.85 ;&st7; "/>
	<path d=" M  220.96,  586.77  C  220.18   586.77   219.55   587.40   219.55   588.19 " style="stroke-width: 0.85 ;&st7; "/>
	<path d=" M  219.55,  588.19  C  219.55   588.97   220.18   589.60   220.96   589.60 " style="stroke-width: 0.85 ;&st7; "/>
	<path d=" M  220.96,  589.60  C  221.75   589.60   222.38   588.97   222.38   588.19 " style="stroke-width: 0.85 ;&st7; "/>
	<path d=" M  205.38,  571.19  C  205.38   570.41   204.75   569.77   203.97   569.77 " style="stroke-width: 0.85 ;&st7; "/>
	<path d=" M  203.97,  569.77  C  203.18   569.77   202.55   570.41   202.55   571.19 " style="stroke-width: 0.85 ;&st7; "/>
	<path d=" M  202.55,  571.19  C  202.55   571.97   203.18   572.61   203.97   572.61 " style="stroke-width: 0.85 ;&st7; "/>
	<path d=" M  203.97,  572.61  C  204.75   572.61   205.38   571.97   205.38   571.19 " style="stroke-width: 0.85 ;&st7; "/>
	<path d=" M  222.38,  571.19  C  222.38   570.41   221.75   569.77   220.96   569.77 " style="stroke-width: 0.85 ;&st7; "/>
	<path d=" M  220.96,  569.77  C  220.18   569.77   219.55   570.41   219.55   571.19 " style="stroke-width: 0.85 ;&st7; "/>
	<path d=" M  219.55,  571.19  C  219.55   571.97   220.18   572.61   220.96   572.61 " style="stroke-width: 0.85 ;&st7; "/>
	<path d=" M  220.96,  572.61  C  221.75   572.61   222.38   571.97   222.38   571.19 " style="stroke-width: 0.85 ;&st7; "/>
	<path d=" M  188.39,  588.19  C  188.39   587.40   187.75   586.77   186.97   586.77 " style="stroke-width: 0.85 ;&st7; "/>
	<path d=" M  186.97,  586.77  C  186.19   586.77   185.55   587.40   185.55   588.19 " style="stroke-width: 0.85 ;&st7; "/>
	<path d=" M  185.55,  588.19  C  185.55   588.97   186.19   589.60   186.97   589.60 " style="stroke-width: 0.85 ;&st7; "/>
	<path d=" M  186.97,  589.60  C  187.75   589.60   188.39   588.97   188.39   588.19 " style="stroke-width: 0.85 ;&st7; "/>
	<path d=" M  101.98,  256.74  C  103.94   256.74   105.52   255.16   105.52   253.20 " style="stroke-width: 0.85 ;&st7; "/>
	<path d=" M  105.52,  253.20  C  105.52   251.25   103.94   249.66   101.98   249.66 " style="stroke-width: 0.85 ;&st7; "/>
	<path d=" M  101.98,  249.66  C  100.99   249.66   100.15   250.02    99.45   250.72 " style="stroke-width: 0.85 ;&st7; "/>
	<path d=" M   99.45,  250.72  C  100.82   252.12   103.06   252.14   104.46   250.77 " style="stroke-width: 0.85 ;&st7; "/>
	<path d=" M  104.46,  250.77  C  105.86   249.40   105.88   247.16   104.51   245.77 " style="stroke-width: 0.85 ;&st7; "/>
	<path d=" M  104.51,  245.77  C  103.14   244.37   100.90   244.35    99.50   245.71 " style="stroke-width: 0.85 ;&st7; "/>
	<path d=" M   99.50,  245.71  C   99.49   245.73    99.47   245.75    99.45   245.77 " style="stroke-width: 0.85 ;&st7; "/>
	<path d=" M   99.45,  245.77  C  100.82   247.16   103.06   247.19   104.46   245.82 " style="stroke-width: 0.85 ;&st7; "/>
	<path d=" M  104.46,  245.82  C  105.86   244.45   105.88   242.20   104.51   240.81 " style="stroke-width: 0.85 ;&st7; "/>
	<path d=" M  104.51,  240.81  C  103.82   240.10   102.97   239.74   101.98   239.74 " style="stroke-width: 0.85 ;&st7; "/>
	<path d=" M  128.90,  236.91  C  128.90   236.13   128.26   235.50   127.48   235.50 " style="stroke-width: 0.85 ;&st7; "/>
	<path d=" M  127.48,  235.50  C  126.70   235.50   126.06   236.13   126.06   236.91 " style="stroke-width: 0.85 ;&st7; "/>
	<path d=" M  126.06,  236.91  C  126.06   237.69   126.70   238.33   127.48   238.33 " style="stroke-width: 0.85 ;&st7; "/>
	<path d=" M  127.48,  238.33  C  128.26   238.33   128.90   237.69   128.90   236.91 " style="stroke-width: 0.85 ;&st7; "/>
	<path d=" M  128.90,  259.58  C  128.90   258.79   128.26   258.16   127.48   258.16 " style="stroke-width: 0.85 ;&st7; "/>
	<path d=" M  127.48,  258.16  C  126.70   258.16   126.06   258.79   126.06   259.58 " style="stroke-width: 0.85 ;&st7; "/>
	<path d=" M  126.06,  259.58  C  126.06   260.36   126.70   260.99   127.48   260.99 " style="stroke-width: 0.85 ;&st7; "/>
	<path d=" M  127.48,  260.99  C  128.26   260.99   128.90   260.36   128.90   259.58 " style="stroke-width: 0.85 ;&st7; "/>
	<path d=" M  133.14,  248.24  C  133.14   247.46   132.51   246.83   131.73   246.83 " style="stroke-width: 0.85 ;&st7; "/>
	<path d=" M  131.73,  246.83  C  130.95   246.83   130.31   247.46   130.31   248.24 " style="stroke-width: 0.85 ;&st7; "/>
	<path d=" M  130.31,  248.24  C  130.31   249.03   130.95   249.66   131.73   249.66 " style="stroke-width: 0.85 ;&st7; "/>
	<path d=" M  131.73,  249.66  C  132.51   249.66   133.14   249.03   133.14   248.24 " style="stroke-width: 0.85 ;&st7; "/>
	<path d=" M  101.98,   47.11  C   99.25    48.72    98.33    52.25    99.95    54.99 " style="stroke-width: 1.42 ;&st7; "/>
	<path d=" M   99.95,   54.99  C  100.47    55.87   101.10    56.51   101.98    57.03 " style="stroke-width: 1.42 ;&st7; "/>
	<path d=" M  101.98,   66.94  C  104.72    65.33   105.63    61.80   104.02    59.06 " style="stroke-width: 1.42 ;&st7; "/>
	<path d=" M  104.02,   59.06  C  103.50    58.18   102.86    57.55   101.98    57.03 " style="stroke-width: 1.42 ;&st7; "/>
	<path d=" M  103.40,   45.69  C  103.40    44.91   102.77    44.28   101.98    44.28 " style="stroke-width: 0.85 ;&st7; "/>
	<path d=" M  101.98,   44.28  C  101.20    44.28   100.57    44.91   100.57    45.69 " style="stroke-width: 0.85 ;&st7; "/>
	<path d=" M  100.57,   45.69  C  100.57    46.48   101.20    47.11   101.98    47.11 " style="stroke-width: 0.85 ;&st7; "/>
	<path d=" M  101.98,   47.11  C  102.77    47.11   103.40    46.48   103.40    45.69 " style="stroke-width: 0.85 ;&st7; "/>
	<path d=" M  103.40,   68.36  C  103.40    67.57   102.77    66.94   101.98    66.94 " style="stroke-width: 0.85 ;&st7; "/>
	<path d=" M  101.98,   66.94  C  101.20    66.94   100.57    67.57   100.57    68.36 " style="stroke-width: 0.85 ;&st7; "/>
	<path d=" M  100.57,   68.36  C  100.57    69.14   101.20    69.77   101.98    69.77 " style="stroke-width: 0.85 ;&st7; "/>
	<path d=" M  101.98,   69.77  C  102.77    69.77   103.40    69.14   103.40    68.36 " style="stroke-width: 0.85 ;&st7; "/>
	<path d=" M   99.86,  103.77  C   97.51   103.77    95.61   105.67    95.61   108.02 " style="stroke-width: 1.42 ;&st7; "/>
	<path d=" M   95.61,  108.02  C   95.61   110.36    97.51   112.27    99.86   112.27 " style="stroke-width: 1.42 ;&st7; "/>
	<path d=" M  104.11,  112.27  C  106.45   112.27   108.36   110.36   108.36   108.02 " style="stroke-width: 1.42 ;&st7; "/>
	<path d=" M  108.36,  108.02  C  108.36   105.67   106.45   103.77   104.11   103.77 " style="stroke-width: 1.42 ;&st7; "/>
	<path d=" M  222.38,   68.36  C  222.38    67.57   221.75    66.94   220.96    66.94 " style="stroke-width: 0.85 ;&st7; "/>
	<path d=" M  220.96,   66.94  C  220.18    66.94   219.55    67.57   219.55    68.36 " style="stroke-width: 0.85 ;&st7; "/>
	<path d=" M  219.55,   68.36  C  219.55    69.14   220.18    69.77   220.96    69.77 " style="stroke-width: 0.85 ;&st7; "/>
	<path d=" M  220.96,   69.77  C  221.75    69.77   222.38    69.14   222.38    68.36 " style="stroke-width: 0.85 ;&st7; "/>
	<path d=" M  222.38,   45.69  C  222.38    44.91   221.75    44.28   220.96    44.28 " style="stroke-width: 0.85 ;&st7; "/>
	<path d=" M  220.96,   44.28  C  220.18    44.28   219.55    44.91   219.55    45.69 " style="stroke-width: 0.85 ;&st7; "/>
	<path d=" M  219.55,   45.69  C  219.55    46.48   220.18    47.11   220.96    47.11 " style="stroke-width: 0.85 ;&st7; "/>
	<path d=" M  220.96,   47.11  C  221.75    47.11   222.38    46.48   222.38    45.69 " style="stroke-width: 0.85 ;&st7; "/>
	<path d=" M  220.96,   66.94  C  221.82    64.02   221.16    61.13   219.12    58.87 " style="stroke-width: 1.42 ;&st7; "/>
	<path d=" M  220.96,   66.94  C  223.13    63.92   223.13    60.05   220.96    57.03 " style="stroke-width: 1.42 ;&st7; "/>
	<path d=" M  220.96,   66.94  C  224.68    64.17   225.50    58.96   222.80    55.19 " style="stroke-width: 1.42 ;&st7; "/>
	<path d=" M  220.96,   47.11  C  217.25    49.88   216.43    55.10   219.12    58.87 " style="stroke-width: 1.42 ;&st7; "/>
	<path d=" M  220.96,   47.11  C  218.79    50.13   218.79    54.00   220.96    57.03 " style="stroke-width: 1.42 ;&st7; "/>
	<path d=" M  220.96,   47.11  C  220.11    50.03   220.77    52.92   222.81    55.18 " style="stroke-width: 1.42 ;&st7; "/>
	<path d=" M   43.91,  440.88  C   43.91   440.10    43.28   439.46    42.49   439.46 " style="stroke-width: 0.85 ;&st7; "/>
	<path d=" M   42.49,  439.46  C   41.71   439.46    41.08   440.10    41.08   440.88 " style="stroke-width: 0.85 ;&st7; "/>
	<path d=" M   41.08,  440.88  C   41.08   441.66    41.71   442.29    42.49   442.29 " style="stroke-width: 0.85 ;&st7; "/>
	<path d=" M   42.49,  442.29  C   43.28   442.29    43.91   441.66    43.91   440.88 " style="stroke-width: 0.85 ;&st7; "/>
	<path d=" M   42.49,  413.97  C   44.05   413.98    45.32   412.72    45.33   411.17 " style="stroke-width: 0.85 ;&st7; "/>
	<path d=" M   45.33,  411.17  C   45.34   409.61    44.08   408.34    42.53   408.33 " style="stroke-width: 0.85 ;&st7; "/>
	<path d=" M   42.53,  408.33  C   41.49   408.33    40.61   408.83    40.09   409.72 " style="stroke-width: 0.85 ;&st7; "/>
	<path d=" M   40.08,  409.72  C   40.88   411.06    42.60   411.50    43.94   410.71 " style="stroke-width: 0.85 ;&st7; "/>
	<path d=" M   43.94,  410.71  C   45.28   409.92    45.73   408.19    44.93   406.85 " style="stroke-width: 0.85 ;&st7; "/>
	<path d=" M   44.93,  406.85  C   44.41   405.96    43.53   405.46    42.49   405.47 " style="stroke-width: 0.85 ;&st7; "/>
	<path d=" M   50.99,  409.72  C   50.99   405.02    47.19   401.22    42.49   401.22 " style="stroke-width: 1.42 ;&st7; "/>
	<path d=" M   42.49,  401.22  C   37.80   401.22    33.99   405.02    33.99   409.72 " style="stroke-width: 1.42 ;&st7; "/>
	<path d=" M   33.99,  409.72  C   33.99   414.41    37.80   418.22    42.49   418.22 " style="stroke-width: 1.42 ;&st7; "/>
	<path d=" M   42.49,  418.22  C   47.19   418.22    50.99   414.41    50.99   409.72 " style="stroke-width: 1.42 ;&st7; "/>
	<path d=" M   43.91,  463.54  C   43.91   462.76    43.28   462.12    42.49   462.12 " style="stroke-width: 0.85 ;&st7; "/>
	<path d=" M   42.49,  462.12  C   41.71   462.12    41.08   462.76    41.08   463.54 " style="stroke-width: 0.85 ;&st7; "/>
	<path d=" M   41.08,  463.54  C   41.08   464.32    41.71   464.96    42.49   464.96 " style="stroke-width: 0.85 ;&st7; "/>
	<path d=" M   42.49,  464.96  C   43.28   464.96    43.91   464.32    43.91   463.54 " style="stroke-width: 0.85 ;&st7; "/>
	<path d=" M   40.37,  103.77  C   38.02   103.77    36.12   105.67    36.12   108.02 " style="stroke-width: 1.42 ;&st7; "/>
	<path d=" M   36.12,  108.02  C   36.12   110.36    38.02   112.27    40.37   112.27 " style="stroke-width: 1.42 ;&st7; "/>
	<path d=" M   44.62,  112.27  C   46.96   112.27    48.87   110.36    48.87   108.02 " style="stroke-width: 1.42 ;&st7; "/>
	<path d=" M   48.87,  108.02  C   48.87   105.67    46.96   103.77    44.62   103.77 " style="stroke-width: 1.42 ;&st7; "/>
	<path d=" M  171.39,  416.80  C  171.39   416.02   170.75   415.38   169.97   415.38 " style="stroke-width: 0.85 ;&st7; "/>
	<path d=" M  169.97,  415.38  C  169.19   415.38   168.56   416.02   168.56   416.80 " style="stroke-width: 0.85 ;&st7; "/>
	<path d=" M  168.56,  416.80  C  168.56   417.58   169.19   418.22   169.97   418.22 " style="stroke-width: 0.85 ;&st7; "/>
	<path d=" M  169.97,  418.22  C  170.75   418.22   171.39   417.58   171.39   416.80 " style="stroke-width: 0.85 ;&st7; "/>
	<path d=" M  171.39,  394.14  C  171.39   393.35   170.75   392.72   169.97   392.72 " style="stroke-width: 0.85 ;&st7; "/>
	<path d=" M  169.97,  392.72  C  169.19   392.72   168.56   393.35   168.56   394.14 " style="stroke-width: 0.85 ;&st7; "/>
	<path d=" M  168.56,  394.14  C  168.56   394.92   169.19   395.55   169.97   395.55 " style="stroke-width: 0.85 ;&st7; "/>
	<path d=" M  169.97,  395.55  C  170.75   395.55   171.39   394.92   171.39   394.14 " style="stroke-width: 0.85 ;&st7; "/>
	<path d=" M  169.97,  415.38  C  172.71   413.77   173.62   410.24   172.01   407.50 " style="stroke-width: 1.42 ;&st7; "/>
	<path d=" M  172.01,  407.50  C  171.49   406.62   170.85   405.99   169.97   405.47 " style="stroke-width: 1.42 ;&st7; "/>
	<path d=" M  169.97,  395.55  C  167.23   397.17   166.32   400.69   167.93   403.43 " style="stroke-width: 1.42 ;&st7; "/>
	<path d=" M  167.93,  403.43  C  168.45   404.31   169.09   404.95   169.97   405.47 " style="stroke-width: 1.42 ;&st7; "/>
	<path d=" M  327.20,  291.88  C  323.13   294.22   321.74   299.42   324.08   303.48 " style="stroke-width: 1.42 ;&st7; "/>
	<path d=" M  324.08,  303.48  C  324.87   304.84   325.84   305.81   327.20   306.60 " style="stroke-width: 1.42 ;&st7; "/>
	<path d=" M  335.69,  306.60  C  339.76   304.25   341.15   299.05   338.80   294.99 " style="stroke-width: 1.42 ;&st7; "/>
	<path d=" M  338.80,  294.99  C  338.02   293.63   337.05   292.66   335.69   291.88 " style="stroke-width: 1.42 ;&st7; "/>
	<path d=" M  335.69,  291.88  C  332.98   290.31   329.91   290.31   327.20   291.88 " style="stroke-width: 1.42 ;&st7; "/>
	<path d=" M  327.20,  306.60  C  329.91   308.16   332.98   308.16   335.69   306.60 " style="stroke-width: 1.42 ;&st7; "/>
	<path d=" M  409.35,  605.18  C  409.35   604.40   408.71   603.77   407.93   603.77 " style="stroke-width: 0.85 ;&st7; "/>
	<path d=" M  407.93,  603.77  C  407.15   603.77   406.52   604.40   406.52   605.18 " style="stroke-width: 0.85 ;&st7; "/>
	<path d=" M  406.52,  605.18  C  406.52   605.97   407.15   606.60   407.93   606.60 " style="stroke-width: 0.85 ;&st7; "/>
	<path d=" M  407.93,  606.60  C  408.71   606.60   409.35   605.97   409.35   605.18 " style="stroke-width: 0.85 ;&st7; "/>
	<path d=" M  383.85,  571.19  C  383.85   570.41   383.22   569.77   382.44   569.77 " style="stroke-width: 0.85 ;&st7; "/>
	<path d=" M  382.44,  569.77  C  381.65   569.77   381.02   570.41   381.02   571.19 " style="stroke-width: 0.85 ;&st7; "/>
	<path d=" M  381.02,  571.19  C  381.02   571.97   381.65   572.61   382.44   572.61 " style="stroke-width: 0.85 ;&st7; "/>
	<path d=" M  382.44,  572.61  C  383.22   572.61   383.85   571.97   383.85   571.19 " style="stroke-width: 0.85 ;&st7; "/>
	<path d=" M  434.84,  554.19  C  434.84   553.41   434.21   552.78   433.43   552.78 " style="stroke-width: 0.85 ;&st7; "/>
	<path d=" M  433.43,  552.78  C  432.65   552.78   432.01   553.41   432.01   554.19 " style="stroke-width: 0.85 ;&st7; "/>
	<path d=" M  432.01,  554.19  C  432.01   554.97   432.65   555.61   433.43   555.61 " style="stroke-width: 0.85 ;&st7; "/>
	<path d=" M  433.43,  555.61  C  434.21   555.61   434.84   554.97   434.84   554.19 " style="stroke-width: 0.85 ;&st7; "/>
	<path d=" M  409.35,  554.19  C  409.35   553.41   408.71   552.78   407.93   552.78 " style="stroke-width: 0.85 ;&st7; "/>
	<path d=" M  407.93,  552.78  C  407.15   552.78   406.52   553.41   406.52   554.19 " style="stroke-width: 0.85 ;&st7; "/>
	<path d=" M  406.52,  554.19  C  406.52   554.97   407.15   555.61   407.93   555.61 " style="stroke-width: 0.85 ;&st7; "/>
	<path d=" M  407.93,  555.61  C  408.71   555.61   409.35   554.97   409.35   554.19 " style="stroke-width: 0.85 ;&st7; "/>
	<path d=" M  434.84,  571.19  C  434.84   570.41   434.21   569.77   433.43   569.77 " style="stroke-width: 0.85 ;&st7; "/>
	<path d=" M  433.43,  569.77  C  432.65   569.77   432.01   570.41   432.01   571.19 " style="stroke-width: 0.85 ;&st7; "/>
	<path d=" M  432.01,  571.19  C  432.01   571.97   432.65   572.61   433.43   572.61 " style="stroke-width: 0.85 ;&st7; "/>
	<path d=" M  433.43,  572.61  C  434.21   572.61   434.84   571.97   434.84   571.19 " style="stroke-width: 0.85 ;&st7; "/>
	<path d=" M  409.35,  571.19  C  409.35   570.41   408.71   569.77   407.93   569.77 " style="stroke-width: 0.85 ;&st7; "/>
	<path d=" M  407.93,  569.77  C  407.15   569.77   406.52   570.41   406.52   571.19 " style="stroke-width: 0.85 ;&st7; "/>
	<path d=" M  406.52,  571.19  C  406.52   571.97   407.15   572.61   407.93   572.61 " style="stroke-width: 0.85 ;&st7; "/>
	<path d=" M  407.93,  572.61  C  408.71   572.61   409.35   571.97   409.35   571.19 " style="stroke-width: 0.85 ;&st7; "/>
	<path d=" M  434.84,  588.19  C  434.84   587.40   434.21   586.77   433.43   586.77 " style="stroke-width: 0.85 ;&st7; "/>
	<path d=" M  433.43,  586.77  C  432.65   586.77   432.01   587.40   432.01   588.19 " style="stroke-width: 0.85 ;&st7; "/>
	<path d=" M  432.01,  588.19  C  432.01   588.97   432.65   589.60   433.43   589.60 " style="stroke-width: 0.85 ;&st7; "/>
	<path d=" M  433.43,  589.60  C  434.21   589.60   434.84   588.97   434.84   588.19 " style="stroke-width: 0.85 ;&st7; "/>
	<path d=" M  409.35,  588.19  C  409.35   587.40   408.71   586.77   407.93   586.77 " style="stroke-width: 0.85 ;&st7; "/>
	<path d=" M  407.93,  586.77  C  407.15   586.77   406.52   587.40   406.52   588.19 " style="stroke-width: 0.85 ;&st7; "/>
	<path d=" M  406.52,  588.19  C  406.52   588.97   407.15   589.60   407.93   589.60 " style="stroke-width: 0.85 ;&st7; "/>
	<path d=" M  407.93,  589.60  C  408.71   589.60   409.35   588.97   409.35   588.19 " style="stroke-width: 0.85 ;&st7; "/>
	<path d=" M  358.36,  588.19  C  358.36   587.40   357.72   586.77   356.94   586.77 " style="stroke-width: 0.85 ;&st7; "/>
	<path d=" M  356.94,  586.77  C  356.16   586.77   355.52   587.40   355.52   588.19 " style="stroke-width: 0.85 ;&st7; "/>
	<path d=" M  355.52,  588.19  C  355.52   588.97   356.16   589.60   356.94   589.60 " style="stroke-width: 0.85 ;&st7; "/>
	<path d=" M  356.94,  589.60  C  357.72   589.60   358.36   588.97   358.36   588.19 " style="stroke-width: 0.85 ;&st7; "/>
	<path d=" M  434.84,  605.18  C  434.84   604.40   434.21   603.77   433.43   603.77 " style="stroke-width: 0.85 ;&st7; "/>
	<path d=" M  433.43,  603.77  C  432.65   603.77   432.01   604.40   432.01   605.18 " style="stroke-width: 0.85 ;&st7; "/>
	<path d=" M  432.01,  605.18  C  432.01   605.97   432.65   606.60   433.43   606.60 " style="stroke-width: 0.85 ;&st7; "/>
	<path d=" M  433.43,  606.60  C  434.21   606.60   434.84   605.97   434.84   605.18 " style="stroke-width: 0.85 ;&st7; "/>
	<path d=" M  332.86,  605.18  C  332.86   604.40   332.23   603.77   331.44   603.77 " style="stroke-width: 0.85 ;&st7; "/>
	<path d=" M  331.44,  603.77  C  330.66   603.77   330.03   604.40   330.03   605.18 " style="stroke-width: 0.85 ;&st7; "/>
	<path d=" M  330.03,  605.18  C  330.03   605.97   330.66   606.60   331.44   606.60 " style="stroke-width: 0.85 ;&st7; "/>
	<path d=" M  331.44,  606.60  C  332.23   606.60   332.86   605.97   332.86   605.18 " style="stroke-width: 0.85 ;&st7; "/>
	<path d=" M  218.84,   95.27  C  216.49    95.27   214.59    97.17   214.59    99.52 " style="stroke-width: 1.42 ;&st7; "/>
	<path d=" M  214.59,   99.52  C  214.59   101.87   216.49   103.77   218.84   103.77 " style="stroke-width: 1.42 ;&st7; "/>
	<path d=" M  223.09,  103.77  C  225.43   103.77   227.34   101.87   227.34    99.52 " style="stroke-width: 1.42 ;&st7; "/>
	<path d=" M  227.34,   99.52  C  227.34    97.17   225.43    95.27   223.09    95.27 " style="stroke-width: 1.42 ;&st7; "/>
	<path d=" M  214.59,  108.02  C  214.59   110.36   216.49   112.27   218.84   112.27 " style="stroke-width: 1.42 ;&st7; "/>
	<path d=" M  218.84,  103.77  C  216.49   103.77   214.59   105.67   214.59   108.02 " style="stroke-width: 1.42 ;&st7; "/>
	<path d=" M  227.34,  108.02  C  227.34   105.67   225.43   103.77   223.09   103.77 " style="stroke-width: 1.42 ;&st7; "/>
	<path d=" M  223.09,  112.27  C  225.43   112.27   227.34   110.36   227.34   108.02 " style="stroke-width: 1.42 ;&st7; "/>
	<path d=" M  106.52,  150.23  C  106.52   147.72   104.49   145.69   101.98   145.69 " style="stroke-width: 1.42 ;&st7; "/>
	<path d=" M  101.98,  145.69  C   99.48   145.69    97.45   147.72    97.45   150.23 " style="stroke-width: 1.42 ;&st7; "/>
	<path d=" M   97.45,  150.23  C   97.45   152.73    99.48   154.76   101.98   154.76 " style="stroke-width: 1.42 ;&st7; "/>
	<path d=" M  101.98,  154.76  C  104.49   154.76   106.52   152.73   106.52   150.23 " style="stroke-width: 1.42 ;&st7; "/>
	<path d=" M  106.52,  141.16  C  106.52   138.66   104.49   136.63   101.98   136.63 " style="stroke-width: 1.42 ;&st7; "/>
	<path d=" M  101.98,  136.63  C   99.48   136.63    97.45   138.66    97.45   141.16 " style="stroke-width: 1.42 ;&st7; "/>
	<path d=" M   97.45,  141.16  C   97.45   143.66    99.48   145.69   101.98   145.69 " style="stroke-width: 1.42 ;&st7; "/>
	<path d=" M  101.98,  145.69  C  104.49   145.69   106.52   143.66   106.52   141.16 " style="stroke-width: 1.42 ;&st7; "/>
	<path d=" M  106.52,  185.35  C  106.52   182.85   104.49   180.82   101.98   180.82 " style="stroke-width: 1.42 ;&st7; "/>
	<path d=" M  101.98,  180.82  C   99.48   180.82    97.45   182.85    97.45   185.35 " style="stroke-width: 1.42 ;&st7; "/>
	<path d=" M   97.45,  185.35  C   97.45   187.86    99.48   189.89   101.98   189.89 " style="stroke-width: 1.42 ;&st7; "/>
	<path d=" M  101.98,  189.89  C  104.49   189.89   106.52   187.86   106.52   185.35 " style="stroke-width: 1.42 ;&st7; "/>
	<path d=" M  106.52,  176.29  C  106.52   173.79   104.49   171.76   101.98   171.76 " style="stroke-width: 1.42 ;&st7; "/>
	<path d=" M  101.98,  171.76  C   99.48   171.76    97.45   173.79    97.45   176.29 " style="stroke-width: 1.42 ;&st7; "/>
	<path d=" M   97.45,  176.29  C   97.45   178.79    99.48   180.82   101.98   180.82 " style="stroke-width: 1.42 ;&st7; "/>
	<path d=" M  101.98,  180.82  C  104.49   180.82   106.52   178.79   106.52   176.29 " style="stroke-width: 1.42 ;&st7; "/>
	<text style="&st18;" transform="matrix(&st16;  56.97  485.32 )">C15</text>
	<text ewd:textID="10" style="&st18;" transform="matrix(&st16;  56.97  492.42 )">Cooler Control SW <tspan dy="6" x="0">(Rear)</tspan></text>
	<text ewd:textID="13" style="&st18;" transform="matrix(&st17;  83.84  267.77 )">Rear Cooler <tspan dy="6" x="-0.01">Relay</tspan></text>
	<text style="&st18;" transform="matrix(&st17;  76.73  267.77 )">R10</text>
	<text style="&st18;" transform="matrix(&st17;  116.68  616.21 )">B12</text>
	<text style="&st18;" transform="matrix(&st17;  327.75  335.8 )">R-B</text>
	<text ewd:textID="9" style="&st18;" transform="matrix(&st17;  123.78  616.21 )">Blower SW (Rear)</text>
	<text style="&st18;" transform="matrix(&st16;  298.95  590.16 )">M2</text>
	<text style="&st18;" transform="matrix(&st16;  299.34  573.16 )">M1</text>
	<text style="&st18;" transform="matrix(&st16;  296.83  539.16 )">OFF</text>
	<text style="&st18;" transform="matrix(&st16;  299.09  556.16 )">LO</text>
	<text style="&st18;" transform="matrix(&st16;  300.36  607.15 )">HI</text>
	<text style="&st18;" transform="matrix(&st17;  21.8  633.17 )">BR(*2)</text>
	<text style="&st18;" transform="matrix(&st17;  441.06  641.11 )">(*2)</text>
	<text style="&st18;" transform="matrix(&st17;  415.57  641.11 )">(*2)</text>
	<text style="&st18;" transform="matrix(&st17;  429.73  642.63 )">W-B</text>
	<text style="&st18;" transform="matrix(&st17;  404.24  639.73 )">BR</text>
	<text style="&st18;" transform="matrix(&st16;  284.45  508.0 )">Y-R(*2)</text>
	<text style="&st18;" transform="matrix(&st16;  288.94  482.51 )">V(*2)</text>
	<text style="&st18;" transform="matrix(&st16;  286.43  621.29 )">B14</text>
	<text ewd:textID="9" style="&st18;" transform="matrix(&st16;  286.43  628.4 )">Blower SW (Rear)</text>
	<text style="&st18;" transform="matrix(&st16;  457.45  660.98 )">10</text>
	<text style="&st18;" transform="matrix(&st16;  325.43  525.01 )">1</text>
	<text style="&st18;" transform="matrix(&st16;  350.15  525.01 )">2</text>
	<text style="&st18;" transform="matrix(&st16;  375.65  525.01 )">3</text>
	<text ewd:textID="11" style="&st18;" transform="matrix(&st17;  499.14  675.7 )">Junction <tspan dy="6" x="0">Connector</tspan></text>
	<text style="&st18;" transform="matrix(&st17;  492.03  675.7 )">J34</text>
	<text style="&st18;" transform="matrix(&st16;  52.4  568.91 )">(*3)</text>
	<text style="&st18;" transform="matrix(&st16;  52.4  560.41 )">(*4)</text>
	<text style="&st18;" transform="matrix(&st16;  27.68  560.41 )">7</text>
	<text style="&st18;" transform="matrix(&st16;  24.5  568.91 )">18</text>
	<text style="&st18;" transform="matrix(&st17;  50.13  610.98 )">(*1)</text>
	<text style="&st18;" transform="matrix(&st17;  211.6  504.74 )">(*1)</text>
	<text style="&st18;" transform="matrix(&st17;  177.61  504.74 )">(*1)</text>
	<text style="&st18;" transform="matrix(&st16;  401.14  621.88 )">4</text>
	<text ewd:textID="1" style="&st18;" transform="matrix(&st16;  277.93  71.74 )">* 1 :Before Aug. 2008 Production</text>
	<text style="&st18;" transform="matrix(&st16;  217.04  109.99 )">1B</text>
	<text style="&st18;" transform="matrix(&st16;  216.9  101.49 )">1D</text>
	<text style="&st18;" transform="matrix(&st16;  208.27  109.99 )">2</text>
	<text style="&st18;" transform="matrix(&st16;  209.05  101.49 )">1</text>
	<text style="&st18;" transform="matrix(&st16;  228.75  101.49 )">(*1)</text>
	<text style="&st18;" transform="matrix(&st16;  228.75  109.99 )">(*2)</text>
	<text ewd:textID="2" style="&st18;" transform="matrix(&st16;  277.93  80.24 )">* 2 :From Aug. 2008 Production</text>
	<text style="&st18;" transform="matrix(&st16;  426.64  621.88 )">5</text>
	<text ewd:textID="3" style="&st18;" transform="matrix(&st16;  277.93  88.74 )">* 3 :LHD From Aug. 2008 Production</text>
	<text ewd:textID="4" style="&st18;" transform="matrix(&st16;  277.93  97.24 )">* 4 :Except *3</text>
	<text style="&st18;" transform="matrix(&st16;  111.89  339.45 )">(*3)</text>
	<text style="&st18;" transform="matrix(&st16;  111.89  330.95 )">(*4)</text>
	<text style="&st18;" transform="matrix(&st16;  87.17  339.45 )">8</text>
	<text style="&st18;" transform="matrix(&st16;  87.17  330.95 )">6</text>
	<text style="&st18;" transform="matrix(&st17;  217.27  642.63 )">W-B</text>
	<text style="&st18;" transform="matrix(&st17;  228.6  640.72 )">(*1)</text>
	<text style="&st18;" transform="matrix(&st17;  327.75  416.53 )">R-B</text>
	<text style="&st18;" transform="matrix(&st17;  339.08  415.9 )">(*2)</text>
	<text style="&st18;" transform="matrix(&st16;  107.96  152.2 )">(*6)</text>
	<text style="&st18;" transform="matrix(&st16;  99.65  152.2 )">A</text>
	<text style="&st18;" transform="matrix(&st16;  91.11  152.2 )">5</text>
	<text style="&st18;" transform="matrix(&st16;  107.96  143.13 )">(*5)</text>
	<text style="&st18;" transform="matrix(&st16;  99.65  143.13 )">A</text>
	<text style="&st18;" transform="matrix(&st16;  91.11  143.13 )">7</text>
	<text style="&st18;" transform="matrix(&st16;  107.96  187.32 )">(*6)</text>
	<text style="&st18;" transform="matrix(&st16;  99.65  187.32 )">A</text>
	<text style="&st18;" transform="matrix(&st16;  91.11  187.32 )">6</text>
	<text style="&st18;" transform="matrix(&st16;  107.96  178.26 )">(*5)</text>
	<text style="&st18;" transform="matrix(&st16;  99.65  178.26 )">A</text>
	<text style="&st18;" transform="matrix(&st16;  91.11  178.26 )">8</text>
	<text ewd:textID="5" style="&st18;" transform="matrix(&st16;  277.93  105.74 )">* 5 :Before Aug. 2013 Production</text>
	<text ewd:textID="6" style="&st18;" transform="matrix(&st16;  277.93  114.24 )">* 6 :From Aug. 2013 Production</text>
	<text style="&st18;" transform="matrix(&st16;  282.13  346.53 )">R-B</text>
	<text style="&st18;" transform="matrix(&st16;  248.17  477.4 )">4</text>
	<text style="&st18;" transform="matrix(&st17;  200.27  505.77 )">Y-R</text>
	<text style="&st18;" transform="matrix(&st16;  180.95  542.0 )">1</text>
	<text style="&st18;" transform="matrix(&st16;  214.17  621.88 )">3</text>
	<text style="&st18;" transform="matrix(&st16;  197.18  621.88 )">4</text>
	<text style="&st18;" transform="matrix(&st16;  141.01  607.15 )">HI</text>
	<text ewd:textID="12" style="&st18;" transform="matrix(&st16;  139.6  590.16 )">Me</text>
	<text style="&st18;" transform="matrix(&st17;  166.28  501.28 )">P</text>
	<text style="&st18;" transform="matrix(&st16;  137.48  556.16 )">OFF</text>
	<text style="&st18;" transform="matrix(&st16;  139.74  573.16 )">LO</text>
	<text style="&st18;" transform="matrix(&st16;  163.18  542.0 )">2</text>
	<text style="&st18;" transform="matrix(&st16;  197.18  477.4 )">2</text>
	<text style="&st18;" transform="matrix(&st16;  469.13  652.49 )">6</text>
	<text style="&st18;" transform="matrix(&st17;  98.29  297.06 )">L-B</text>
	<text style="&st18;" transform="matrix(&st17;  98.29  216.46 )">R-L</text>
	<text style="&st18;" transform="matrix(&st16;  163.18  477.4 )">3</text>
	<text style="&st18;" transform="matrix(&st16;  138.81  244.55 )">4</text>
	<text style="&st18;" transform="matrix(&st16;  121.46  227.56 )">1</text>
	<text style="&st18;" transform="matrix(&st16;  120.69  273.43 )">2</text>
	<text style="&st18;" transform="matrix(&st16;  95.19  227.56 )">3</text>
	<text style="&st18;" transform="matrix(&st16;  95.19  273.43 )">5</text>
	<text style="&st18;" transform="matrix(&st16;  162.27  244.55 )">W-B</text>
	<text style="&st18;" transform="matrix(&st17;  472.23  629.88 )">W-B</text>
	<text style="&st18;" transform="matrix(&st17;  251.26  536.4 )">W-B</text>
	<text style="&st18;" transform="matrix(&st16;  28.37  56.17 )">10A <tspan dy="6" x="0">ECU-IG&amp;GAUGE</tspan></text>
	<text style="&st18;" transform="matrix(&st16;  95.91  32.08 )">(IG)</text>
	<text style="&st18;" transform="matrix(&st16;  97.67  109.99 )">2K</text>
	<text style="&st18;" transform="matrix(&st16;  89.29  109.99 )">8</text>
	<text style="&st18;" transform="matrix(&st16;  177.59  56.17 )">40A <tspan dy="6" x="0">RR CLR</tspan></text>
	<text style="&st18;" transform="matrix(&st16;  113.62  160.95 )">J22(A)</text>
	<text style="&st18;" transform="matrix(&st16;  206.15  177.98 )">2</text>
	<text style="&st18;" transform="matrix(&st16;  325.43  318.76 )">1</text>
	<text style="&st18;" transform="matrix(&st16;  324.66  284.21 )">2</text>
	<text style="&st18;" transform="matrix(&st16;  343.08  292.68 )">B10</text>
	<text style="&st18;" transform="matrix(&st17;  123.78  216.72 )">R</text>
	<text style="&st18;" transform="matrix(&st17;  217.27  131.74 )">R</text>
	<text style="&st18;" transform="matrix(&st17;  98.29  131.48 )">R-L</text>
	<text ewd:textID="7" style="&st18;" transform="matrix(&st16;  343.08  299.79 )">Blower Motor <tspan dy="6" x="0">(Rear)</tspan></text>
	<text ewd:textID="11" style="&st18;" transform="matrix(&st16;  113.62  168.06 )">Junction Connector</text>
	<text style="&st18;" transform="matrix(&st17;  38.8  609.99 )">BR</text>
	<text style="&st18;" transform="matrix(&st16;  95.19  389.03 )">4</text>
	<text style="&st18;" transform="matrix(&st16;  35.7  389.03 )">6</text>
	<text style="&st18;" transform="matrix(&st16;  35.7  485.9 )">3</text>
	<text style="&st18;" transform="matrix(&st16;  38.18  109.99 )">2S</text>
	<text style="&st18;" transform="matrix(&st16;  26.62  109.99 )">14</text>
	<text style="&st18;" transform="matrix(&st17;  38.8  135.73 )">R-L</text>
	<text style="&st18;" transform="matrix(&st17;  98.29  373.55 )">L-B</text>
	<text style="&st18;" transform="matrix(&st17;  38.8  373.69 )">R-L</text>
	<text style="&st18;" transform="matrix(&st17;  38.8  516.5 )">BR</text>
	<text style="&st18;" transform="matrix(&st16;  163.96  372.03 )">1</text>
	<text ewd:textID="8" style="&st18;" transform="matrix(&st16;  201.44  372.03 )">Blower Resistor (Rear)</text>
	<text style="&st18;" transform="matrix(&st16;  201.44  364.92 )">B11</text>
	<text style="&st18;" transform="matrix(&st16;  303.97  261.54 )">L</text>
	<text style="&st18;" transform="matrix(&st16;  211.85  32.08 )">(BAT)</text>
	<text style="&st18;" transform="matrix(&st16;  328.55  301.2 )">M</text>
	<a ewd:code="IJ1" ewd:figID="14" ewd:figtype="w2w" ewd:pinNo="2" style="cursor:pointer;">
		<path d=" M  229.46,  171.76  L  212.46,  171.76  L  212.46,  180.26  L  229.46,  180.26  L  229.46,  171.76 " style="&st2;"/>
		<text style="&st8;" transform="matrix(&st16;  216.39  178.5 )"><tspan style="&st18;" x="0" y="0">IJ1</tspan></text>
	</a>
	<a ewd:code="IA1" ewd:figID="15" ewd:figtype="w2w" ewd:pinNo="7" style="cursor:pointer;">
		<path d=" M   50.99,  554.19  L   33.99,  554.19  L   33.99,  562.69  L   50.99,  562.69  L   50.99,  554.19 " style="&st2;"/>
		<text style="&st8;" transform="matrix(&st16;  37.32  560.94 )"><tspan style="&st18;" x="0" y="0">IA1</tspan></text>
	</a>
	<a ewd:code="IA1" ewd:figID="16" ewd:figtype="w2w" ewd:pinNo="18" style="cursor:pointer;">
		<path d=" M   50.99,  562.69  L   33.99,  562.69  L   33.99,  571.19  L   50.99,  571.19  L   50.99,  562.69 " style="&st2;"/>
		<text style="&st8;" transform="matrix(&st16;  37.32  569.43 )"><tspan style="&st18;" x="0" y="0">IA1</tspan></text>
	</a>
	<a ewd:code="IA1" ewd:figID="17" ewd:figtype="w2w" ewd:pinNo="8" style="cursor:pointer;">
		<path d=" M  110.48,  333.23  L   93.48,  333.23  L   93.48,  341.73  L  110.48,  341.73  L  110.48,  333.23 " style="&st2;"/>
		<text style="&st8;" transform="matrix(&st16;  96.81  339.97 )"><tspan style="&st18;" x="0" y="0">IA1</tspan></text>
	</a>
	<a ewd:code="IA1" ewd:figID="18" ewd:figtype="w2w" ewd:pinNo="6" style="cursor:pointer;">
		<path d=" M  110.48,  324.73  L   93.48,  324.73  L   93.48,  333.23  L  110.48,  333.23  L  110.48,  324.73 " style="&st2;"/>
		<text style="&st8;" transform="matrix(&st16;  96.81  331.47 )"><tspan style="&st18;" x="0" y="0">IA1</tspan></text>
	</a>
	<a ewd:code="II" ewd:figID="19" ewd:figtype="gp" style="cursor:pointer;">
		<path d=" M  465.30,  681.67  L  486.54,  681.67  L  475.92,  697.25  L  465.30,  681.67 " style="&st2;"/>
		<text style="&st8;" transform="matrix(&st16;  473.84  689.83 )"><tspan style="&st18;" x="0" y="0">II</tspan></text>
	</a>
	<a ewd:code="BL" ewd:figID="20" ewd:figtype="gp" style="cursor:pointer;">
		<path d=" M  210.34,  681.67  L  231.59,  681.67  L  220.96,  697.25  L  210.34,  681.67 " style="&st2;"/>
		<text style="&st8;" transform="matrix(&st16;  216.43  689.83 )"><tspan style="&st18;" x="0" y="0">BL</tspan></text>
	</a>
	<a ewd:code="3265" ewd:figID="21" ewd:figtype="sp" style="cursor:pointer;">
		<path d=" M  327.20,  341.73  L  335.69,  341.73  L  339.94,  345.98  L  339.94,  354.48  L  335.69,  358.73  L  327.20,  358.73  L  322.95,  354.48  L  322.95,  345.98  L  327.20,  341.73 " style="&st2;"/>
	</a>
</g>
</svg>