﻿<?xml version="1.0" encoding="utf-8"?>
<!DOCTYPE svg PUBLIC "-//W3C//DTD SVG 1.0//EN" "http://www.w3.org/TR/2001/REC-SVG-20010904/DTD/svg10.dtd"[
	<!ENTITY ns_flows "http://ns.adobe.com/Flows/1.0/">
	<!ENTITY ns_svg "http://www.w3.org/2000/svg">
	<!ENTITY ns_xlink "http://www.w3.org/1999/xlink">
	<!ENTITY st0 "font-size:7px;font-family:'MS-PGothic';adobe-font-script:japanese;">
	<!ENTITY st1 "font-size:6px;font-family:'ArialMT';">
	<!-- White fill  -->
	<!ENTITY st2 "fill:#FFFFFF;stroke:#000000; stroke-width:1.41;stroke-linecap:round;stroke-linejoin:round;">
	<!-- Yellow fill  -->
	<!ENTITY st3 "fill:#FFFFCC;stroke:#FFFFCC; stroke-width:0.1;stroke-linecap:round;stroke-linejoin:round;">
	<!-- Gray fill  -->
	<!ENTITY st4 "fill:#CCCCCC;stroke:#CCCCCC; stroke-width:0.1;stroke-linecap:round;stroke-linejoin:round;">
	<!-- Light-blue fill -->
	<!ENTITY st5 "fill:#CCECF4;stroke:#000000; stroke-width:1.133;stroke-linecap:round;stroke-linejoin:round;">
	<!ENTITY st6 "fill:none;stroke-linecap:butt; stroke-linejoin:round;">
	<!ENTITY st7 "fill:none;stroke:#000000;stroke-linecap:round;stroke-linejoin:round;">
	<!ENTITY st8 "enable-background:new    ;">
	<!-- Black fill -->
	<!ENTITY st9 "fill:#000000;stroke:#000000; stroke-linecap:round;stroke-linejoin:round;">
	<!-- SRS note   -->
	<!ENTITY st10 "font-size:9px;font-family:'ArialMT';">
	<!ENTITY st11 "font-size:9px;font-family:'Svg Symbol';">
	<!ENTITY st12 "font-size:6px;font-family:'Svg Symbol';">
	<!ENTITY st13 "fill:none;stroke:#ff0000;stroke-linecap:round;stroke-linejoin:round;">
	<!-- Yellow fill  -->
	<!ENTITY st14 "fill:#FFFF00;stroke:#FFFF00; stroke-width:0.1;stroke-linecap:round;stroke-linejoin:round;">
	<!ENTITY st15 "font-size:6px;font-family:'MS-PGothic';adobe-font-script:japanese;">
	<!ENTITY st16 "1.00 0.00 0.00 1.00">
	<!ENTITY st17 "0.00 -1.00 1.00 0.00">
	<!ENTITY st18 "font-size:6px;font-family:'Arial';">
	<!ENTITY st19 "font-size:9px;font-family:'Arial';">
	<!ENTITY st20 "font-size:6px;font-family:'MS-PGothic','MS PGothic';adobe-font-script:japanese;">
	<!ENTITY st21 "font-size:7px;font-family:'MS-PGothic','MS PGothic';adobe-font-script:japanese;">
	<!ATTLIST svg
		xmlns:ewd CDATA #FIXED "http://shcl.co.jp/ewd"
		xmlns:a CDATA #FIXED "http://ns.adobe.com/AdobeSVGViewerExtensions/3.0/"
		ewd:ver CDATA #IMPLIED
	>
	<!ATTLIST a
		ewd:lineID CDATA #IMPLIED
		ewd:groupID CDATA #IMPLIED
		ewd:figtype CDATA #IMPLIED
		ewd:code CDATA #IMPLIED
		ewd:figID CDATA #IMPLIED
		ewd:pinNo CDATA #IMPLIED
		ewd:comment CDATA #IMPLIED >
	<!ATTLIST g
		ewd:lineID CDATA #IMPLIED
		ewd:groupID CDATA #IMPLIED
		ewd:figtype CDATA #IMPLIED
		ewd:code CDATA #IMPLIED
		ewd:figID CDATA #IMPLIED
		ewd:pinNo CDATA #IMPLIED
		ewd:comment CDATA #IMPLIED >
	<!ATTLIST text
		ewd:textID CDATA #IMPLIED >
	<!ATTLIST title
		ewd:textID CDATA #IMPLIED >
]>
<!-- Generator: Shintec Hozumi YS   -->
<svg onload="call_execInitLoadProc_svg('system')" style="overflow:visible;  enable-background:new 0 0 3008.783 710.000" viewBox="0 0 3008.783 710.000" height="710.000" width="3008.783" xml:space="preserve" ewd:ver="L2.1.2.7" xmlns="&ns_svg;" xmlns:a="http://ns.adobe.com/AdobeSVGViewerExtensions/3.0/" xmlns:ewd="http://shcl.co.jp/ewd" xmlns:xlink="&ns_xlink;">
<path d=" M 1470.25,   95.27  L 1470.25,  120.77 " style="stroke-width: 0.85 ;&st7; " /><path d=" M 1472.38,  120.77  L 1468.13,  120.77 " style="stroke-width: 1.42 ;&st7; " /><path d=" M 1472.38,  129.26  L 1468.13,  129.26 " style="stroke-width: 1.42 ;&st7; " /><path d=" M 1353.40,  239.75  L 1349.15,  239.75 " style="stroke-width: 1.42 ;&st7; " /><path d=" M 1353.40,  248.24  L 1349.15,  248.24 " style="stroke-width: 1.42 ;&st7; " /><path d=" M 1412.89,  239.75  L 1408.64,  239.75 " style="stroke-width: 1.42 ;&st7; " /><path d=" M 1412.89,  248.24  L 1408.64,  248.24 " style="stroke-width: 1.42 ;&st7; " /><path d=" M 1378.89,  239.75  L 1374.65,  239.75 " style="stroke-width: 1.42 ;&st7; " /><path d=" M 1378.89,  248.24  L 1374.65,  248.24 " style="stroke-width: 1.42 ;&st7; " /><path d=" M 1164.31,  443.71  L 1172.80,  443.71 " style="stroke-width: 1.42 ;&st7; " /><path d=" M 1198.30,  443.71  L 1206.80,  443.71 " style="stroke-width: 1.42 ;&st7; " /><path d=" M 1310.91,  239.75  L 1306.66,  239.75 " style="stroke-width: 1.42 ;&st7; " /><path d=" M 1310.91,  248.24  L 1306.66,  248.24 " style="stroke-width: 1.42 ;&st7; " /><path d=" M 1276.91,  239.75  L 1272.66,  239.75 " style="stroke-width: 1.42 ;&st7; " /><path d=" M 1276.91,  248.24  L 1272.66,  248.24 " style="stroke-width: 1.42 ;&st7; " /><path d=" M 1168.55,  570.06  L 1168.55,  574.02 " style="stroke-width: 1.42 ;&st7; " /><path d=" M 1168.55,  574.02  L 1177.05,  574.02 " style="stroke-width: 1.42 ;&st7; " /><path d=" M 1113.31,  443.71  L 1121.81,  443.71 " style="stroke-width: 1.42 ;&st7; " /><path d=" M 1079.32,  443.71  L 1087.82,  443.71 " style="stroke-width: 1.42 ;&st7; " /><path d=" M 1177.05,  574.02  L 1177.05,  570.06 " style="stroke-width: 1.42 ;&st7; " /><path d=" M 1168.55,  551.36  L 1177.05,  551.36 " style="stroke-width: 1.42 ;&st7; " /><path d=" M 1168.55,  555.33  L 1168.55,  551.36 " style="stroke-width: 1.42 ;&st7; " /><path d=" M 1177.05,  551.36  L 1177.05,  555.33 " style="stroke-width: 1.42 ;&st7; " /><path d=" M 1083.57,  574.02  L 1092.07,  574.02 " style="stroke-width: 1.42 ;&st7; " /><path d=" M 1083.57,  570.06  L 1083.57,  574.02 " style="stroke-width: 1.42 ;&st7; " /><path d=" M 1092.07,  574.02  L 1092.07,  570.06 " style="stroke-width: 1.42 ;&st7; " /><path d=" M 1083.57,  551.36  L 1092.07,  551.36 " style="stroke-width: 1.42 ;&st7; " /><path d=" M 1083.57,  555.33  L 1083.57,  551.36 " style="stroke-width: 1.42 ;&st7; " /><path d=" M 1092.07,  551.36  L 1092.07,  555.33 " style="stroke-width: 1.42 ;&st7; " /><path d=" M 1117.56,  434.65  L 1121.81,  438.90  L 1126.06,  434.65 " style="stroke-width: 1.42 ;&st7; " /><path d=" M 1126.06,  438.05  L 1121.81,  442.29  L 1117.56,  438.05 " style="stroke-width: 1.42 ;&st7; " /><path d=" M 1273.59,  221.75  L 1273.32,  222.22  L 1273.23,  222.75  L 1273.32,  223.28  L 1273.59,  223.75  L 1274.01,  224.10  L 1274.51,  224.28  L 1275.06,  224.28  L 1275.57,  224.10  L 1275.98,  223.75  L 1276.25,  223.28  L 1276.34,  222.75  L 1276.25,  222.22  L 1275.98,  221.75  L 1275.57,  221.40  L 1275.06,  221.21  L 1274.51,  221.21  L 1274.01,  221.40  L 1273.59,  221.75  L 1273.99,  222.46  L 1273.99,  223.04  L 1274.36,  223.48  L 1274.93,  223.58  L 1275.44,  223.30  L 1275.64,  222.75  L 1275.44,  222.20  L 1274.93,  221.91  L 1274.36,  222.01  L 1274.79,  222.75 " style="stroke-width: 0.85 ;&st7; " /><path d=" M 1483.00,  103.77  L 1483.00,   61.28  L 1457.51,   61.28  L 1457.51,  103.77  L 1483.00,  103.77 " style="stroke-width: 1.42 ;&st7; " /><path d=" M 1470.25,  115.87  L 1467.42,  113.04  L 1467.42,  117.29  L 1470.25,  120.12  L 1473.09,  117.29  L 1473.09,  113.04  L 1470.25,  115.87 " style="stroke-width: 0.28 ;&st9;" /><path d=" M 1155.81,  528.70  L 1155.81,  605.18  L 1223.80,  605.18  L 1223.80,  528.70  L 1155.81,  528.70 " style="stroke-width: 1.42 ;&st7; " /><path d=" M 1172.80,  528.70  L 1172.80,  551.36 " style="stroke-width: 0.85 ;&st7; " /><path d=" M 1172.80,  574.02  L 1172.80,  596.69  L 1206.80,  596.69  L 1206.80,  528.70 " style="stroke-width: 0.85 ;&st7; " /><path d=" M 1168.55,  434.65  L 1172.80,  438.90  L 1177.05,  434.65 " style="stroke-width: 1.42 ;&st7; " /><path d=" M 1177.05,  438.05  L 1172.80,  442.29  L 1168.55,  438.05 " style="stroke-width: 1.42 ;&st7; " /><path d=" M 1202.55,  434.65  L 1206.80,  438.90  L 1211.05,  434.65 " style="stroke-width: 1.42 ;&st7; " /><path d=" M 1211.05,  438.05  L 1206.80,  442.29  L 1202.55,  438.05 " style="stroke-width: 1.42 ;&st7; " /><path d=" M 1274.79,  697.25  L 1274.79,  701.50 " style="stroke-width: 0.85 ;&st7; " /><path d=" M 1266.29,  701.50  L 1283.29,  701.50 " style="stroke-width: 0.85 ;&st7; " /><path d=" M 1270.54,  704.33  L 1279.04,  704.33 " style="stroke-width: 0.85 ;&st7; " /><path d=" M 1271.95,  707.17  L 1277.62,  707.17 " style="stroke-width: 0.85 ;&st7; " /><path d=" M 1273.37,  710.00  L 1276.20,  710.00 " style="stroke-width: 0.85 ;&st7; " /><path d=" M 1308.78,  234.85  L 1305.95,  232.02  L 1305.95,  236.27  L 1308.78,  239.10  L 1311.61,  236.27  L 1311.61,  232.02  L 1308.78,  234.85 " style="stroke-width: 0.28 ;&st9;" /><path d=" M 1274.79,  234.85  L 1271.95,  232.02  L 1271.95,  236.27  L 1274.79,  239.10  L 1277.62,  236.27  L 1277.62,  232.02  L 1274.79,  234.85 " style="stroke-width: 0.28 ;&st9;" /><path d=" M 1308.78,  239.75  L 1308.78,  222.75  L 1274.79,  222.75 " style="stroke-width: 0.85 ;&st7; " /><path d=" M 1274.79,  239.75  L 1274.79,  205.75 " style="stroke-width: 0.85 ;&st7; " /><path d=" M 1087.82,  528.70  L 1087.82,  551.36 " style="stroke-width: 0.85 ;&st7; " /><path d=" M 1087.82,  574.02  L 1087.82,  596.69  L 1121.81,  596.69  L 1121.81,  528.70 " style="stroke-width: 0.85 ;&st7; " /><path d=" M 1083.57,  434.65  L 1087.82,  438.90  L 1092.07,  434.65 " style="stroke-width: 1.42 ;&st7; " /><path d=" M 1092.07,  438.05  L 1087.82,  442.29  L 1083.57,  438.05 " style="stroke-width: 1.42 ;&st7; " /><path d=" M 1070.82,  528.70  L 1070.82,  605.18  L 1138.81,  605.18  L 1138.81,  528.70  L 1070.82,  528.70 " style="stroke-width: 1.42 ;&st7; " /><path d=" M 1351.27,  234.85  L 1348.44,  232.02  L 1348.44,  236.27  L 1351.27,  239.10  L 1354.11,  236.27  L 1354.11,  232.02  L 1351.27,  234.85 " style="stroke-width: 0.28 ;&st9;" /><path d=" M 1410.76,  234.85  L 1407.93,  232.02  L 1407.93,  236.27  L 1410.76,  239.10  L 1413.60,  236.27  L 1413.60,  232.02  L 1410.76,  234.85 " style="stroke-width: 0.28 ;&st9;" /><path d=" M 1410.76,  205.75  L 1410.76,  239.75 " style="stroke-width: 0.85 ;&st7; " /><path d=" M 1351.27,  205.75  L 1351.27,  239.75 " style="stroke-width: 0.85 ;&st7; " /><path d=" M 1376.77,  234.85  L 1373.94,  232.02  L 1373.94,  236.27  L 1376.77,  239.10  L 1379.60,  236.27  L 1379.60,  232.02  L 1376.77,  234.85 " style="stroke-width: 0.28 ;&st9;" /><path d=" M 1376.77,  239.75  L 1376.77,  222.75  L 1410.76,  222.75 " style="stroke-width: 0.85 ;&st7; " /><path d=" M 1409.57,  221.75  L 1409.30,  222.22  L 1409.21,  222.75  L 1409.30,  223.28  L 1409.57,  223.75  L 1409.98,  224.10  L 1410.49,  224.28  L 1411.04,  224.28  L 1411.54,  224.10  L 1411.96,  223.75  L 1412.23,  223.28  L 1412.32,  222.75  L 1412.23,  222.22  L 1411.96,  221.75  L 1411.54,  221.40  L 1411.04,  221.21  L 1410.49,  221.21  L 1409.98,  221.40  L 1409.57,  221.75  L 1409.96,  222.46  L 1409.96,  223.04  L 1410.34,  223.48  L 1410.91,  223.58  L 1411.42,  223.30  L 1411.61,  222.75  L 1411.42,  222.20  L 1410.91,  221.91  L 1410.34,  222.01  L 1410.76,  222.75 " style="stroke-width: 0.85 ;&st7; " /><path d=" M 1306.66,  239.75  C 1304.31   239.75  1302.41   241.65  1302.41   243.99 " style="stroke-width: 1.42 ;&st7; " /><path d=" M 1302.41,  243.99  C 1302.41   246.34  1304.31   248.24  1306.66   248.24 " style="stroke-width: 1.42 ;&st7; " /><path d=" M 1310.91,  248.24  C 1313.25   248.24  1315.16   246.34  1315.16   243.99 " style="stroke-width: 1.42 ;&st7; " /><path d=" M 1315.16,  243.99  C 1315.16   241.65  1313.25   239.75  1310.91   239.75 " style="stroke-width: 1.42 ;&st7; " /><path d=" M 1272.66,  239.75  C 1270.32   239.75  1268.41   241.65  1268.41   243.99 " style="stroke-width: 1.42 ;&st7; " /><path d=" M 1268.41,  243.99  C 1268.41   246.34  1270.32   248.24  1272.66   248.24 " style="stroke-width: 1.42 ;&st7; " /><path d=" M 1276.91,  248.24  C 1279.26   248.24  1281.16   246.34  1281.16   243.99 " style="stroke-width: 1.42 ;&st7; " /><path d=" M 1281.16,  243.99  C 1281.16   241.65  1279.26   239.75  1276.91   239.75 " style="stroke-width: 1.42 ;&st7; " /><path d=" M 1164.31,  562.69  C 1164.31   567.38  1168.11   571.19  1172.80   571.19 " style="stroke-width: 1.42 ;&st7; " /><path d=" M 1172.80,  571.19  C 1177.50   571.19  1181.30   567.38  1181.30   562.69 " style="stroke-width: 1.42 ;&st7; " /><path d=" M 1181.30,  562.69  C 1181.30   558.00  1177.50   554.19  1172.80   554.19 " style="stroke-width: 1.42 ;&st7; " /><path d=" M 1172.80,  554.19  C 1168.11   554.19  1164.31   558.00  1164.31   562.69 " style="stroke-width: 1.42 ;&st7; " /><path d=" M 1079.32,  562.69  C 1079.32   567.38  1083.12   571.19  1087.82   571.19 " style="stroke-width: 1.42 ;&st7; " /><path d=" M 1087.82,  571.19  C 1092.51   571.19  1096.32   567.38  1096.32   562.69 " style="stroke-width: 1.42 ;&st7; " /><path d=" M 1096.32,  562.69  C 1096.32   558.00  1092.51   554.19  1087.82   554.19 " style="stroke-width: 1.42 ;&st7; " /><path d=" M 1087.82,  554.19  C 1083.12   554.19  1079.32   558.00  1079.32   562.69 " style="stroke-width: 1.42 ;&st7; " /><path d=" M 1349.15,  239.75  C 1346.80   239.75  1344.90   241.65  1344.90   243.99 " style="stroke-width: 1.42 ;&st7; " /><path d=" M 1344.90,  243.99  C 1344.90   246.34  1346.80   248.24  1349.15   248.24 " style="stroke-width: 1.42 ;&st7; " /><path d=" M 1353.40,  248.24  C 1355.75   248.24  1357.65   246.34  1357.65   243.99 " style="stroke-width: 1.42 ;&st7; " /><path d=" M 1357.65,  243.99  C 1357.65   241.65  1355.75   239.75  1353.40   239.75 " style="stroke-width: 1.42 ;&st7; " /><path d=" M 1408.64,  239.75  C 1406.29   239.75  1404.39   241.65  1404.39   243.99 " style="stroke-width: 1.42 ;&st7; " /><path d=" M 1404.39,  243.99  C 1404.39   246.34  1406.29   248.24  1408.64   248.24 " style="stroke-width: 1.42 ;&st7; " /><path d=" M 1412.89,  248.24  C 1415.24   248.24  1417.14   246.34  1417.14   243.99 " style="stroke-width: 1.42 ;&st7; " /><path d=" M 1417.14,  243.99  C 1417.14   241.65  1415.24   239.75  1412.89   239.75 " style="stroke-width: 1.42 ;&st7; " /><path d=" M 1374.65,  239.75  C 1372.30   239.75  1370.40   241.65  1370.40   243.99 " style="stroke-width: 1.42 ;&st7; " /><path d=" M 1370.40,  243.99  C 1370.40   246.34  1372.30   248.24  1374.65   248.24 " style="stroke-width: 1.42 ;&st7; " /><path d=" M 1378.89,  248.24  C 1381.24   248.24  1383.14   246.34  1383.14   243.99 " style="stroke-width: 1.42 ;&st7; " /><path d=" M 1383.14,  243.99  C 1383.14   241.65  1381.24   239.75  1378.89   239.75 " style="stroke-width: 1.42 ;&st7; " /><path d=" M 1470.25,   72.61  C 1467.52    74.22  1466.60    77.75  1468.22    80.48 " style="stroke-width: 1.42 ;&st7; " /><path d=" M 1468.22,   80.48  C 1468.74    81.37  1469.37    82.00  1470.25    82.52 " style="stroke-width: 1.42 ;&st7; " /><path d=" M 1470.25,   92.44  C 1472.99    90.82  1473.90    87.30  1472.29    84.56 " style="stroke-width: 1.42 ;&st7; " /><path d=" M 1472.29,   84.56  C 1471.77    83.68  1471.14    83.04  1470.25    82.52 " style="stroke-width: 1.42 ;&st7; " /><path d=" M 1471.67,   71.19  C 1471.67    70.41  1471.04    69.77  1470.25    69.77 " style="stroke-width: 0.85 ;&st7; " /><path d=" M 1470.25,   69.77  C 1469.47    69.77  1468.84    70.41  1468.84    71.19 " style="stroke-width: 0.85 ;&st7; " /><path d=" M 1468.84,   71.19  C 1468.84    71.97  1469.47    72.61  1470.25    72.61 " style="stroke-width: 0.85 ;&st7; " /><path d=" M 1470.25,   72.61  C 1471.04    72.61  1471.67    71.97  1471.67    71.19 " style="stroke-width: 0.85 ;&st7; " /><path d=" M 1471.67,   93.85  C 1471.67    93.07  1471.04    92.44  1470.25    92.44 " style="stroke-width: 0.85 ;&st7; " /><path d=" M 1470.25,   92.44  C 1469.47    92.44  1468.84    93.07  1468.84    93.85 " style="stroke-width: 0.85 ;&st7; " /><path d=" M 1468.84,   93.85  C 1468.84    94.64  1469.47    95.27  1470.25    95.27 " style="stroke-width: 0.85 ;&st7; " /><path d=" M 1470.25,   95.27  C 1471.04    95.27  1471.67    94.64  1471.67    93.85 " style="stroke-width: 0.85 ;&st7; " /><path d=" M 1468.13,  120.77  C 1465.78   120.77  1463.88   122.67  1463.88   125.01 " style="stroke-width: 1.42 ;&st7; " /><path d=" M 1463.88,  125.01  C 1463.88   127.36  1465.78   129.26  1468.13   129.26 " style="stroke-width: 1.42 ;&st7; " /><path d=" M 1472.38,  129.26  C 1474.73   129.26  1476.63   127.36  1476.63   125.01 " style="stroke-width: 1.42 ;&st7; " /><path d=" M 1476.63,  125.01  C 1476.63   122.67  1474.73   120.77  1472.38   120.77 " style="stroke-width: 1.42 ;&st7; " /><text style="&st18;" transform="matrix(&st16;  1461.14  57.58 )">(BAT)</text><text style="&st18;" transform="matrix(&st16;  1056.0  669.48 )">L-Y</text><text style="&st18;" transform="matrix(&st16;  1468.66  126.98 )">1</text><text style="&st18;" transform="matrix(&st16;  1463.47  111.96 )">2</text><text style="&st18;" transform="matrix(&st17;  1271.09  506.65 )">W-B</text><text style="&st18;" transform="matrix(&st17;  1203.1  505.18 )">L</text><text style="&st18;" transform="matrix(&st17;  1169.11  509.52 )">L-Y</text><text ewd:textID="12" style="&st18;" transform="matrix(&st16;  1093.79  80.24 )">*15 :From Jun. 2011 Production</text><text style="&st18;" transform="matrix(&st16;  1153.28  612.79 )">D10</text><text style="&st18;" transform="matrix(&st16;  1267.09  202.05 )">GND</text><text style="&st18;" transform="matrix(&st16;  1200.0  525.01 )">4</text><text style="&st18;" transform="matrix(&st16;  1166.79  525.01 )">1</text><text style="&st18;" transform="matrix(&st16;  1157.99  449.93 )">5</text><text style="&st18;" transform="matrix(&st16;  1191.98  449.93 )">4</text><text style="&st18;" transform="matrix(&st16;  1268.78  213.94 )">1</text><text style="&st18;" transform="matrix(&st16;  1304.33  245.96 )">2D</text><text style="&st18;" transform="matrix(&st16;  1292.91  245.96 )">18</text><text style="&st18;" transform="matrix(&st16;  1270.34  245.96 )">2D</text><text style="&st18;" transform="matrix(&st16;  1262.1  245.96 )">9</text><text ewd:textID="29" style="&st18;" transform="matrix(&st16;  1153.28  619.9 )">Door Lock Assembly <tspan dy="6" x="0">(Rear LH)</tspan></text><text style="&st18;" transform="matrix(&st17;  1466.56  143.99 )">L</text><text style="&st18;" transform="matrix(&st16;  1054.98  40.58 )">L-W</text><text style="&st18;" transform="matrix(&st16;  1060.34  23.58 )">L</text><text style="&st18;" transform="matrix(&st17;  1305.09  506.65 )">W-B</text><text ewd:textID="33" style="&st18;" transform="matrix(&st16;  1204.27  193.56 )">Integration Relay</text><text ewd:textID="17" style="&st18;" transform="matrix(&st16;  1093.79  105.74 )">*21 :RHD, LHD Before Mar. 2015 Production</text><text style="&st18;" transform="matrix(&st16;  1401.16  202.05 )">BECU</text><text style="&st18;" transform="matrix(&st16;  1342.51  202.05 )">ALTB</text><text style="&st18;" transform="matrix(&st16;  1403.98  213.94 )">4</text><text style="&st18;" transform="matrix(&st16;  1344.49  213.94 )">5</text><text style="&st18;" transform="matrix(&st16;  1346.82  245.96 )">2H</text><text style="&st18;" transform="matrix(&st16;  1338.58  245.96 )">4</text><text style="&st18;" transform="matrix(&st16;  1406.81  245.96 )">2L</text><text style="&st18;" transform="matrix(&st16;  1394.9  245.96 )">12</text><text style="&st18;" transform="matrix(&st16;  1372.46  245.96 )">2S</text><text style="&st18;" transform="matrix(&st16;  1360.9  245.96 )">13</text><text style="&st18;" transform="matrix(&st17;  1373.07  271.56 )">L-Y</text><text style="&st18;" transform="matrix(&st17;  1347.58  269.97 )">LG</text><text style="&st18;" transform="matrix(&st16;  1169.91  564.66 )">M</text><text style="&st18;" transform="matrix(&st16;  1084.92  564.66 )">M</text><text ewd:textID="11" style="&st18;" transform="matrix(&st16;  1093.79  71.74 )">*14 :Before Jun. 2011 Production</text><text ewd:textID="13" style="&st18;" transform="matrix(&st16;  1093.79  88.74 )">*17 :South Africa</text><text style="&st18;" transform="matrix(&st16;  1005.01  669.48 )">L-Y</text><text style="&st18;" transform="matrix(&st16;  1009.35  23.58 )">L</text><text style="&st18;" transform="matrix(&st16;  1003.98  40.58 )">L-W</text><text style="&st18;" transform="matrix(&st17;  1118.12  505.67 )">R</text><text style="&st18;" transform="matrix(&st17;  1084.12  510.02 )">R-Y</text><text style="&st18;" transform="matrix(&st16;  1068.3  612.79 )">B 9</text><text style="&st18;" transform="matrix(&st16;  1115.02  525.01 )">4</text><text style="&st18;" transform="matrix(&st16;  1081.02  525.01 )">3</text><text style="&st18;" transform="matrix(&st16;  1073.0  449.93 )">8</text><text style="&st18;" transform="matrix(&st16;  1107.0  449.93 )">9</text><text ewd:textID="19" style="&st18;" transform="matrix(&st16;  1068.3  619.9 )">Back Door Lock <tspan dy="6" x="0">Assembly</tspan></text><text style="&st18;" transform="matrix(&st16;  1055.51  406.02 )">R-Y</text><text style="&st18;" transform="matrix(&st16;  1487.56  76.01 )">7.5A <tspan dy="6" x="0">ECU-B (*10) </tspan><tspan dy="6" x="0">10A </tspan><tspan dy="6" x="0">ECU-B (*11)</tspan></text><text style="&st18;" transform="matrix(&st16;  1054.55  417.35 )">(*21)</text><text style="&st18;" transform="matrix(&st16;  1004.51  406.02 )">R-Y</text><text style="&st18;" transform="matrix(&st16;  1003.56  417.35 )">(*21)</text><text style="&st18;" transform="matrix(&st16;  1045.76  389.02 )">R-Y(RHD)</text><text style="&st18;" transform="matrix(&st16;  1050.1  372.03 )">R(RHD)</text><text style="&st18;" transform="matrix(&st16;  1052.08  355.03 )">R(*21)</text><text style="&st18;" transform="matrix(&st16;  1001.09  355.03 )">R(*21)</text><text style="&st18;" transform="matrix(&st16;  1046.75  321.03 )">L-Y(LHD)</text><text style="&st18;" transform="matrix(&st16;  1051.09  304.04 )">L(LHD)</text><text style="&st18;" transform="matrix(&st16;  1000.1  304.04 )">L(LHD)</text><text style="&st18;" transform="matrix(&st16;  1047.35  287.04 )">R-Y(*22)</text><text style="&st18;" transform="matrix(&st16;  1051.69  270.04 )">R(*22)</text><text style="&st18;" transform="matrix(&st16;  1000.7  270.04 )">R(*22)</text><text ewd:textID="18" style="&st18;" transform="matrix(&st16;  1093.79  114.24 )">*22 :LHD From Mar. 2015 Production</text><text ewd:textID="14" style="&st18;" transform="matrix(&st16;  1093.79  97.24 )">*18 :Except South Africa</text><text ewd:textID="8" style="&st18;" transform="matrix(&st16;  1093.79  63.24 )">*11 :From Aug. 2008 Production</text><text ewd:textID="7" style="&st18;" transform="matrix(&st16;  1093.79  54.75 )">*10 :Before Aug. 2008 Production</text><text style="&st18;" transform="matrix(&st16;  1003.56  680.81 )">(*17)</text><text style="&st18;" transform="matrix(&st16;  1054.55  680.81 )">(*17)</text></svg>