﻿<?xml version="1.0" encoding="utf-8"?>
<!DOCTYPE svg PUBLIC "-//W3C//DTD SVG 1.0//EN" "http://www.w3.org/TR/2001/REC-SVG-20010904/DTD/svg10.dtd"[
	<!ENTITY ns_flows "http://ns.adobe.com/Flows/1.0/">
	<!ENTITY ns_svg "http://www.w3.org/2000/svg">
	<!ENTITY ns_xlink "http://www.w3.org/1999/xlink">
	<!ENTITY st0 "font-size:7px;font-family:'MS-PGothic';adobe-font-script:japanese;">
	<!ENTITY st1 "font-size:6px;font-family:'ArialMT';">
	<!-- White fill  -->
	<!ENTITY st2 "fill:#FFFFFF;stroke:#000000; stroke-width:1.41;stroke-linecap:round;stroke-linejoin:round;">
	<!-- Yellow fill  -->
	<!ENTITY st3 "fill:#FFFFCC;stroke:#FFFFCC; stroke-width:0.1;stroke-linecap:round;stroke-linejoin:round;">
	<!-- Gray fill  -->
	<!ENTITY st4 "fill:#CCCCCC;stroke:#CCCCCC; stroke-width:0.1;stroke-linecap:round;stroke-linejoin:round;">
	<!-- Light-blue fill -->
	<!ENTITY st5 "fill:#CCECF4;stroke:#000000; stroke-width:1.133;stroke-linecap:round;stroke-linejoin:round;">
	<!ENTITY st6 "fill:none;stroke-linecap:butt; stroke-linejoin:round;">
	<!ENTITY st7 "fill:none;stroke:#000000;stroke-linecap:round;stroke-linejoin:round;">
	<!ENTITY st8 "enable-background:new    ;">
	<!-- Black fill -->
	<!ENTITY st9 "fill:#000000;stroke:#000000; stroke-linecap:round;stroke-linejoin:round;">
	<!-- SRS note   -->
	<!ENTITY st10 "font-size:9px;font-family:'ArialMT';">
	<!ENTITY st11 "font-size:9px;font-family:'Svg Symbol';">
	<!ENTITY st12 "font-size:6px;font-family:'Svg Symbol';">
	<!ENTITY st13 "fill:none;stroke:#ff0000;stroke-linecap:round;stroke-linejoin:round;">
	<!-- Yellow fill  -->
	<!ENTITY st14 "fill:#FFFF00;stroke:#FFFF00; stroke-width:0.1;stroke-linecap:round;stroke-linejoin:round;">
	<!ENTITY st15 "font-size:6px;font-family:'MS-PGothic';adobe-font-script:japanese;">
	<!ENTITY st16 "1.00 0.00 0.00 1.00">
	<!ENTITY st17 "0.00 -1.00 1.00 0.00">
	<!ENTITY st18 "font-size:6px;font-family:'Arial';">
	<!ENTITY st19 "font-size:9px;font-family:'Arial';">
	<!ENTITY st20 "font-size:6px;font-family:'MS-PGothic','MS PGothic';adobe-font-script:japanese;">
	<!ENTITY st21 "font-size:7px;font-family:'MS-PGothic','MS PGothic';adobe-font-script:japanese;">
	<!ATTLIST svg
		xmlns:ewd CDATA #FIXED "http://shcl.co.jp/ewd"
		xmlns:a CDATA #FIXED "http://ns.adobe.com/AdobeSVGViewerExtensions/3.0/"
		ewd:ver CDATA #IMPLIED
	>
	<!ATTLIST a
		ewd:lineID CDATA #IMPLIED
		ewd:groupID CDATA #IMPLIED
		ewd:figtype CDATA #IMPLIED
		ewd:code CDATA #IMPLIED
		ewd:figID CDATA #IMPLIED
		ewd:pinNo CDATA #IMPLIED
		ewd:comment CDATA #IMPLIED >
	<!ATTLIST g
		ewd:lineID CDATA #IMPLIED
		ewd:groupID CDATA #IMPLIED
		ewd:figtype CDATA #IMPLIED
		ewd:code CDATA #IMPLIED
		ewd:figID CDATA #IMPLIED
		ewd:pinNo CDATA #IMPLIED
		ewd:comment CDATA #IMPLIED >
	<!ATTLIST text
		ewd:textID CDATA #IMPLIED >
	<!ATTLIST title
		ewd:textID CDATA #IMPLIED >
]>
<!-- Generator: Shintec Hozumi YS   -->
<svg onload="call_execInitLoadProc_svg('system')" style="overflow:visible;  enable-background:new 0 0 2024.065 710.000" viewBox="0 0 2024.065 710.000" height="710.000" width="2024.065" xml:space="preserve" ewd:ver="L2.1.2.7" xmlns="&ns_svg;" xmlns:a="http://ns.adobe.com/AdobeSVGViewerExtensions/3.0/" xmlns:ewd="http://shcl.co.jp/ewd" xmlns:xlink="&ns_xlink;"><script type="text/javascript" xlink:href="../../../../../system/js/ewd/fig/svgfig.js" xmlns:xlink="http://www.w3.org/1999/xlink" /><defs><font horiz-adv-x="1229"><font-face font-family="Svg Symbol" units-per-em="2048" panose-1="5 5 1 2 1 7 6 2 5 7" ascent="2059" descent="450" alphabetic="0" /><missing-glyph d="M 103,0 l 0,1280 1024,0 0,-1280 -1024,0 z m 32,32 l 960,0 0,1216 -960,0 0,-1216 z" /><glyph unicode="" horiz-adv-x="1573" d="M 1517,0 l -567,0 24,279 q 141,59 207.5,168 66.5,109 66.5,306    0,272 -132.5,417.5 -132.5,145.5 -333.5,145.5 -194,0 -328,-147.5 -134,-147.5 -134,-401.5 0,-200 68.5,-319 68.5,-119     206.5,-169 l 25,-279 -564,0 0,279 35,0 q 3,-61 32,-83 45,-35 137,-35 l 270,0 0,70 q -210,61 -324.5,209 -114.5,148     -114.5,349 0,252 186.5,425 186.5,173 504.5,173 195,0 358.5,-73.5 163.5,-73.5 252,-214.5 88.5,-141 88.5,-310 0,-207     -121.5,-360.5 -121.5,-153.5 -317.5,-197.5 l -8,-70 275,0 q 92,0 128,28 36,28 42,90 l 38,0 0,-279 z" /></font></defs>
<g id="ewd_top"><a ewd:code="D10" ewd:figID="1" ewd:figtype="conn" style="cursor:pointer;"><path d=" M  730.88,  562.69  L  730.88,  656.18  L  798.87,  656.18  L  798.87,  562.69  L  730.88,  562.69 " style="&st5;" /><title ewd:textID="18">Door Lock Assembly (Rear LH)</title></a><a ewd:code="D11" ewd:figID="2" ewd:figtype="conn" style="cursor:pointer;"><path d=" M 1121.81,  562.69  L 1121.81,  656.18  L 1189.80,  656.18  L 1189.80,  562.69  L 1121.81,  562.69 " style="&st5;" /><title ewd:textID="19">Door Lock Assembly (Rear RH)</title></a><a ewd:code="J21" ewd:figID="3" ewd:figtype="conn" style="cursor:pointer;"><path d=" M  662.89,  656.18  L  662.89,  673.17  L  679.89,  673.17  L  679.89,  656.18  L  662.89,  656.18 " style="&st5;" /><title ewd:textID="23">Junction Connector</title></a><a ewd:code="FUSE54" ewd:figID="4" ewd:figtype="rb" style="cursor:pointer;"><path d=" M 1916.43,   78.27  L 1916.43,   35.78  L 1890.93,   35.78  L 1890.93,   78.27  L 1916.43,   78.27 " style="&st5;" /></a><a ewd:code="U1" ewd:figID="5" ewd:figtype="conn" style="cursor:pointer;"><path d=" M 1419.26,  324.73  L 1402.27,  324.73  L 1402.27,  290.74  L 1419.26,  290.74  L 1419.26,  324.73 " style="&st5;" /><title ewd:textID="29">Unlock Warning SW</title></a><a ewd:code="J29" ewd:figID="6" ewd:figtype="conn" style="cursor:pointer;"><path d=" M 1402.27,  443.71  L 1419.26,  443.71  L 1419.26,  460.71  L 1402.27,  460.71  L 1402.27,  443.71 " style="&st5;" /><title ewd:textID="23">Junction Connector</title></a><a ewd:code="P6" ewd:figID="7" ewd:figtype="conn" style="cursor:pointer;"><path d=" M   84.99,  503.20  L   84.99,  545.69  L    8.50,  545.69  L    8.50,  503.20  L   84.99,  503.20 " style="&st5;" /><title ewd:textID="27">Power Window Master SW</title></a><a ewd:code="F24" ewd:figID="8" ewd:figtype="conn" style="cursor:pointer;"><path d=" M  594.90,  452.21  L  594.90,  418.22  L  611.90,  418.22  L  611.90,  452.21  L  594.90,  452.21 " style="&st5;" /><title ewd:textID="21">Front Seat Inner Belt Assembly (Driver's Side)</title></a><a ewd:code="C10,C27" ewd:figID="9" ewd:figtype="conn" style="cursor:pointer;"><path d=" M 1606.23,  282.24  L 1606.23,  324.73  L 1657.22,  324.73  L 1657.22,  282.24  L 1606.23,  282.24 " style="&st5;" /><title ewd:textID="14">Combination Meter</title></a><a ewd:code="J32,J33,J70,J71" ewd:figID="10" ewd:figtype="conn" style="cursor:pointer;"><path d=" M  195.47,  401.22  L  195.47,  435.21  L  424.93,  435.21  L  424.93,  401.22  L  195.47,  401.22 " style="&st5;" /><title ewd:textID="23">Junction Connector</title></a><a ewd:code="J34" ewd:figID="11" ewd:figtype="conn" style="cursor:pointer;"><path d=" M   25.50,  656.18  L   25.50,  673.17  L   42.49,  673.17  L   42.49,  656.18  L   25.50,  656.18 " style="&st5;" /><title ewd:textID="23">Junction Connector</title></a><a ewd:code="J19,J20" ewd:figID="12" ewd:figtype="conn" style="cursor:pointer;"><path d=" M  849.86,  460.71  L  849.86,  494.70  L 1002.83,  494.70  L 1002.83,  460.71  L  849.86,  460.71 " style="&st5;" /><title ewd:textID="23">Junction Connector</title></a><a ewd:code="D9" ewd:figID="13" ewd:figtype="conn" style="cursor:pointer;"><path d=" M  841.36,  562.69  L  841.36,  656.18  L  951.84,  656.18  L  951.84,  562.69  L  841.36,  562.69 " style="&st5;" /><title ewd:textID="17">Door Lock Assembly (Front Passenger's Side)</title></a><a ewd:code="D4" ewd:figID="14" ewd:figtype="conn" style="cursor:pointer;"><path d=" M 1640.23,  486.20  L 1640.23,  452.21  L 1623.23,  452.21  L 1623.23,  486.20  L 1640.23,  486.20 " style="&st5;" /><title ewd:textID="15">Door Courtesy SW (Driver's Side)</title></a><a ewd:code="D8" ewd:figID="15" ewd:figtype="conn" style="cursor:pointer;"><path d=" M  101.98,  503.20  L  101.98,  596.69  L  433.43,  596.69  L  433.43,  503.20  L  101.98,  503.20 " style="&st5;" /><title ewd:textID="16">Door Lock Assembly (Driver's Side)</title></a><a ewd:code="F11" ewd:figID="16" ewd:figtype="conn" style="cursor:pointer;"><path d=" M  679.89,  418.22  L  679.89,  452.21  L  662.89,  452.21  L  662.89,  418.22  L  679.89,  418.22 " style="&st5;" /><title ewd:textID="21">Front Seat Inner Belt Assembly (Driver's Side)</title></a><a ewd:code="B9" ewd:figID="17" ewd:figtype="conn" style="cursor:pointer;"><path d=" M 1206.80,  562.69  L 1206.80,  656.18  L 1274.79,  656.18  L 1274.79,  562.69  L 1206.80,  562.69 " style="&st5;" /><title ewd:textID="13">Back Door Lock Assembly</title></a><a ewd:code="J30,J31" ewd:figID="18" ewd:figtype="conn" style="cursor:pointer;"><path d=" M    8.50,  392.72  L    8.50,  435.21  L  178.47,  435.21  L  178.47,  392.72  L    8.50,  392.72 " style="&st5;" /><title ewd:textID="23">Junction Connector</title></a><a ewd:code="FUSE3,FUSE6" ewd:figID="19" ewd:figtype="rb" style="cursor:pointer;"><path d=" M 1975.92,   78.27  L 1975.92,   35.78  L 1950.42,   35.78  L 1950.42,   78.27  L 1975.92,   78.27 " style="&st5;" /></a><a ewd:code="J62" ewd:figID="20" ewd:figtype="conn" style="cursor:pointer;"><path d=" M 1453.26,  443.71  L 1453.26,  460.71  L 1470.25,  460.71  L 1470.25,  443.71  L 1453.26,  443.71 " style="&st5;" /><title ewd:textID="23">Junction Connector</title></a><a ewd:code="J58,J59" ewd:figID="21" ewd:figtype="conn" style="cursor:pointer;"><path d=" M  569.40,  503.20  L  569.40,  537.20  L  611.90,  537.20  L  611.90,  503.20  L  569.40,  503.20 " style="&st5;" /><title ewd:textID="23">Junction Connector</title></a><a ewd:code="2" ewd:figID="22" ewd:figtype="jb" style="cursor:pointer;"><path d=" M  101.98,  154.76  L  101.98,  222.75  L  943.34,  222.75  L  943.34,  154.76  L  101.98,  154.76 " style="&st4;" /></a><a ewd:code="2" ewd:figID="23" ewd:figtype="jb" style="cursor:pointer;"><path d=" M 1325.78,  154.76  L 1325.78,  222.75  L 1419.26,  222.75  L 1419.26,  154.76  L 1325.78,  154.76 " style="&st4;" /></a><a ewd:code="2" ewd:figID="24" ewd:figtype="jb" style="cursor:pointer;"><path d=" M  101.98,  112.27  L  101.98,  154.76  L 1784.70,  154.76  L 1784.70,  112.27  L  101.98,  112.27 " style="&st4;" /></a><a ewd:code="2" ewd:figID="25" ewd:figtype="jb" style="cursor:pointer;"><path d=" M 1614.73,  154.76  L 1614.73,  222.75  L 1742.21,  222.75  L 1742.21,  188.75  L 1878.19,  188.75  L 1878.19,   35.78  L 1810.20,   35.78  L 1810.20,  154.76  L 1614.73,  154.76 " style="&st4;" /></a><a ewd:code="FUSE44" ewd:figID="26" ewd:figtype="fuse" style="cursor:pointer;"><path d=" M 1839.94,   78.27  L 1839.94,   35.78  L 1814.45,   35.78  L 1814.45,   78.27  L 1839.94,   78.27 " style="&st7;" /></a><a ewd:code="FUSE54" ewd:figID="27" ewd:figtype="fuse" style="cursor:pointer;"><path d=" M 1916.43,   78.27  L 1916.43,   35.78  L 1890.93,   35.78  L 1890.93,   78.27  L 1916.43,   78.27 " style="&st7;" /></a><a ewd:code="FUSE3,FUSE6" ewd:figID="28" ewd:figtype="fuse" style="cursor:pointer;"><path d=" M 1975.92,   78.27  L 1975.92,   35.78  L 1950.42,   35.78  L 1950.42,   78.27  L 1975.92,   78.27 " style="&st7;" /></a><a ewd:lineID="1" style="cursor:pointer;"><path d=" M   17.00,  444.28  L   17.00,  503.20 " style="stroke:#00A0C6;stroke-width: 5.10 ;&st6;" /></a><a ewd:lineID="2" style="cursor:pointer;"><path d=" M   33.99,  619.92  L   33.99,  656.18 " style="stroke:#000000;stroke-width: 5.10 ;&st6;" /><path d=" M   33.99,  619.92  L   33.99,  656.18 " style="stroke:#FFFFFF;stroke-width: 4.53 ;&st6;" /><path d=" M   33.99,  619.92  L   33.99,  656.18 " style="stroke:#000000;stroke-width: 1.13 ;&st6;" /></a><a ewd:lineID="3" style="cursor:pointer;"><path d=" M   33.99,  579.69  L   33.99,  545.69 " style="stroke:#000000;stroke-width: 5.10 ;&st6;" /><path d=" M   33.99,  579.69  L   33.99,  545.69 " style="stroke:#FFFFFF;stroke-width: 4.53 ;&st6;" /><path d=" M   33.99,  579.69  L   33.99,  545.69 " style="stroke:#000000;stroke-width: 1.13 ;&st6;" /></a><a ewd:lineID="4" style="cursor:pointer;"><path d=" M   42.49,  664.67  L   50.99,  664.67  L   59.49,  656.18  L   59.49,  639.18  L  560.91,  639.18  L  560.91,  562.69  L  569.40,  562.69  L  577.90,  554.19  L  577.90,  546.26 " style="stroke:#000000;stroke-width: 5.10 ;&st6;" /><path d=" M   42.49,  664.67  L   50.99,  664.67  L   59.49,  656.18  L   59.49,  639.18  L  560.91,  639.18  L  560.91,  562.69  L  569.40,  562.69  L  577.90,  554.19  L  577.90,  546.26 " style="stroke:#FFFFFF;stroke-width: 4.53 ;&st6;" /><path d=" M   42.49,  664.67  L   50.99,  664.67  L   59.49,  656.18  L   59.49,  639.18  L  560.91,  639.18  L  560.91,  562.69  L  569.40,  562.69  L  577.90,  554.19  L  577.90,  546.26 " style="stroke:#000000;stroke-width: 1.13 ;&st6;" /></a><a ewd:lineID="5" style="cursor:pointer;"><path d=" M   42.49,  664.67  L  654.39,  664.67  L  654.39,  477.71  L  671.39,  460.71  L  671.39,  452.21 " style="stroke:#000000;stroke-width: 5.10 ;&st6;" /><path d=" M   42.49,  664.67  L  654.39,  664.67  L  654.39,  477.71  L  671.39,  460.71  L  671.39,  452.21 " style="stroke:#FFFFFF;stroke-width: 4.53 ;&st6;" /><path d=" M   42.49,  664.67  L  654.39,  664.67  L  654.39,  477.71  L  671.39,  460.71  L  671.39,  452.21 " style="stroke:#000000;stroke-width: 1.13 ;&st6;" /></a><a ewd:lineID="6" style="cursor:pointer;"><path d=" M   50.99,  444.28  L   50.99,  503.20 " style="stroke:#00A0C6;stroke-width: 5.10 ;&st6;" /><path d=" M   50.99,  444.28  L   50.99,  503.20 " style="stroke:#FFFFFF;stroke-width: 1.13 ;&st6;" /></a><a ewd:lineID="7" style="cursor:pointer;"><path d=" M  118.98,  485.07  L  118.98,  444.28 " style="stroke:#00A0C6;stroke-width: 5.10 ;&st6;" /></a><a ewd:lineID="8" style="cursor:pointer;"><path d=" M  118.98,  383.65  L  118.98,  222.75 " style="stroke:#00A0C6;stroke-width: 5.10 ;&st6;" /></a><a ewd:lineID="9" style="cursor:pointer;"><path d=" M  169.97,  485.07  L  169.97,  444.28 " style="stroke:#00A0C6;stroke-width: 5.10 ;&st6;" /><path d=" M  169.97,  485.07  L  169.97,  444.28 " style="stroke:#FFFFFF;stroke-width: 1.13 ;&st6;" /></a><a ewd:lineID="10" style="cursor:pointer;"><path d=" M  169.97,  383.65  L  169.97,  222.75 " style="stroke:#00A0C6;stroke-width: 5.10 ;&st6;" /><path d=" M  169.97,  383.65  L  169.97,  222.75 " style="stroke:#FFFFFF;stroke-width: 1.13 ;&st6;" /></a><a ewd:lineID="11" style="cursor:pointer;"><path d=" M  203.97,  485.07  L  203.97,  453.34 " style="stroke:#00A0C6;stroke-width: 5.10 ;&st6;" /></a><a ewd:lineID="12" style="cursor:pointer;"><path d=" M  203.97,  356.46  L  203.97,  383.09 " style="stroke:#00A0C6;stroke-width: 5.10 ;&st6;" /></a><a ewd:lineID="13" style="cursor:pointer;"><path d=" M  203.97,  222.75  L  203.97,  333.23 " style="stroke:#00A0C6;stroke-width: 5.10 ;&st6;" /></a><a ewd:lineID="14" style="cursor:pointer;"><path d=" M  246.46,  392.15  L  246.46,  239.75  L 1274.79,  239.75  L 1274.79,  460.71  L 1257.79,  477.71  L 1257.79,  479.97 " style="stroke:#FF0000;stroke-width: 5.10 ;&st6;" /></a><a ewd:lineID="15" style="cursor:pointer;"><path d=" M  288.95,  383.09  L  288.95,  290.74  L  781.87,  290.74  L  781.87,  479.97 " style="stroke:#00A0C6;stroke-width: 5.10 ;&st6;" /></a><a ewd:lineID="16" style="cursor:pointer;"><path d=" M 1172.80,  479.97  L 1172.80,  477.71  L 1189.80,  460.71  L 1189.80,  273.74  L  271.95,  273.74  L  271.95,  358.73  L  288.95,  375.72  L  288.95,  383.09 " style="stroke:#00A0C6;stroke-width: 5.10 ;&st6;" /></a><a ewd:lineID="17" style="cursor:pointer;"><path d=" M  314.45,  485.07  L  314.45,  453.34 " style="stroke:#00A0C6;stroke-width: 5.10 ;&st6;" /><path d=" M  314.45,  485.07  L  314.45,  453.34 " style="stroke:#FFFFFF;stroke-width: 2.27 ;&st6;" /><path d=" M  314.45,  485.07  L  314.45,  453.34 " style="stroke:#FFE600;stroke-width: 1.13 ;&st6;" /></a><a ewd:lineID="18" style="cursor:pointer;"><path d=" M  314.45,  348.24  L  314.45,  383.09 " style="stroke:#00A0C6;stroke-width: 5.10 ;&st6;" /><path d=" M  314.45,  348.24  L  314.45,  383.09 " style="stroke:#FFFFFF;stroke-width: 2.27 ;&st6;" /><path d=" M  314.45,  348.24  L  314.45,  383.09 " style="stroke:#FFE600;stroke-width: 1.13 ;&st6;" /></a><a ewd:lineID="19" style="cursor:pointer;"><path d=" M  314.45,  222.75  L  314.45,  324.73 " style="stroke:#00A0C6;stroke-width: 5.10 ;&st6;" /><path d=" M  314.45,  222.75  L  314.45,  324.73 " style="stroke:#FFFFFF;stroke-width: 2.27 ;&st6;" /><path d=" M  314.45,  222.75  L  314.45,  324.73 " style="stroke:#FFE600;stroke-width: 1.13 ;&st6;" /></a><a ewd:lineID="20" style="cursor:pointer;"><path d=" M  356.94,  392.15  L  356.94,  256.74  L 1240.79,  256.74  L 1240.79,  460.71  L 1223.80,  477.71  L 1223.80,  479.69 " style="stroke:#FF0000;stroke-width: 5.10 ;&st6;" /><path d=" M  356.94,  392.15  L  356.94,  256.74  L 1240.79,  256.74  L 1240.79,  460.71  L 1223.80,  477.71  L 1223.80,  479.69 " style="stroke:#FFFFFF;stroke-width: 2.27 ;&st6;" /><path d=" M  356.94,  392.15  L  356.94,  256.74  L 1240.79,  256.74  L 1240.79,  460.71  L 1223.80,  477.71  L 1223.80,  479.69 " style="stroke:#FFE600;stroke-width: 1.13 ;&st6;" /></a><a ewd:lineID="21" style="cursor:pointer;"><path d=" M  399.43,  383.09  L  399.43,  324.73  L  747.88,  324.73  L  747.88,  479.69 " style="stroke:#00A0C6;stroke-width: 5.10 ;&st6;" /><path d=" M  399.43,  383.09  L  399.43,  324.73  L  747.88,  324.73  L  747.88,  479.69 " style="stroke:#FFFFFF;stroke-width: 2.27 ;&st6;" /><path d=" M  399.43,  383.09  L  399.43,  324.73  L  747.88,  324.73  L  747.88,  479.69 " style="stroke:#FFE600;stroke-width: 1.13 ;&st6;" /></a><a ewd:lineID="22" style="cursor:pointer;"><path d=" M 1138.81,  479.69  L 1138.81,  477.71  L 1155.81,  460.71  L 1155.81,  307.73  L  382.44,  307.73  L  382.44,  358.73  L  399.43,  375.72  L  399.43,  383.09 " style="stroke:#00A0C6;stroke-width: 5.10 ;&st6;" /><path d=" M 1138.81,  479.69  L 1138.81,  477.71  L 1155.81,  460.71  L 1155.81,  307.73  L  382.44,  307.73  L  382.44,  358.73  L  399.43,  375.72  L  399.43,  383.09 " style="stroke:#FFFFFF;stroke-width: 2.27 ;&st6;" /><path d=" M 1138.81,  479.69  L 1138.81,  477.71  L 1155.81,  460.71  L 1155.81,  307.73  L  382.44,  307.73  L  382.44,  358.73  L  399.43,  375.72  L  399.43,  383.09 " style="stroke:#FFE600;stroke-width: 1.13 ;&st6;" /></a><a ewd:lineID="23" style="cursor:pointer;"><path d=" M  416.43,  485.07  L  416.43,  453.34 " style="stroke:#FF0000;stroke-width: 5.10 ;&st6;" /><path d=" M  416.43,  485.07  L  416.43,  453.34 " style="stroke:#FFFFFF;stroke-width: 2.27 ;&st6;" /><path d=" M  416.43,  485.07  L  416.43,  453.34 " style="stroke:#FFE600;stroke-width: 1.13 ;&st6;" /></a><a ewd:lineID="24" style="cursor:pointer;"><path d=" M  603.40,  546.26  L  603.40,  622.18  L  637.39,  622.18  L  637.39,  358.73  L  433.43,  358.73  L  416.43,  375.72  L  416.43,  383.09 " style="stroke:#FF0000;stroke-width: 5.10 ;&st6;" /><path d=" M  603.40,  546.26  L  603.40,  622.18  L  637.39,  622.18  L  637.39,  358.73  L  433.43,  358.73  L  416.43,  375.72  L  416.43,  383.09 " style="stroke:#FFFFFF;stroke-width: 2.27 ;&st6;" /><path d=" M  603.40,  546.26  L  603.40,  622.18  L  637.39,  622.18  L  637.39,  358.73  L  433.43,  358.73  L  416.43,  375.72  L  416.43,  383.09 " style="stroke:#FFE600;stroke-width: 1.13 ;&st6;" /></a><a ewd:lineID="25" style="cursor:pointer;"><path d=" M  416.43,  383.09  L  416.43,  341.73  L  671.39,  341.73  L  671.39,  418.22 " style="stroke:#FF0000;stroke-width: 5.10 ;&st6;" /><path d=" M  416.43,  383.09  L  416.43,  341.73  L  671.39,  341.73  L  671.39,  418.22 " style="stroke:#FFFFFF;stroke-width: 2.27 ;&st6;" /><path d=" M  416.43,  383.09  L  416.43,  341.73  L  671.39,  341.73  L  671.39,  418.22 " style="stroke:#FFE600;stroke-width: 1.13 ;&st6;" /></a><a ewd:lineID="26" style="cursor:pointer;"><path d=" M  671.39,  656.18  L  671.39,  647.68  L  662.89,  639.18  L  577.90,  639.18  L  577.90,  546.26 " style="stroke:#000000;stroke-width: 5.10 ;&st6;" /><path d=" M  671.39,  656.18  L  671.39,  647.68  L  662.89,  639.18  L  577.90,  639.18  L  577.90,  546.26 " style="stroke:#FFFFFF;stroke-width: 4.53 ;&st6;" /><path d=" M  671.39,  656.18  L  671.39,  647.68  L  662.89,  639.18  L  577.90,  639.18  L  577.90,  546.26 " style="stroke:#000000;stroke-width: 1.13 ;&st6;" /></a><a ewd:lineID="27" style="cursor:pointer;"><path d=" M  577.90,  494.14  L  577.90,  392.72  L  603.40,  392.72  L  603.40,  418.22 " style="stroke:#000000;stroke-width: 5.10 ;&st6;" /><path d=" M  577.90,  494.14  L  577.90,  392.72  L  603.40,  392.72  L  603.40,  418.22 " style="stroke:#FFFFFF;stroke-width: 4.53 ;&st6;" /><path d=" M  577.90,  494.14  L  577.90,  392.72  L  603.40,  392.72  L  603.40,  418.22 " style="stroke:#000000;stroke-width: 1.13 ;&st6;" /></a><a ewd:lineID="28" style="cursor:pointer;"><path d=" M  603.40,  452.21  L  603.40,  494.14 " style="stroke:#FF0000;stroke-width: 5.10 ;&st6;" /><path d=" M  603.40,  452.21  L  603.40,  494.14 " style="stroke:#FFFFFF;stroke-width: 2.27 ;&st6;" /><path d=" M  603.40,  452.21  L  603.40,  494.14 " style="stroke:#FFE600;stroke-width: 1.13 ;&st6;" /></a><a ewd:lineID="29" style="cursor:pointer;"><path d=" M  671.39,  452.21  L  671.39,  656.18 " style="stroke:#000000;stroke-width: 5.10 ;&st6;" /><path d=" M  671.39,  452.21  L  671.39,  656.18 " style="stroke:#FFFFFF;stroke-width: 4.53 ;&st6;" /><path d=" M  671.39,  452.21  L  671.39,  656.18 " style="stroke:#000000;stroke-width: 1.13 ;&st6;" /></a><a ewd:lineID="30" style="cursor:pointer;"><path d=" M  747.88,  562.69  L  747.88,  494.70 " style="stroke:#00A0C6;stroke-width: 5.10 ;&st6;" /><path d=" M  747.88,  562.69  L  747.88,  494.70 " style="stroke:#FFFFFF;stroke-width: 2.27 ;&st6;" /><path d=" M  747.88,  562.69  L  747.88,  494.70 " style="stroke:#FFE600;stroke-width: 1.13 ;&st6;" /></a><a ewd:lineID="31" style="cursor:pointer;"><path d=" M  747.88,  479.69  L  747.88,  477.71  L  764.87,  460.71  L  764.87,  324.73  L  977.34,  324.73  L  977.34,  426.71  L  994.33,  443.71  L  994.33,  451.64 " style="stroke:#FF0000;stroke-width: 5.10 ;&st6;" /><path d=" M  747.88,  479.69  L  747.88,  477.71  L  764.87,  460.71  L  764.87,  324.73  L  977.34,  324.73  L  977.34,  426.71  L  994.33,  443.71  L  994.33,  451.64 " style="stroke:#FFFFFF;stroke-width: 2.27 ;&st6;" /><path d=" M  747.88,  479.69  L  747.88,  477.71  L  764.87,  460.71  L  764.87,  324.73  L  977.34,  324.73  L  977.34,  426.71  L  994.33,  443.71  L  994.33,  451.64 " style="stroke:#FFE600;stroke-width: 1.13 ;&st6;" /></a><a ewd:lineID="32" style="cursor:pointer;"><path d=" M  781.87,  562.69  L  781.87,  494.70 " style="stroke:#00A0C6;stroke-width: 5.10 ;&st6;" /></a><a ewd:lineID="33" style="cursor:pointer;"><path d=" M  781.87,  479.97  L  781.87,  477.71  L  798.87,  460.71  L  798.87,  426.71  L  892.35,  426.71  L  909.35,  443.71  L  909.35,  451.64 " style="stroke:#FF0000;stroke-width: 5.10 ;&st6;" /></a><a ewd:lineID="34" style="cursor:pointer;"><path d=" M  858.36,  562.69  L  858.36,  503.77 " style="stroke:#FF0000;stroke-width: 5.10 ;&st6;" /></a><a ewd:lineID="35" style="cursor:pointer;"><path d=" M  858.36,  222.75  L  858.36,  451.64 " style="stroke:#00A0C6;stroke-width: 5.10 ;&st6;" /></a><a ewd:lineID="36" style="cursor:pointer;"><path d=" M  883.85,  451.64  L  883.85,  290.74  L 1257.79,  290.74  L 1257.79,  479.97 " style="stroke:#FF0000;stroke-width: 5.10 ;&st6;" /></a><a ewd:lineID="37" style="cursor:pointer;"><path d=" M  909.35,  451.64  L  909.35,  341.73  L 1172.80,  341.73  L 1172.80,  479.97 " style="stroke:#FF0000;stroke-width: 5.10 ;&st6;" /></a><a ewd:lineID="38" style="cursor:pointer;"><path d=" M  934.84,  562.69  L  934.84,  503.77 " style="stroke:#FF0000;stroke-width: 5.10 ;&st6;" /><path d=" M  934.84,  562.69  L  934.84,  503.77 " style="stroke:#FFFFFF;stroke-width: 2.27 ;&st6;" /><path d=" M  934.84,  562.69  L  934.84,  503.77 " style="stroke:#FFE600;stroke-width: 1.13 ;&st6;" /></a><a ewd:lineID="39" style="cursor:pointer;"><path d=" M  934.84,  451.64  L  934.84,  222.75 " style="stroke:#00A0C6;stroke-width: 5.10 ;&st6;" /><path d=" M  934.84,  451.64  L  934.84,  222.75 " style="stroke:#FFFFFF;stroke-width: 2.27 ;&st6;" /><path d=" M  934.84,  451.64  L  934.84,  222.75 " style="stroke:#FFE600;stroke-width: 1.13 ;&st6;" /></a><a ewd:lineID="40" style="cursor:pointer;"><path d=" M  960.34,  451.64  L  960.34,  358.73  L 1223.80,  358.73  L 1223.80,  479.69 " style="stroke:#FF0000;stroke-width: 5.10 ;&st6;" /><path d=" M  960.34,  451.64  L  960.34,  358.73  L 1223.80,  358.73  L 1223.80,  479.69 " style="stroke:#FFFFFF;stroke-width: 2.27 ;&st6;" /><path d=" M  960.34,  451.64  L  960.34,  358.73  L 1223.80,  358.73  L 1223.80,  479.69 " style="stroke:#FFE600;stroke-width: 1.13 ;&st6;" /></a><a ewd:lineID="41" style="cursor:pointer;"><path d=" M  994.33,  451.64  L  994.33,  375.72  L 1138.81,  375.72  L 1138.81,  479.69 " style="stroke:#FF0000;stroke-width: 5.10 ;&st6;" /><path d=" M  994.33,  451.64  L  994.33,  375.72  L 1138.81,  375.72  L 1138.81,  479.69 " style="stroke:#FFFFFF;stroke-width: 2.27 ;&st6;" /><path d=" M  994.33,  451.64  L  994.33,  375.72  L 1138.81,  375.72  L 1138.81,  479.69 " style="stroke:#FFE600;stroke-width: 1.13 ;&st6;" /></a><a ewd:lineID="42" style="cursor:pointer;"><path d=" M 1138.81,  562.69  L 1138.81,  494.70 " style="stroke:#00A0C6;stroke-width: 5.10 ;&st6;" /><path d=" M 1138.81,  562.69  L 1138.81,  494.70 " style="stroke:#FFFFFF;stroke-width: 2.27 ;&st6;" /><path d=" M 1138.81,  562.69  L 1138.81,  494.70 " style="stroke:#FFE600;stroke-width: 1.13 ;&st6;" /></a><a ewd:lineID="43" style="cursor:pointer;"><path d=" M 1172.80,  562.69  L 1172.80,  494.70 " style="stroke:#00A0C6;stroke-width: 5.10 ;&st6;" /></a><a ewd:lineID="44" style="cursor:pointer;"><path d=" M 1223.80,  562.69  L 1223.80,  494.70 " style="stroke:#FF0000;stroke-width: 5.10 ;&st6;" /><path d=" M 1223.80,  562.69  L 1223.80,  494.70 " style="stroke:#FFFFFF;stroke-width: 2.27 ;&st6;" /><path d=" M 1223.80,  562.69  L 1223.80,  494.70 " style="stroke:#FFE600;stroke-width: 1.13 ;&st6;" /></a><a ewd:lineID="45" style="cursor:pointer;"><path d=" M 1257.79,  562.69  L 1257.79,  494.70 " style="stroke:#FF0000;stroke-width: 5.10 ;&st6;" /></a><a ewd:lineID="46" style="cursor:pointer;"><path d=" M 1342.78,  222.75  L 1342.78,  681.67 " style="stroke:#000000;stroke-width: 5.10 ;&st6;" /><path d=" M 1342.78,  222.75  L 1342.78,  681.67 " style="stroke:#FFFFFF;stroke-width: 4.53 ;&st6;" /><path d=" M 1342.78,  222.75  L 1342.78,  681.67 " style="stroke:#000000;stroke-width: 1.13 ;&st6;" /></a><a ewd:lineID="47" style="cursor:pointer;"><path d=" M 1376.77,  681.67  L 1376.77,  222.75 " style="stroke:#000000;stroke-width: 5.10 ;&st6;" /><path d=" M 1376.77,  681.67  L 1376.77,  222.75 " style="stroke:#FFFFFF;stroke-width: 4.53 ;&st6;" /><path d=" M 1376.77,  681.67  L 1376.77,  222.75 " style="stroke:#000000;stroke-width: 1.13 ;&st6;" /></a><a ewd:lineID="48" style="cursor:pointer;"><path d=" M 1410.76,  460.71  L 1410.76,  681.67 " style="stroke:#000000;stroke-width: 5.10 ;&st6;" /><path d=" M 1410.76,  460.71  L 1410.76,  681.67 " style="stroke:#FFFFFF;stroke-width: 4.53 ;&st6;" /><path d=" M 1410.76,  460.71  L 1410.76,  681.67 " style="stroke:#000000;stroke-width: 1.13 ;&st6;" /></a><a ewd:lineID="49" style="cursor:pointer;"><path d=" M 1410.76,  324.73  L 1410.76,  443.71 " style="stroke:#999999;stroke-width: 5.10 ;&st6;" /></a><a ewd:lineID="50" style="cursor:pointer;"><path d=" M 1410.76,  324.73  L 1410.76,  333.23  L 1419.26,  341.73  L 1461.76,  341.73  L 1461.76,  443.71 " style="stroke:#999999;stroke-width: 5.10 ;&st6;" /></a><a ewd:lineID="51" style="cursor:pointer;"><path d=" M 1410.76,  222.75  L 1410.76,  290.74 " style="stroke:#008837;stroke-width: 5.10 ;&st6;" /><path d=" M 1410.76,  222.75  L 1410.76,  290.74 " style="stroke:#FFFFFF;stroke-width: 2.27 ;&st6;" /><path d=" M 1410.76,  222.75  L 1410.76,  290.74 " style="stroke:#FFE600;stroke-width: 1.13 ;&st6;" /></a><a ewd:lineID="52" style="cursor:pointer;"><path d=" M 1461.76,  460.71  L 1461.76,  681.67 " style="stroke:#000000;stroke-width: 5.10 ;&st6;" /><path d=" M 1461.76,  460.71  L 1461.76,  681.67 " style="stroke:#FFFFFF;stroke-width: 4.53 ;&st6;" /><path d=" M 1461.76,  460.71  L 1461.76,  681.67 " style="stroke:#000000;stroke-width: 1.13 ;&st6;" /></a><a ewd:lineID="53" style="cursor:pointer;"><path d=" M 1631.73,  390.74  L 1631.73,  392.72  L 1623.23,  401.22  L 1606.23,  401.22  L 1606.23,  435.21  L 1623.23,  435.21  L 1631.73,  443.71  L 1631.73,  452.21 " style="stroke:#FF0000;stroke-width: 5.10 ;&st6;" /><path d=" M 1631.73,  390.74  L 1631.73,  392.72  L 1623.23,  401.22  L 1606.23,  401.22  L 1606.23,  435.21  L 1623.23,  435.21  L 1631.73,  443.71  L 1631.73,  452.21 " style="stroke:#FFFFFF;stroke-width: 2.27 ;&st6;" /><path d=" M 1631.73,  390.74  L 1631.73,  392.72  L 1623.23,  401.22  L 1606.23,  401.22  L 1606.23,  435.21  L 1623.23,  435.21  L 1631.73,  443.71  L 1631.73,  452.21 " style="stroke:#000000;stroke-width: 1.13 ;&st6;" /></a><a ewd:lineID="54" style="cursor:pointer;"><path d=" M 1631.73,  452.21  L 1631.73,  390.74 " style="stroke:#FF0000;stroke-width: 5.10 ;&st6;" /><path d=" M 1631.73,  452.21  L 1631.73,  390.74 " style="stroke:#FFFFFF;stroke-width: 2.27 ;&st6;" /><path d=" M 1631.73,  452.21  L 1631.73,  390.74 " style="stroke:#00A0C6;stroke-width: 1.13 ;&st6;" /></a><a ewd:lineID="55" style="cursor:pointer;"><path d=" M 1631.73,  367.22  L 1631.73,  342.86 " style="stroke:#FF0000;stroke-width: 5.10 ;&st6;" /><path d=" M 1631.73,  367.22  L 1631.73,  342.86 " style="stroke:#FFFFFF;stroke-width: 2.27 ;&st6;" /><path d=" M 1631.73,  367.22  L 1631.73,  342.86 " style="stroke:#000000;stroke-width: 1.13 ;&st6;" /></a><a ewd:lineID="56" style="cursor:pointer;"><path d=" M 1631.73,  222.75  L 1631.73,  264.11 " style="stroke:#FF0000;stroke-width: 5.10 ;&st6;" /><path d=" M 1631.73,  222.75  L 1631.73,  264.11 " style="stroke:#FFFFFF;stroke-width: 2.27 ;&st6;" /><path d=" M 1631.73,  222.75  L 1631.73,  264.11 " style="stroke:#000000;stroke-width: 1.13 ;&st6;" /></a><a ewd:lineID="57" style="cursor:pointer;"><path d=" M 1963.17,  103.77  L 1963.17,  290.74  L 1699.72,  290.74  L 1699.72,  222.75 " style="stroke:#00A0C6;stroke-width: 5.10 ;&st6;" /></a><a ewd:lineID="58" style="cursor:pointer;"><path d=" M 1903.68,  103.77  L 1903.68,  265.24  L 1733.71,  265.24  L 1733.71,  222.75 " style="stroke:#7FC97F;stroke-width: 5.10 ;&st6;" /></a><a ewd:code="BB1" ewd:figID="29" ewd:figtype="w2w" ewd:pinNo="5" style="cursor:pointer;"><path d=" M  756.37,  486.20  L  739.38,  486.20  L  739.38,  494.70  L  756.37,  494.70  L  756.37,  486.20 " style="&st2;" /><text style="&st8;" transform="matrix(&st16;  741.29  492.95 )"><tspan style="&st18;" x="0" y="0">BB1</tspan></text></a><a ewd:code="BB1" ewd:figID="30" ewd:figtype="w2w" ewd:pinNo="4" style="cursor:pointer;"><path d=" M  790.37,  486.20  L  773.37,  486.20  L  773.37,  494.70  L  790.37,  494.70  L  790.37,  486.20 " style="&st2;" /><text style="&st8;" transform="matrix(&st16;  775.29  492.95 )"><tspan style="&st18;" x="0" y="0">BB1</tspan></text></a><a ewd:code="IL1" ewd:figID="31" ewd:figtype="w2w" ewd:pinNo="4" style="cursor:pointer;"><path d=" M   42.49,  588.19  L   25.50,  588.19  L   25.50,  596.69  L   42.49,  596.69  L   42.49,  588.19 " style="&st2;" /><text style="&st8;" transform="matrix(&st16;  29.2  594.93 )"><tspan style="&st18;" x="0" y="0">IL1</tspan></text></a><a ewd:code="IC3" ewd:figID="32" ewd:figtype="w2w" ewd:pinNo="5" style="cursor:pointer;"><path d=" M   42.49,  596.69  L   25.50,  596.69  L   25.50,  605.18  L   42.49,  605.18  L   42.49,  596.69 " style="&st2;" /><text style="&st8;" transform="matrix(&st16;  28.27  603.43 )"><tspan style="&st18;" x="0" y="0">IC3</tspan></text></a><a ewd:code="IC2" ewd:figID="33" ewd:figtype="w2w" ewd:pinNo="4" style="cursor:pointer;"><path d=" M   42.49,  579.69  L   25.50,  579.69  L   25.50,  588.19  L   42.49,  588.19  L   42.49,  579.69 " style="&st2;" /><text style="&st8;" transform="matrix(&st16;  28.27  586.43 )"><tspan style="&st18;" x="0" y="0">IC2</tspan></text></a><a ewd:code="IL3" ewd:figID="34" ewd:figtype="w2w" ewd:pinNo="5" style="cursor:pointer;"><path d=" M   42.49,  605.18  L   25.50,  605.18  L   25.50,  613.68  L   42.49,  613.68  L   42.49,  605.18 " style="&st2;" /><text style="&st8;" transform="matrix(&st16;  28.79  611.93 )"><tspan style="&st18;" x="0" y="0">IL3</tspan></text></a><a ewd:code="IA1" ewd:figID="35" ewd:figtype="w2w" ewd:pinNo="3" style="cursor:pointer;"><path d=" M 1640.23,  367.22  L 1623.23,  367.22  L 1623.23,  375.72  L 1640.23,  375.72  L 1640.23,  367.22 " style="&st2;" /><text style="&st8;" transform="matrix(&st16;  1626.56  373.97 )"><tspan style="&st18;" x="0" y="0">IA1</tspan></text></a><a ewd:code="BC1" ewd:figID="36" ewd:figtype="w2w" ewd:pinNo="5" style="cursor:pointer;"><path d=" M 1147.31,  486.20  L 1130.31,  486.20  L 1130.31,  494.70  L 1147.31,  494.70  L 1147.31,  486.20 " style="&st2;" /><text style="&st8;" transform="matrix(&st16;  1132.08  492.95 )"><tspan style="&st18;" x="0" y="0">BC1</tspan></text></a><a ewd:code="BC1" ewd:figID="37" ewd:figtype="w2w" ewd:pinNo="4" style="cursor:pointer;"><path d=" M 1181.30,  486.20  L 1164.31,  486.20  L 1164.31,  494.70  L 1181.30,  494.70  L 1181.30,  486.20 " style="&st2;" /><text style="&st8;" transform="matrix(&st16;  1166.07  492.95 )"><tspan style="&st18;" x="0" y="0">BC1</tspan></text></a><a ewd:code="BD1" ewd:figID="38" ewd:figtype="w2w" ewd:pinNo="8" style="cursor:pointer;"><path d=" M 1232.29,  486.20  L 1215.30,  486.20  L 1215.30,  494.70  L 1232.29,  494.70  L 1232.29,  486.20 " style="&st2;" /><text style="&st8;" transform="matrix(&st16;  1217.07  492.95 )"><tspan style="&st18;" x="0" y="0">BD1</tspan></text></a><a ewd:code="BD1" ewd:figID="39" ewd:figtype="w2w" ewd:pinNo="9" style="cursor:pointer;"><path d=" M 1266.29,  486.20  L 1249.29,  486.20  L 1249.29,  494.70  L 1266.29,  494.70  L 1266.29,  486.20 " style="&st2;" /><text style="&st8;" transform="matrix(&st16;  1251.06  492.95 )"><tspan style="&st18;" x="0" y="0">BD1</tspan></text></a><a ewd:code="IK1" ewd:figID="40" ewd:figtype="w2w" ewd:pinNo="1" style="cursor:pointer;"><path d=" M  212.46,  333.23  L  195.47,  333.23  L  195.47,  341.73  L  212.46,  341.73  L  212.46,  333.23 " style="&st2;" /><text style="&st8;" transform="matrix(&st16;  198.8  339.97 )"><tspan style="&st18;" x="0" y="0">IK1</tspan></text></a><a ewd:code="IK1" ewd:figID="41" ewd:figtype="w2w" ewd:pinNo="3" style="cursor:pointer;"><path d=" M  212.46,  341.73  L  195.47,  341.73  L  195.47,  350.23  L  212.46,  350.23  L  212.46,  341.73 " style="&st2;" /><text style="&st8;" transform="matrix(&st16;  198.8  348.47 )"><tspan style="&st18;" x="0" y="0">IK1</tspan></text></a><a ewd:code="IK1" ewd:figID="42" ewd:figtype="w2w" ewd:pinNo="2" style="cursor:pointer;"><path d=" M  322.95,  324.73  L  305.95,  324.73  L  305.95,  333.23  L  322.95,  333.23  L  322.95,  324.73 " style="&st2;" /><text style="&st8;" transform="matrix(&st16;  309.28  331.47 )"><tspan style="&st18;" x="0" y="0">IK1</tspan></text></a><a ewd:code="IK1" ewd:figID="43" ewd:figtype="w2w" ewd:pinNo="8" style="cursor:pointer;"><path d=" M  322.95,  333.23  L  305.95,  333.23  L  305.95,  341.73  L  322.95,  341.73  L  322.95,  333.23 " style="&st2;" /><text style="&st8;" transform="matrix(&st16;  309.28  339.97 )"><tspan style="&st18;" x="0" y="0">IK1</tspan></text></a><a ewd:code="IA1" ewd:figID="44" ewd:figtype="w2w" ewd:pinNo="4" style="cursor:pointer;"><path d=" M 1640.23,  375.72  L 1623.23,  375.72  L 1623.23,  384.22  L 1640.23,  384.22  L 1640.23,  375.72 " style="&st2;" /><text style="&st8;" transform="matrix(&st16;  1626.56  382.47 )"><tspan style="&st18;" x="0" y="0">IA1</tspan></text></a><a ewd:code="IH" ewd:figID="45" ewd:figtype="gp" style="cursor:pointer;"><path d=" M 1451.13,  681.67  L 1472.38,  681.67  L 1461.76,  697.25  L 1451.13,  681.67 " style="&st2;" /><text style="&st8;" transform="matrix(&st16;  1458.11  689.83 )"><tspan style="&st18;" x="0" y="0">IH</tspan></text></a><a ewd:code="II" ewd:figID="46" ewd:figtype="gp" style="cursor:pointer;"><path d=" M   23.37,  681.67  L   44.62,  681.67  L   33.99,  697.25  L   23.37,  681.67 " style="&st2;" /><text style="&st8;" transform="matrix(&st16;  31.91  689.83 )"><tspan style="&st18;" x="0" y="0">II</tspan></text></a><a ewd:code="IG" ewd:figID="47" ewd:figtype="gp" style="cursor:pointer;"><path d=" M 1400.14,  681.67  L 1421.39,  681.67  L 1410.76,  697.25  L 1400.14,  681.67 " style="&st2;" /><text style="&st8;" transform="matrix(&st16;  1406.82  689.83 )"><tspan style="&st18;" x="0" y="0">IG</tspan></text></a><a ewd:code="IH" ewd:figID="48" ewd:figtype="gp" style="cursor:pointer;"><path d=" M 1366.15,  681.67  L 1387.39,  681.67  L 1376.77,  697.25  L 1366.15,  681.67 " style="&st2;" /><text style="&st8;" transform="matrix(&st16;  1373.13  689.83 )"><tspan style="&st18;" x="0" y="0">IH</tspan></text></a><a ewd:code="IG" ewd:figID="49" ewd:figtype="gp" style="cursor:pointer;"><path d=" M 1332.15,  681.67  L 1353.40,  681.67  L 1342.78,  697.25  L 1332.15,  681.67 " style="&st2;" /><text style="&st8;" transform="matrix(&st16;  1338.83  689.83 )"><tspan style="&st18;" x="0" y="0">IG</tspan></text></a><a ewd:code="IF" ewd:figID="50" ewd:figtype="gp" style="cursor:pointer;"><path d=" M  660.76,  681.67  L  682.01,  681.67  L  671.39,  697.25  L  660.76,  681.67 " style="&st2;" /><text style="&st8;" transform="matrix(&st16;  668.12  689.83 )"><tspan style="&st18;" x="0" y="0">IF</tspan></text></a></g></svg>