﻿<?xml version="1.0" encoding="utf-8"?>
<!DOCTYPE svg PUBLIC "-//W3C//DTD SVG 1.0//EN" "http://www.w3.org/TR/2001/REC-SVG-20010904/DTD/svg10.dtd"[
	<!ENTITY ns_flows "http://ns.adobe.com/Flows/1.0/">
	<!ENTITY ns_svg "http://www.w3.org/2000/svg">
	<!ENTITY ns_xlink "http://www.w3.org/1999/xlink">
	<!ENTITY st0 "font-size:7px;font-family:'MS-PGothic';adobe-font-script:japanese;">
	<!ENTITY st1 "font-size:6px;font-family:'ArialMT';">
	<!-- White fill  -->
	<!ENTITY st2 "fill:#FFFFFF;stroke:#000000; stroke-width:1.41;stroke-linecap:round;stroke-linejoin:round;">
	<!-- Yellow fill  -->
	<!ENTITY st3 "fill:#FFFFCC;stroke:#FFFFCC; stroke-width:0.1;stroke-linecap:round;stroke-linejoin:round;">
	<!-- Gray fill  -->
	<!ENTITY st4 "fill:#CCCCCC;stroke:#CCCCCC; stroke-width:0.1;stroke-linecap:round;stroke-linejoin:round;">
	<!-- Light-blue fill -->
	<!ENTITY st5 "fill:#CCECF4;stroke:#000000; stroke-width:1.133;stroke-linecap:round;stroke-linejoin:round;">
	<!ENTITY st6 "fill:none;stroke-linecap:butt; stroke-linejoin:round;">
	<!ENTITY st7 "fill:none;stroke:#000000;stroke-linecap:round;stroke-linejoin:round;">
	<!ENTITY st8 "enable-background:new    ;">
	<!-- Black fill -->
	<!ENTITY st9 "fill:#000000;stroke:#000000; stroke-linecap:round;stroke-linejoin:round;">
	<!-- SRS note   -->
	<!ENTITY st10 "font-size:9px;font-family:'ArialMT';">
	<!ENTITY st11 "font-size:9px;font-family:'Svg Symbol';">
	<!ENTITY st12 "font-size:6px;font-family:'Svg Symbol';">
	<!ENTITY st13 "fill:none;stroke:#ff0000;stroke-linecap:round;stroke-linejoin:round;">
	<!-- Yellow fill  -->
	<!ENTITY st14 "fill:#FFFF00;stroke:#FFFF00; stroke-width:0.1;stroke-linecap:round;stroke-linejoin:round;">
	<!ENTITY st15 "font-size:6px;font-family:'MS-PGothic';adobe-font-script:japanese;">
	<!ENTITY st16 "1.00 0.00 0.00 1.00">
	<!ENTITY st17 "0.00 -1.00 1.00 0.00">
	<!ENTITY st18 "font-size:6px;font-family:'Arial';">
	<!ENTITY st19 "font-size:9px;font-family:'Arial';">
	<!ENTITY st20 "font-size:6px;font-family:'MS-PGothic','MS PGothic';adobe-font-script:japanese;">
	<!ENTITY st21 "font-size:7px;font-family:'MS-PGothic','MS PGothic';adobe-font-script:japanese;">
	<!ATTLIST svg
		xmlns:ewd CDATA #FIXED "http://shcl.co.jp/ewd"
		xmlns:a CDATA #FIXED "http://ns.adobe.com/AdobeSVGViewerExtensions/3.0/"
		ewd:ver CDATA #IMPLIED
	>
	<!ATTLIST a
		ewd:lineID CDATA #IMPLIED
		ewd:groupID CDATA #IMPLIED
		ewd:figtype CDATA #IMPLIED
		ewd:code CDATA #IMPLIED
		ewd:figID CDATA #IMPLIED
		ewd:pinNo CDATA #IMPLIED
		ewd:comment CDATA #IMPLIED >
	<!ATTLIST g
		ewd:lineID CDATA #IMPLIED
		ewd:groupID CDATA #IMPLIED
		ewd:figtype CDATA #IMPLIED
		ewd:code CDATA #IMPLIED
		ewd:figID CDATA #IMPLIED
		ewd:pinNo CDATA #IMPLIED
		ewd:comment CDATA #IMPLIED >
	<!ATTLIST text
		ewd:textID CDATA #IMPLIED >
	<!ATTLIST title
		ewd:textID CDATA #IMPLIED >
]>
<!-- Generator: Shintec Hozumi YS   -->
<svg onload="call_execInitLoadProc_svg('system')" style="overflow:visible;  enable-background:new 0 0 7244.162 710.000" viewBox="0 0 7244.162 710.000" height="710.000" width="7244.162" xml:space="preserve" ewd:ver="L2.1.2.7" xmlns="&ns_svg;" xmlns:a="http://ns.adobe.com/AdobeSVGViewerExtensions/3.0/" xmlns:ewd="http://shcl.co.jp/ewd" xmlns:xlink="&ns_xlink;">
<path d=" M 6008.50,  328.98  L 6008.50,  324.73 " style="stroke-width: 0.85 ;&st7; " /><path d=" M 6008.50,  358.73  L 6008.50,  354.48 " style="stroke-width: 0.85 ;&st7; " /><path d=" M 6008.50,  331.81  L 6010.19,  355.93 " style="stroke-width: 1.42 ;&st7; " /><path d=" M 6297.45,  171.76  L 6305.95,  171.76 " style="stroke-width: 1.42 ;&st7; " /><path d=" M 6000.00,  239.75  L 6008.50,  239.75 " style="stroke-width: 1.42 ;&st7; " /><path d=" M 6000.00,  154.76  L 6008.50,  154.76 " style="stroke-width: 1.42 ;&st7; " /><path d=" M 6433.43,  188.75  L 6433.43,  184.50 " style="stroke-width: 0.85 ;&st7; " /><path d=" M 6433.43,  159.01  L 6433.43,  154.76 " style="stroke-width: 0.85 ;&st7; " /><path d=" M 6433.43,  181.67  L 6435.12,  157.56 " style="stroke-width: 1.42 ;&st7; " /><path d=" M 6401.56,  112.27  L 6397.31,  112.27 " style="stroke-width: 1.42 ;&st7; " /><path d=" M 6401.56,  103.77  L 6397.31,  103.77 " style="stroke-width: 1.42 ;&st7; " /><path d=" M 6433.43,   69.77  L 6433.43,  103.77 " style="stroke-width: 0.85 ;&st7; " /><path d=" M 6435.55,  103.77  L 6431.30,  103.77 " style="stroke-width: 1.42 ;&st7; " /><path d=" M 6435.55,  112.27  L 6431.30,  112.27 " style="stroke-width: 1.42 ;&st7; " /><path d=" M 6484.42,  181.67  L 6478.75,  159.01 " style="stroke-width: 1.42 ;&st7; " /><path d=" M 6484.42,  188.75  L 6484.42,  184.50 " style="stroke-width: 0.85 ;&st7; " /><path d=" M 6484.42,  159.01  L 6484.42,  154.76 " style="stroke-width: 0.85 ;&st7; " /><path d=" M 6486.54,  282.24  L 6482.29,  282.24 " style="stroke-width: 1.42 ;&st7; " /><path d=" M 6486.54,  103.77  L 6482.29,  103.77 " style="stroke-width: 1.42 ;&st7; " /><path d=" M 6486.54,  248.24  L 6482.29,  248.24 " style="stroke-width: 1.42 ;&st7; " /><path d=" M 6486.54,  239.75  L 6482.29,  239.75 " style="stroke-width: 1.42 ;&st7; " /><path d=" M 6486.54,  273.74  L 6482.29,  273.74 " style="stroke-width: 1.42 ;&st7; " /><path d=" M 6484.42,   69.77  L 6484.42,  103.77 " style="stroke-width: 0.85 ;&st7; " /><path d=" M 6486.54,  112.27  L 6482.29,  112.27 " style="stroke-width: 1.42 ;&st7; " /><path d=" M 6432.23,   85.77  L 6431.96,   86.24  L 6431.86,   86.77  L 6431.96,   87.30  L 6432.23,   87.77  L 6432.64,   88.12  L 6433.15,   88.31  L 6433.69,   88.31  L 6434.20,   88.12  L 6434.61,   87.77  L 6434.89,   87.30  L 6434.98,   86.77  L 6434.89,   86.24  L 6434.61,   85.77  L 6434.20,   85.42  L 6433.69,   85.24  L 6433.15,   85.24  L 6432.64,   85.42  L 6432.23,   85.77  L 6432.62,   86.48  L 6432.62,   87.06  L 6433.00,   87.51  L 6433.57,   87.61  L 6434.07,   87.32  L 6434.27,   86.77  L 6434.07,   86.22  L 6433.57,   85.94  L 6433.00,   86.03  L 6433.42,   86.77 " style="stroke-width: 0.85 ;&st7; " /><path d=" M 6433.42,   86.77  L 6399.43,   86.77  L 6399.43,  103.77 " style="stroke-width: 0.85 ;&st7; " /><path d=" M 6446.17,   78.27  L 6446.17,   35.78  L 6420.67,   35.78  L 6420.67,   78.27  L 6446.17,   78.27 " style="stroke-width: 1.42 ;&st7; " /><path d=" M 6433.42,   98.87  L 6430.59,   96.04  L 6430.59,  100.29  L 6433.42,  103.12  L 6436.26,  100.29  L 6436.26,   96.04  L 6433.42,   98.87 " style="stroke-width: 0.28 ;&st9;" /><path d=" M 6399.43,   98.87  L 6396.60,   96.04  L 6396.60,  100.29  L 6399.43,  103.12  L 6402.26,  100.29  L 6402.26,   96.04  L 6399.43,   98.87 " style="stroke-width: 0.28 ;&st9;" /><path d=" M 6492.91,  188.75  L 6492.91,  154.76  L 6424.92,  154.76  L 6424.92,  188.75  L 6492.91,  188.75 " style="stroke-width: 1.42 ;&st7; " /><path d=" M 6481.94,  171.76  L 6434.12,  171.76 " style="stroke-width: 0.85 ;&st7;stroke-dasharray:3, 1.5;" /><path d=" M 6484.41,  268.84  L 6481.58,  266.01  L 6481.58,  270.26  L 6484.41,  273.09  L 6487.25,  270.26  L 6487.25,  266.01  L 6484.41,  268.84 " style="stroke-width: 0.28 ;&st9;" /><path d=" M 6484.41,   98.87  L 6481.58,   96.04  L 6481.58,  100.29  L 6484.41,  103.12  L 6487.25,  100.29  L 6487.25,   96.04  L 6484.41,   98.87 " style="stroke-width: 0.28 ;&st9;" /><path d=" M 6484.41,  253.14  L 6487.25,  255.97  L 6487.25,  251.72  L 6484.41,  248.89  L 6481.58,  251.72  L 6481.58,  255.97  L 6484.41,  253.14 " style="stroke-width: 0.28 ;&st9;" /><path d=" M 6484.41,  273.74  L 6484.41,  248.24 " style="stroke-width: 0.85 ;&st7; " /><path d=" M 6497.16,   78.27  L 6497.16,   35.78  L 6471.67,   35.78  L 6471.67,   78.27  L 6497.16,   78.27 " style="stroke-width: 1.42 ;&st7; " /><path d=" M 6310.19,  166.09  L 6305.94,  170.34  L 6301.69,  166.09 " style="stroke-width: 1.42 ;&st7; " /><path d=" M 6301.69,  162.69  L 6305.94,  166.94  L 6310.19,  162.69 " style="stroke-width: 1.42 ;&st7; " /><path d=" M 6131.72,  197.25  L 6157.22,  197.25 " style="stroke-width: 1.13 ;&st7;stroke-dasharray:3, 1.5;" /><path d=" M 6131.72,  188.75  L 6157.22,  188.75 " style="stroke-width: 1.13 ;&st7;stroke-dasharray:3, 1.5;" /><path d=" M 6144.47,  180.26  L 6144.47,  205.75 " style="stroke-width: 0.85 ;&st7; " /><path d=" M 6131.72,  180.26  L 6131.72,  205.75  L 6157.22,  205.75  L 6157.22,  180.26  L 6131.72,  180.26 " style="stroke-width: 1.42 ;&st7; " /><path d=" M 6101.98,  265.24  L 6101.98,  316.23  L 6152.97,  316.23  L 6152.97,  265.24  L 6101.98,  265.24 " style="stroke-width: 1.42 ;&st7; " /><path d=" M 6135.97,  316.23  L 6135.97,  265.24 " style="stroke-width: 0.85 ;&st7; " /><path d=" M 6118.98,  316.23  L 6118.98,  265.24 " style="stroke-width: 0.85 ;&st7; " /><path d=" M 6101.98,  299.24  L 6152.97,  299.24 " style="stroke-width: 0.85 ;&st7; " /><path d=" M 6128.89,  290.74  L 6143.05,  290.74 " style="stroke-width: 0.85 ;&st7; " /><path d=" M 6128.89,  307.73  L 6143.05,  307.73 " style="stroke-width: 0.85 ;&st7; " /><path d=" M 6101.98,  282.24  L 6152.97,  282.24 " style="stroke-width: 0.85 ;&st7; " /><path d=" M 6012.74,  234.08  L 6008.49,  238.33  L 6004.24,  234.08 " style="stroke-width: 1.42 ;&st7; " /><path d=" M 6004.24,  230.68  L 6008.49,  234.93  L 6012.74,  230.68 " style="stroke-width: 1.42 ;&st7; " /><path d=" M 6012.74,  149.09  L 6008.49,  153.34  L 6004.24,  149.09 " style="stroke-width: 1.42 ;&st7; " /><path d=" M 6004.24,  145.69  L 6008.49,  149.94  L 6012.74,  145.69 " style="stroke-width: 1.42 ;&st7; " /><path d=" M 6149.01,  175.72  C 6149.01   173.22  6146.98   171.19  6144.47   171.19 " style="stroke-width: 1.42 ;&st7; " /><path d=" M 6144.47,  171.19  C 6141.97   171.19  6139.94   173.22  6139.94   175.72 " style="stroke-width: 1.42 ;&st7; " /><path d=" M 6139.94,  175.72  C 6139.94   178.23  6141.97   180.26  6144.47   180.26 " style="stroke-width: 1.42 ;&st7; " /><path d=" M 6144.47,  180.26  C 6146.98   180.26  6149.01   178.23  6149.01   175.72 " style="stroke-width: 1.42 ;&st7; " /><path d=" M 6482.29,  239.75  C 6479.95   239.75  6478.04   241.65  6478.04   243.99 " style="stroke-width: 1.42 ;&st7; " /><path d=" M 6478.04,  243.99  C 6478.04   246.34  6479.95   248.24  6482.29   248.24 " style="stroke-width: 1.42 ;&st7; " /><path d=" M 6485.83,  160.43  C 6485.83   159.64  6485.20   159.01  6484.42   159.01 " style="stroke-width: 0.85 ;&st7; " /><path d=" M 6484.42,  159.01  C 6483.63   159.01  6483.00   159.64  6483.00   160.43 " style="stroke-width: 0.85 ;&st7; " /><path d=" M 6483.00,  160.43  C 6483.00   161.21  6483.63   161.84  6484.42   161.84 " style="stroke-width: 0.85 ;&st7; " /><path d=" M 6484.42,  161.84  C 6485.20   161.84  6485.83   161.21  6485.83   160.43 " style="stroke-width: 0.85 ;&st7; " /><path d=" M 6484.42,   66.94  C 6487.15    65.33  6488.07    61.80  6486.45    59.06 " style="stroke-width: 1.42 ;&st7; " /><path d=" M 6486.45,   59.06  C 6485.93    58.18  6485.30    57.55  6484.42    57.03 " style="stroke-width: 1.42 ;&st7; " /><path d=" M 6485.83,   45.69  C 6485.83    44.91  6485.20    44.28  6484.42    44.28 " style="stroke-width: 0.85 ;&st7; " /><path d=" M 6484.42,   44.28  C 6483.63    44.28  6483.00    44.91  6483.00    45.69 " style="stroke-width: 0.85 ;&st7; " /><path d=" M 6483.00,   45.69  C 6483.00    46.48  6483.63    47.11  6484.42    47.11 " style="stroke-width: 0.85 ;&st7; " /><path d=" M 6484.42,   47.11  C 6485.20    47.11  6485.83    46.48  6485.83    45.69 " style="stroke-width: 0.85 ;&st7; " /><path d=" M 6486.54,  112.27  C 6488.89   112.27  6490.79   110.36  6490.79   108.02 " style="stroke-width: 1.42 ;&st7; " /><path d=" M 6486.54,  248.24  C 6488.89   248.24  6490.79   246.34  6490.79   243.99 " style="stroke-width: 1.42 ;&st7; " /><path d=" M 6478.04,  108.02  C 6478.04   110.36  6479.95   112.27  6482.29   112.27 " style="stroke-width: 1.42 ;&st7; " /><path d=" M 6482.29,  103.77  C 6479.95   103.77  6478.04   105.67  6478.04   108.02 " style="stroke-width: 1.42 ;&st7; " /><path d=" M 6484.42,   47.11  C 6481.68    48.72  6480.77    52.25  6482.38    54.99 " style="stroke-width: 1.42 ;&st7; " /><path d=" M 6482.38,   54.99  C 6482.90    55.87  6483.53    56.51  6484.42    57.03 " style="stroke-width: 1.42 ;&st7; " /><path d=" M 6485.83,   68.36  C 6485.83    67.57  6485.20    66.94  6484.42    66.94 " style="stroke-width: 0.85 ;&st7; " /><path d=" M 6484.42,   66.94  C 6483.63    66.94  6483.00    67.57  6483.00    68.36 " style="stroke-width: 0.85 ;&st7; " /><path d=" M 6483.00,   68.36  C 6483.00    69.14  6483.63    69.77  6484.42    69.77 " style="stroke-width: 0.85 ;&st7; " /><path d=" M 6484.42,   69.77  C 6485.20    69.77  6485.83    69.14  6485.83    68.36 " style="stroke-width: 0.85 ;&st7; " /><path d=" M 6490.79,  108.02  C 6490.79   105.67  6488.89   103.77  6486.54   103.77 " style="stroke-width: 1.42 ;&st7; " /><path d=" M 6434.84,  183.09  C 6434.84   182.31  6434.21   181.67  6433.43   181.67 " style="stroke-width: 0.85 ;&st7; " /><path d=" M 6433.43,  181.67  C 6432.64   181.67  6432.01   182.31  6432.01   183.09 " style="stroke-width: 0.85 ;&st7; " /><path d=" M 6432.01,  183.09  C 6432.01   183.87  6432.64   184.50  6433.43   184.50 " style="stroke-width: 0.85 ;&st7; " /><path d=" M 6433.43,  184.50  C 6434.21   184.50  6434.84   183.87  6434.84   183.09 " style="stroke-width: 0.85 ;&st7; " /><path d=" M 6434.84,  160.43  C 6434.84   159.64  6434.21   159.01  6433.43   159.01 " style="stroke-width: 0.85 ;&st7; " /><path d=" M 6433.43,  159.01  C 6432.64   159.01  6432.01   159.64  6432.01   160.43 " style="stroke-width: 0.85 ;&st7; " /><path d=" M 6432.01,  160.43  C 6432.01   161.21  6432.64   161.84  6433.43   161.84 " style="stroke-width: 0.85 ;&st7; " /><path d=" M 6433.43,  161.84  C 6434.21   161.84  6434.84   161.21  6434.84   160.43 " style="stroke-width: 0.85 ;&st7; " /><path d=" M 6405.80,  108.02  C 6405.80   105.67  6403.90   103.77  6401.56   103.77 " style="stroke-width: 1.42 ;&st7; " /><path d=" M 6401.56,  112.27  C 6403.90   112.27  6405.80   110.36  6405.80   108.02 " style="stroke-width: 1.42 ;&st7; " /><path d=" M 6393.06,  108.02  C 6393.06   110.36  6394.96   112.27  6397.31   112.27 " style="stroke-width: 1.42 ;&st7; " /><path d=" M 6397.31,  103.77  C 6394.96   103.77  6393.06   105.67  6393.06   108.02 " style="stroke-width: 1.42 ;&st7; " /><path d=" M 6433.43,   47.11  C 6430.69    48.72  6429.78    52.25  6431.39    54.99 " style="stroke-width: 1.42 ;&st7; " /><path d=" M 6431.39,   54.99  C 6431.91    55.87  6432.54    56.51  6433.43    57.03 " style="stroke-width: 1.42 ;&st7; " /><path d=" M 6433.43,   66.94  C 6436.16    65.33  6437.07    61.80  6435.46    59.06 " style="stroke-width: 1.42 ;&st7; " /><path d=" M 6435.46,   59.06  C 6434.94    58.18  6434.31    57.55  6433.43    57.03 " style="stroke-width: 1.42 ;&st7; " /><path d=" M 6434.84,   45.69  C 6434.84    44.91  6434.21    44.28  6433.43    44.28 " style="stroke-width: 0.85 ;&st7; " /><path d=" M 6433.43,   44.28  C 6432.64    44.28  6432.01    44.91  6432.01    45.69 " style="stroke-width: 0.85 ;&st7; " /><path d=" M 6432.01,   45.69  C 6432.01    46.48  6432.64    47.11  6433.43    47.11 " style="stroke-width: 0.85 ;&st7; " /><path d=" M 6433.43,   47.11  C 6434.21    47.11  6434.84    46.48  6434.84    45.69 " style="stroke-width: 0.85 ;&st7; " /><path d=" M 6434.84,   68.36  C 6434.84    67.57  6434.21    66.94  6433.43    66.94 " style="stroke-width: 0.85 ;&st7; " /><path d=" M 6433.43,   66.94  C 6432.64    66.94  6432.01    67.57  6432.01    68.36 " style="stroke-width: 0.85 ;&st7; " /><path d=" M 6432.01,   68.36  C 6432.01    69.14  6432.64    69.77  6433.43    69.77 " style="stroke-width: 0.85 ;&st7; " /><path d=" M 6433.43,   69.77  C 6434.21    69.77  6434.84    69.14  6434.84    68.36 " style="stroke-width: 0.85 ;&st7; " /><path d=" M 6431.30,  103.77  C 6428.95   103.77  6427.05   105.67  6427.05   108.02 " style="stroke-width: 1.42 ;&st7; " /><path d=" M 6427.05,  108.02  C 6427.05   110.36  6428.95   112.27  6431.30   112.27 " style="stroke-width: 1.42 ;&st7; " /><path d=" M 6267.99,   91.30  C 6267.99    88.80  6265.96    86.77  6263.45    86.77 " style="stroke-width: 1.42 ;&st7; " /><path d=" M 6263.45,   86.77  C 6260.95    86.77  6258.92    88.80  6258.92    91.30 " style="stroke-width: 1.42 ;&st7; " /><path d=" M 6258.92,   91.30  C 6258.92    93.81  6260.95    95.84  6263.45    95.84 " style="stroke-width: 1.42 ;&st7; " /><path d=" M 6263.45,   95.84  C 6265.96    95.84  6267.99    93.81  6267.99    91.30 " style="stroke-width: 1.42 ;&st7; " /><path d=" M 6344.47,   91.30  C 6344.47    88.80  6342.44    86.77  6339.94    86.77 " style="stroke-width: 1.42 ;&st7; " /><path d=" M 6339.94,   86.77  C 6337.44    86.77  6335.41    88.80  6335.41    91.30 " style="stroke-width: 1.42 ;&st7; " /><path d=" M 6335.41,   91.30  C 6335.41    93.81  6337.44    95.84  6339.94    95.84 " style="stroke-width: 1.42 ;&st7; " /><path d=" M 6339.94,   95.84  C 6342.44    95.84  6344.47    93.81  6344.47    91.30 " style="stroke-width: 1.42 ;&st7; " /><path d=" M 6435.55,  112.27  C 6437.90   112.27  6439.80   110.36  6439.80   108.02 " style="stroke-width: 1.42 ;&st7; " /><path d=" M 6439.80,  108.02  C 6439.80   105.67  6437.90   103.77  6435.55   103.77 " style="stroke-width: 1.42 ;&st7; " /><path d=" M 6310.48,   91.30  C 6310.48    88.80  6308.45    86.77  6305.95    86.77 " style="stroke-width: 1.42 ;&st7; " /><path d=" M 6305.95,   86.77  C 6303.44    86.77  6301.41    88.80  6301.41    91.30 " style="stroke-width: 1.42 ;&st7; " /><path d=" M 6301.41,   91.30  C 6301.41    93.81  6303.44    95.84  6305.95    95.84 " style="stroke-width: 1.42 ;&st7; " /><path d=" M 6305.95,   95.84  C 6308.45    95.84  6310.48    93.81  6310.48    91.30 " style="stroke-width: 1.42 ;&st7; " /><path d=" M 6149.01,   91.30  C 6149.01    88.80  6146.98    86.77  6144.47    86.77 " style="stroke-width: 1.42 ;&st7; " /><path d=" M 6144.47,   86.77  C 6141.97    86.77  6139.94    88.80  6139.94    91.30 " style="stroke-width: 1.42 ;&st7; " /><path d=" M 6139.94,   91.30  C 6139.94    93.81  6141.97    95.84  6144.47    95.84 " style="stroke-width: 1.42 ;&st7; " /><path d=" M 6144.47,   95.84  C 6146.98    95.84  6149.01    93.81  6149.01    91.30 " style="stroke-width: 1.42 ;&st7; " /><path d=" M 6486.54,  282.24  C 6488.89   282.24  6490.79   280.34  6490.79   277.99 " style="stroke-width: 1.42 ;&st7; " /><path d=" M 6485.83,  183.09  C 6485.83   182.31  6485.20   181.67  6484.42   181.67 " style="stroke-width: 0.85 ;&st7; " /><path d=" M 6484.42,  181.67  C 6483.63   181.67  6483.00   182.31  6483.00   183.09 " style="stroke-width: 0.85 ;&st7; " /><path d=" M 6483.00,  183.09  C 6483.00   183.87  6483.63   184.50  6484.42   184.50 " style="stroke-width: 0.85 ;&st7; " /><path d=" M 6484.42,  184.50  C 6485.20   184.50  6485.83   183.87  6485.83   183.09 " style="stroke-width: 0.85 ;&st7; " /><path d=" M 6490.79,  277.99  C 6490.79   275.64  6488.89   273.74  6486.54   273.74 " style="stroke-width: 1.42 ;&st7; " /><path d=" M 6490.79,  243.99  C 6490.79   241.65  6488.89   239.75  6486.54   239.75 " style="stroke-width: 1.42 ;&st7; " /><path d=" M 6482.29,  273.74  C 6479.95   273.74  6478.04   275.64  6478.04   277.99 " style="stroke-width: 1.42 ;&st7; " /><path d=" M 6478.04,  277.99  C 6478.04   280.34  6479.95   282.24  6482.29   282.24 " style="stroke-width: 1.42 ;&st7; " /><path d=" M 6009.91,  330.40  C 6009.91   329.61  6009.28   328.98  6008.50   328.98 " style="stroke-width: 0.85 ;&st7; " /><path d=" M 6008.50,  328.98  C 6007.71   328.98  6007.08   329.61  6007.08   330.40 " style="stroke-width: 0.85 ;&st7; " /><path d=" M 6007.08,  330.40  C 6007.08   331.18  6007.71   331.81  6008.50   331.81 " style="stroke-width: 0.85 ;&st7; " /><path d=" M 6008.50,  331.81  C 6009.28   331.81  6009.91   331.18  6009.91   330.40 " style="stroke-width: 0.85 ;&st7; " /><path d=" M 6009.91,  353.06  C 6009.91   352.28  6009.28   351.64  6008.50   351.64 " style="stroke-width: 0.85 ;&st7; " /><path d=" M 6008.50,  351.64  C 6007.71   351.64  6007.08   352.28  6007.08   353.06 " style="stroke-width: 0.85 ;&st7; " /><path d=" M 6007.08,  353.06  C 6007.08   353.84  6007.71   354.48  6008.50   354.48 " style="stroke-width: 0.85 ;&st7; " /><path d=" M 6008.50,  354.48  C 6009.28   354.48  6009.91   353.84  6009.91   353.06 " style="stroke-width: 0.85 ;&st7; " /><path d=" M 6013.03,   91.30  C 6013.03    88.80  6011.00    86.77  6008.50    86.77 " style="stroke-width: 1.42 ;&st7; " /><path d=" M 6008.50,   86.77  C 6005.99    86.77  6003.96    88.80  6003.96    91.30 " style="stroke-width: 1.42 ;&st7; " /><path d=" M 6003.96,   91.30  C 6003.96    93.81  6005.99    95.84  6008.50    95.84 " style="stroke-width: 1.42 ;&st7; " /><path d=" M 6008.50,   95.84  C 6011.00    95.84  6013.03    93.81  6013.03    91.30 " style="stroke-width: 1.42 ;&st7; " /><path d=" M 6149.01,  210.28  C 6149.01   207.78  6146.98   205.75  6144.47   205.75 " style="stroke-width: 1.42 ;&st7; " /><path d=" M 6144.47,  205.75  C 6141.97   205.75  6139.94   207.78  6139.94   210.28 " style="stroke-width: 1.42 ;&st7; " /><path d=" M 6139.94,  210.28  C 6139.94   212.79  6141.97   214.82  6144.47   214.82 " style="stroke-width: 1.42 ;&st7; " /><path d=" M 6144.47,  214.82  C 6146.98   214.82  6149.01   212.79  6149.01   210.28 " style="stroke-width: 1.42 ;&st7; " /><path d=" M 6128.89,  290.74  C 6128.89   289.95  6128.26   289.32  6127.48   289.32 " style="stroke-width: 0.85 ;&st7; " /><path d=" M 6127.48,  289.32  C 6126.69   289.32  6126.06   289.95  6126.06   290.74 " style="stroke-width: 0.85 ;&st7; " /><path d=" M 6126.06,  290.74  C 6126.06   291.52  6126.69   292.15  6127.48   292.15 " style="stroke-width: 0.85 ;&st7; " /><path d=" M 6127.48,  292.15  C 6128.26   292.15  6128.89   291.52  6128.89   290.74 " style="stroke-width: 0.85 ;&st7; " /><path d=" M 6145.89,  290.74  C 6145.89   289.95  6145.26   289.32  6144.47   289.32 " style="stroke-width: 0.85 ;&st7; " /><path d=" M 6144.47,  289.32  C 6143.69   289.32  6143.06   289.95  6143.06   290.74 " style="stroke-width: 0.85 ;&st7; " /><path d=" M 6143.06,  290.74  C 6143.06   291.52  6143.69   292.15  6144.47   292.15 " style="stroke-width: 0.85 ;&st7; " /><path d=" M 6144.47,  292.15  C 6145.26   292.15  6145.89   291.52  6145.89   290.74 " style="stroke-width: 0.85 ;&st7; " /><path d=" M 6128.89,  307.73  C 6128.89   306.95  6128.26   306.32  6127.48   306.32 " style="stroke-width: 0.85 ;&st7; " /><path d=" M 6127.48,  306.32  C 6126.69   306.32  6126.06   306.95  6126.06   307.73 " style="stroke-width: 0.85 ;&st7; " /><path d=" M 6126.06,  307.73  C 6126.06   308.52  6126.69   309.15  6127.48   309.15 " style="stroke-width: 0.85 ;&st7; " /><path d=" M 6127.48,  309.15  C 6128.26   309.15  6128.89   308.52  6128.89   307.73 " style="stroke-width: 0.85 ;&st7; " /><path d=" M 6145.89,  307.73  C 6145.89   306.95  6145.26   306.32  6144.47   306.32 " style="stroke-width: 0.85 ;&st7; " /><path d=" M 6144.47,  306.32  C 6143.69   306.32  6143.06   306.95  6143.06   307.73 " style="stroke-width: 0.85 ;&st7; " /><path d=" M 6143.06,  307.73  C 6143.06   308.52  6143.69   309.15  6144.47   309.15 " style="stroke-width: 0.85 ;&st7; " /><path d=" M 6144.47,  309.15  C 6145.26   309.15  6145.89   308.52  6145.89   307.73 " style="stroke-width: 0.85 ;&st7; " /><path d=" M 6055.52,   91.30  C 6055.52    88.80  6053.49    86.77  6050.99    86.77 " style="stroke-width: 1.42 ;&st7; " /><path d=" M 6050.99,   86.77  C 6048.49    86.77  6046.46    88.80  6046.46    91.30 " style="stroke-width: 1.42 ;&st7; " /><path d=" M 6046.46,   91.30  C 6046.46    93.81  6048.49    95.84  6050.99    95.84 " style="stroke-width: 1.42 ;&st7; " /><path d=" M 6050.99,   95.84  C 6053.49    95.84  6055.52    93.81  6055.52    91.30 " style="stroke-width: 1.42 ;&st7; " /><path d=" M 6149.01,  166.66  C 6149.01   164.15  6146.98   162.12  6144.47   162.12 " style="stroke-width: 1.42 ;&st7; " /><path d=" M 6144.47,  162.12  C 6141.97   162.12  6139.94   164.15  6139.94   166.66 " style="stroke-width: 1.42 ;&st7; " /><path d=" M 6139.94,  166.66  C 6139.94   169.16  6141.97   171.19  6144.47   171.19 " style="stroke-width: 1.42 ;&st7; " /><path d=" M 6144.47,  171.19  C 6146.98   171.19  6149.01   169.16  6149.01   166.66 " style="stroke-width: 1.42 ;&st7; " /><path d=" M 6149.01,  260.71  C 6149.01   258.21  6146.98   256.18  6144.47   256.18 " style="stroke-width: 1.42 ;&st7; " /><path d=" M 6144.47,  256.18  C 6141.97   256.18  6139.94   258.21  6139.94   260.71 " style="stroke-width: 1.42 ;&st7; " /><path d=" M 6139.94,  260.71  C 6139.94   263.21  6141.97   265.24  6144.47   265.24 " style="stroke-width: 1.42 ;&st7; " /><path d=" M 6144.47,  265.24  C 6146.98   265.24  6149.01   263.21  6149.01   260.71 " style="stroke-width: 1.42 ;&st7; " /><path d=" M 6149.01,  251.64  C 6149.01   249.14  6146.98   247.11  6144.47   247.11 " style="stroke-width: 1.42 ;&st7; " /><path d=" M 6144.47,  247.11  C 6141.97   247.11  6139.94   249.14  6139.94   251.64 " style="stroke-width: 1.42 ;&st7; " /><path d=" M 6139.94,  251.64  C 6139.94   254.15  6141.97   256.18  6144.47   256.18 " style="stroke-width: 1.42 ;&st7; " /><path d=" M 6144.47,  256.18  C 6146.98   256.18  6149.01   254.15  6149.01   251.64 " style="stroke-width: 1.42 ;&st7; " /><path d=" M 6132.01,  329.83  C 6132.01   327.33  6129.98   325.30  6127.48   325.30 " style="stroke-width: 1.42 ;&st7; " /><path d=" M 6127.48,  325.30  C 6124.97   325.30  6122.94   327.33  6122.94   329.83 " style="stroke-width: 1.42 ;&st7; " /><path d=" M 6122.94,  329.83  C 6122.94   332.33  6124.97   334.36  6127.48   334.36 " style="stroke-width: 1.42 ;&st7; " /><path d=" M 6127.48,  334.36  C 6129.98   334.36  6132.01   332.33  6132.01   329.83 " style="stroke-width: 1.42 ;&st7; " /><path d=" M 6132.01,  320.77  C 6132.01   318.26  6129.98   316.23  6127.48   316.23 " style="stroke-width: 1.42 ;&st7; " /><path d=" M 6127.48,  316.23  C 6124.97   316.23  6122.94   318.26  6122.94   320.77 " style="stroke-width: 1.42 ;&st7; " /><path d=" M 6122.94,  320.77  C 6122.94   323.27  6124.97   325.30  6127.48   325.30 " style="stroke-width: 1.42 ;&st7; " /><path d=" M 6127.48,  325.30  C 6129.98   325.30  6132.01   323.27  6132.01   320.77 " style="stroke-width: 1.42 ;&st7; " /><text ewd:textID="28" style="&st18;" transform="matrix(&st16;  6252.43  32.08 )">Engine ECU</text><text style="&st18;" transform="matrix(&st16;  6252.43  24.98 )">E 4(A),E 5(B),E 6(C),E 7(D)</text><text style="&st18;" transform="matrix(&st17;  6259.76  137.39 )">G-W</text><text style="&st18;" transform="matrix(&st16;  6249.4  93.27 )">15</text><text style="&st18;" transform="matrix(&st16;  6256.67  83.07 )">STP</text><text style="&st18;" transform="matrix(&st16;  6261.12  93.27 )">B</text><text style="&st18;" transform="matrix(&st16;  6303.62  93.27 )">B</text><text style="&st18;" transform="matrix(&st16;  6297.89  83.07 )">ST1-</text><text style="&st18;" transform="matrix(&st17;  6336.25  136.36 )">B-O</text><text style="&st18;" transform="matrix(&st17;  6302.25  229.21 )">R-L</text><text style="&st18;" transform="matrix(&st16;  6238.65  374.86 )">(A/T)</text><text style="&st18;" transform="matrix(&st16;  6240.13  363.53 )">L-Y</text><text style="&st18;" transform="matrix(&st16;  6187.66  374.86 )">(A/T)</text><text style="&st18;" transform="matrix(&st16;  6189.14  363.53 )">L-Y</text><text style="&st18;" transform="matrix(&st16;  6238.08  400.35 )">(M/T)</text><text style="&st18;" transform="matrix(&st16;  6240.13  389.02 )">L-Y</text><text style="&st18;" transform="matrix(&st16;  6187.09  400.35 )">(M/T)</text><text style="&st18;" transform="matrix(&st16;  6189.14  389.02 )">L-Y</text><text style="&st18;" transform="matrix(&st16;  6238.65  425.85 )">(A/T)</text><text style="&st18;" transform="matrix(&st16;  6240.13  414.52 )">L-Y</text><text style="&st18;" transform="matrix(&st16;  6187.66  425.85 )">(A/T)</text><text style="&st18;" transform="matrix(&st16;  6189.14  414.52 )">L-Y</text><text style="&st18;" transform="matrix(&st16;  6238.08  451.35 )">(M/T)</text><text style="&st18;" transform="matrix(&st16;  6243.7  440.01 )">G</text><text style="&st18;" transform="matrix(&st16;  6187.09  451.35 )">(M/T)</text><text style="&st18;" transform="matrix(&st16;  6192.71  440.01 )">G</text><text style="&st18;" transform="matrix(&st16;  6240.27  476.84 )">(*6)</text><text style="&st18;" transform="matrix(&st16;  6239.64  465.51 )">R-B</text><text style="&st18;" transform="matrix(&st16;  6189.28  476.84 )">(*6)</text><text style="&st18;" transform="matrix(&st16;  6188.65  465.51 )">R-B</text><text style="&st18;" transform="matrix(&st16;  6240.27  502.34 )">(*7)</text><text style="&st18;" transform="matrix(&st16;  6239.64  491.01 )">R-B</text><text style="&st18;" transform="matrix(&st16;  6189.28  502.34 )">(*7)</text><text style="&st18;" transform="matrix(&st16;  6188.65  491.01 )">R-B</text><text style="&st18;" transform="matrix(&st16;  6188.65  516.5 )">Y-R</text><text style="&st18;" transform="matrix(&st16;  6239.64  516.5 )">Y-R</text><text style="&st18;" transform="matrix(&st16;  6239.64  542.0 )">V-R</text><text style="&st18;" transform="matrix(&st16;  6188.65  542.0 )">V-R</text><text style="&st18;" transform="matrix(&st16;  6188.37  567.49 )">G-B</text><text style="&st18;" transform="matrix(&st16;  6239.36  567.49 )">G-B</text><text style="&st18;" transform="matrix(&st16;  6244.13  618.48 )">P</text><text style="&st18;" transform="matrix(&st16;  6193.13  618.48 )">P</text><text style="&st18;" transform="matrix(&st16;  6238.76  592.99 )">B-W</text><text style="&st18;" transform="matrix(&st16;  6187.76  592.99 )">B-W</text><text style="&st18;" transform="matrix(&st16;  6329.06  93.27 )">9</text><text style="&st18;" transform="matrix(&st17;  6016.13  409.59 )">(M/T)</text><text style="&st18;" transform="matrix(&st17;  6016.13  299.11 )">(M/T)</text><text style="&st18;" transform="matrix(&st17;  6004.8  298.86 )">G-W</text><text style="&st18;" transform="matrix(&st17;  6004.8  213.87 )">G-W</text><text style="&st18;" transform="matrix(&st17;  6016.13  214.12 )">(M/T)</text><text style="&st18;" transform="matrix(&st17;  6024.61  361.25 )">C26</text><text ewd:textID="23" style="&st18;" transform="matrix(&st17;  6031.71  361.25 )">Clutch Switch <tspan dy="6" x="0">Assembly</tspan></text><text style="&st18;" transform="matrix(&st17;  6302.25  135.73 )">R-L</text><text style="&st18;" transform="matrix(&st16;  6001.71  321.04 )">2</text><text style="&st18;" transform="matrix(&st16;  6002.48  366.92 )">1</text><text style="&st18;" transform="matrix(&st17;  6081.29  135.59 )">L-Y</text><text style="&st18;" transform="matrix(&st16;  6478.4  196.95 )">1</text><text style="&st18;" transform="matrix(&st16;  6477.62  151.07 )">2</text><text style="&st18;" transform="matrix(&st16;  6480.32  109.99 )">2F</text><text style="&st18;" transform="matrix(&st16;  6471.73  109.99 )">2</text><text style="&st18;" transform="matrix(&st16;  6291.89  93.27 )">14</text><text style="&st18;" transform="matrix(&st16;  6150.45  168.63 )">(*12)</text><text style="&st18;" transform="matrix(&st16;  6130.42  168.63 )">12</text><text style="&st18;" transform="matrix(&st16;  6142.14  168.63 )">B</text><text ewd:textID="40" style="&st18;" transform="matrix(&st17;  6122.08  208.28 )">Junction <tspan dy="6" x="-0.01">Connector</tspan></text><text style="&st18;" transform="matrix(&st17;  6114.97  208.28 )">J17(A),J18(B),J68(C)</text><text style="&st18;" transform="matrix(&st16;  6150.45  177.69 )">(*13)</text><text style="&st18;" transform="matrix(&st16;  6479.54  245.96 )">2M</text><text style="&st18;" transform="matrix(&st17;  6480.72  222.37 )">G-W</text><text style="&st18;" transform="matrix(&st17;  6480.72  136.36 )">G-B</text><text style="&st18;" transform="matrix(&st16;  6468.55  279.96 )">21</text><text style="&st18;" transform="matrix(&st16;  6471.73  245.96 )">5</text><text style="&st18;" transform="matrix(&st16;  6480.11  279.96 )">2S</text><text style="&st18;" transform="matrix(&st16;  6496.06  165.2 )">S14</text><text style="&st18;" transform="matrix(&st17;  6140.78  135.94 )">B-Y</text><text style="&st18;" transform="matrix(&st16;  6142.14  93.27 )">A</text><text style="&st18;" transform="matrix(&st17;  6480.72  307.36 )">G-W</text><text style="&st18;" transform="matrix(&st16;  6426.63  151.07 )">3</text><text style="&st18;" transform="matrix(&st16;  6426.64  196.95 )">4</text><text style="&st18;" transform="matrix(&st17;  6429.73  220.71 )">R-L</text><text style="&st18;" transform="matrix(&st16;  6137.69  83.07 )">STA</text><text style="&st18;" transform="matrix(&st16;  6133.6  93.27 )">7</text><text style="&st18;" transform="matrix(&st16;  6395.12  109.99 )">2S</text><text style="&st18;" transform="matrix(&st16;  6382.78  109.99 )">22</text><text style="&st18;" transform="matrix(&st17;  6429.73  136.36 )">B-O</text><text style="&st18;" transform="matrix(&st17;  6395.74  136.36 )">B-O</text><text style="&st18;" transform="matrix(&st16;  6420.74  109.99 )">6</text><text style="&st18;" transform="matrix(&st16;  6428.55  109.99 )">2M</text><text style="&st18;" transform="matrix(&st16;  6401.5  56.17 )">7.5A <tspan dy="6" x="0">IGN</tspan></text><text ewd:textID="45" style="&st18;" transform="matrix(&st16;  6496.06  172.31 )">Stop <tspan dy="6" x="0">Lamp SW</tspan></text><text style="&st18;" transform="matrix(&st16;  6475.3  32.08 )">(BAT)</text><text style="&st18;" transform="matrix(&st16;  6427.35  32.08 )">(IG)</text><text style="&st18;" transform="matrix(&st17;  6092.62  137.63 )">(M/T)</text><text style="&st18;" transform="matrix(&st17;  6016.13  137.63 )">(M/T)</text><text style="&st18;" transform="matrix(&st16;  6006.16  93.27 )">B</text><text style="&st18;" transform="matrix(&st17;  6004.8  137.39 )">G-W</text><text style="&st18;" transform="matrix(&st17;  6135.11  353.78 )">(A/T)</text><text style="&st18;" transform="matrix(&st17;  6123.78  352.3 )">L-Y</text><text style="&st18;" transform="matrix(&st16;  6330.51  83.07 )">IGSW</text><text style="&st18;" transform="matrix(&st16;  6337.61  93.27 )">A</text><text style="&st18;" transform="matrix(&st16;  6315.86  186.47 )">(*7)</text><text style="&st18;" transform="matrix(&st16;  6315.86  177.98 )">(*6)</text><text style="&st18;" transform="matrix(&st16;  6287.95  186.47 )">19</text><text style="&st18;" transform="matrix(&st16;  6291.13  177.98 )">4</text><text style="&st18;" transform="matrix(&st16;  6130.45  177.69 )">12</text><text style="&st18;" transform="matrix(&st16;  6142.0  177.69 )">C</text><text style="&st18;" transform="matrix(&st16;  6133.63  212.25 )">8</text><text style="&st18;" transform="matrix(&st16;  6142.14  212.25 )">A</text><text style="&st18;" transform="matrix(&st17;  6152.11  137.07 )">(A/T)</text><text style="&st18;" transform="matrix(&st17;  6004.8  403.97 )">G</text><text style="&st18;" transform="matrix(&st16;  6108.14  292.71 )">P</text><text style="&st18;" transform="matrix(&st16;  6108.01  309.7 )">N</text><text style="&st18;" transform="matrix(&st16;  6125.14  275.71 )">B</text><text style="&st18;" transform="matrix(&st16;  6142.49  275.71 )">L</text><text style="&st18;" transform="matrix(&st17;  6047.29  135.59 )">L-Y</text><text style="&st18;" transform="matrix(&st17;  6140.78  237.92 )">B-Y</text><text style="&st18;" transform="matrix(&st17;  6152.11  239.05 )">(A/T)</text><text style="&st18;" transform="matrix(&st17;  6160.58  318.76 )">N 1(A),N 4(B)</text><text ewd:textID="42" style="&st18;" transform="matrix(&st17;  6167.69  318.76 )">Park/Neutral <tspan dy="6" x="0">Position SW</tspan></text><text style="&st18;" transform="matrix(&st16;  6048.66  93.27 )">A</text><text style="&st18;" transform="matrix(&st16;  6042.83  83.07 )">NSW</text><text style="&st18;" transform="matrix(&st16;  6040.11  93.27 )">6</text><text style="&st18;" transform="matrix(&st17;  6058.63  137.07 )">(A/T)</text><text style="&st18;" transform="matrix(&st16;  6018.41  254.46 )">(*7)</text><text style="&st18;" transform="matrix(&st16;  6018.41  245.96 )">(*6)</text><text style="&st18;" transform="matrix(&st16;  6150.45  262.68 )">(*15)</text><text style="&st18;" transform="matrix(&st16;  6142.14  262.68 )">B</text><text style="&st18;" transform="matrix(&st16;  6133.6  262.68 )">5</text><text style="&st18;" transform="matrix(&st16;  6150.45  253.61 )">(*14)</text><text style="&st18;" transform="matrix(&st16;  6142.14  253.61 )">A</text><text style="&st18;" transform="matrix(&st16;  6133.6  253.61 )">5</text><text style="&st18;" transform="matrix(&st16;  6133.45  331.8 )">(*15)</text><text style="&st18;" transform="matrix(&st16;  6125.14  331.8 )">B</text><text style="&st18;" transform="matrix(&st16;  6116.6  331.8 )">4</text><text style="&st18;" transform="matrix(&st16;  6133.45  322.73 )">(*14)</text><text style="&st18;" transform="matrix(&st16;  6125.14  322.73 )">A</text><text style="&st18;" transform="matrix(&st16;  6116.6  322.73 )">4</text><text style="&st18;" transform="matrix(&st16;  6018.41  169.48 )">(*20)</text><text style="&st18;" transform="matrix(&st16;  6018.41  160.98 )">(*6)</text><text style="&st18;" transform="matrix(&st16;  6018.41  177.98 )">(*22)</text></svg>