﻿<?xml version="1.0" encoding="utf-8"?>
<!DOCTYPE svg PUBLIC "-//W3C//DTD SVG 1.0//EN" "http://www.w3.org/TR/2001/REC-SVG-20010904/DTD/svg10.dtd"[
	<!ENTITY ns_flows "http://ns.adobe.com/Flows/1.0/">
	<!ENTITY ns_svg "http://www.w3.org/2000/svg">
	<!ENTITY ns_xlink "http://www.w3.org/1999/xlink">
	<!ENTITY st0 "font-size:7px;font-family:'MS-PGothic';adobe-font-script:japanese;">
	<!ENTITY st1 "font-size:6px;font-family:'ArialMT';">
	<!-- White fill  -->
	<!ENTITY st2 "fill:#FFFFFF;stroke:#000000; stroke-width:1.41;stroke-linecap:round;stroke-linejoin:round;">
	<!-- Yellow fill  -->
	<!ENTITY st3 "fill:#FFFFCC;stroke:#FFFFCC; stroke-width:0.1;stroke-linecap:round;stroke-linejoin:round;">
	<!-- Gray fill  -->
	<!ENTITY st4 "fill:#CCCCCC;stroke:#CCCCCC; stroke-width:0.1;stroke-linecap:round;stroke-linejoin:round;">
	<!-- Light-blue fill -->
	<!ENTITY st5 "fill:#CCECF4;stroke:#000000; stroke-width:1.133;stroke-linecap:round;stroke-linejoin:round;">
	<!ENTITY st6 "fill:none;stroke-linecap:butt; stroke-linejoin:round;">
	<!ENTITY st7 "fill:none;stroke:#000000;stroke-linecap:round;stroke-linejoin:round;">
	<!ENTITY st8 "enable-background:new    ;">
	<!-- Black fill -->
	<!ENTITY st9 "fill:#000000;stroke:#000000; stroke-linecap:round;stroke-linejoin:round;">
	<!-- SRS note   -->
	<!ENTITY st10 "font-size:9px;font-family:'ArialMT';">
	<!ENTITY st11 "font-size:9px;font-family:'Svg Symbol';">
	<!ENTITY st12 "font-size:6px;font-family:'Svg Symbol';">
	<!ENTITY st13 "fill:none;stroke:#ff0000;stroke-linecap:round;stroke-linejoin:round;">
	<!-- Yellow fill  -->
	<!ENTITY st14 "fill:#FFFF00;stroke:#FFFF00; stroke-width:0.1;stroke-linecap:round;stroke-linejoin:round;">
	<!ENTITY st15 "font-size:6px;font-family:'MS-PGothic';adobe-font-script:japanese;">
	<!ENTITY st16 "1.00 0.00 0.00 1.00">
	<!ENTITY st17 "0.00 -1.00 1.00 0.00">
	<!ENTITY st18 "font-size:6px;font-family:'Arial';">
	<!ENTITY st19 "font-size:9px;font-family:'Arial';">
	<!ENTITY st20 "font-size:6px;font-family:'MS-PGothic','MS PGothic';adobe-font-script:japanese;">
	<!ENTITY st21 "font-size:7px;font-family:'MS-PGothic','MS PGothic';adobe-font-script:japanese;">
	<!ATTLIST svg
		xmlns:ewd CDATA #FIXED "http://shcl.co.jp/ewd"
		xmlns:a CDATA #FIXED "http://ns.adobe.com/AdobeSVGViewerExtensions/3.0/"
		ewd:ver CDATA #IMPLIED
	>
	<!ATTLIST a
		ewd:lineID CDATA #IMPLIED
		ewd:groupID CDATA #IMPLIED
		ewd:figtype CDATA #IMPLIED
		ewd:code CDATA #IMPLIED
		ewd:figID CDATA #IMPLIED
		ewd:pinNo CDATA #IMPLIED
		ewd:comment CDATA #IMPLIED >
	<!ATTLIST g
		ewd:lineID CDATA #IMPLIED
		ewd:groupID CDATA #IMPLIED
		ewd:figtype CDATA #IMPLIED
		ewd:code CDATA #IMPLIED
		ewd:figID CDATA #IMPLIED
		ewd:pinNo CDATA #IMPLIED
		ewd:comment CDATA #IMPLIED >
	<!ATTLIST text
		ewd:textID CDATA #IMPLIED >
	<!ATTLIST title
		ewd:textID CDATA #IMPLIED >
]>
<!-- Generator: Shintec Hozumi YS   -->
<svg onload="call_execInitLoadProc_svg('system')" style="overflow:visible;  enable-background:new 0 0 4139.517 710.000" viewBox="0 0 4139.517 710.000" height="710.000" width="4139.517" xml:space="preserve" ewd:ver="L2.1.2.7" xmlns="&ns_svg;" xmlns:a="http://ns.adobe.com/AdobeSVGViewerExtensions/3.0/" xmlns:ewd="http://shcl.co.jp/ewd" xmlns:xlink="&ns_xlink;">
<path d=" M 2396.60,   86.77  L 2464.59,   86.77 " style="stroke:#000000;stroke-width: 0.85 ;&st7;stroke-dasharray:3, 1.5;" /><path d=" M 2252.12,  537.20  L 2184.14,  537.20 " style="stroke:#000000;stroke-width: 0.85 ;&st7;stroke-dasharray:3, 1.5;" /><path d=" M 2430.59,  231.25  L 2430.59,  235.50 " style="stroke-width: 1.42 ;&st7; " /><path d=" M 2430.59,  180.26  L 2430.59,  184.50 " style="stroke-width: 1.42 ;&st7; " /><path d=" M 2239.38,  592.44  L 2239.38,  596.69 " style="stroke-width: 1.42 ;&st7; " /><path d=" M 2252.12,  277.99  L 2252.12,  282.24 " style="stroke-width: 1.42 ;&st7; " /><path d=" M 2379.60,   86.77  L 2379.60,   91.02 " style="stroke-width: 1.42 ;&st7; " /><path d=" M 2257.10,  528.70  L 2252.12,  533.67 " style="stroke-width: 1.42 ;&st7; " /><path d=" M 2264.15,  545.69  L 2269.12,  540.73 " style="stroke-width: 1.42 ;&st7; " /><path d=" M 2252.12,  540.73  L 2257.09,  545.69 " style="stroke-width: 1.42 ;&st7; " /><path d=" M 2269.12,  533.67  L 2264.15,  528.70 " style="stroke-width: 1.42 ;&st7; " /><path d=" M 2430.59,  265.24  L 2430.59,  269.49 " style="stroke-width: 1.42 ;&st7; " /><path d=" M 2196.88,  201.50  L 2192.63,  201.50 " style="stroke-width: 1.42 ;&st7; " /><path d=" M 2196.88,  210.00  L 2192.63,  210.00 " style="stroke-width: 1.42 ;&st7; " /><path d=" M 2430.59,  477.71  L 2430.59,  481.95 " style="stroke-width: 1.42 ;&st7; " /><path d=" M 2252.12,  252.49  L 2252.12,  256.74 " style="stroke-width: 1.42 ;&st7; " /><path d=" M 2226.63,  231.25  L 2226.63,  235.50 " style="stroke-width: 1.42 ;&st7; " /><path d=" M 2498.58,  222.75  L 2498.58,  239.75  L 2583.57,  239.75  L 2583.57,  222.75  L 2498.58,  222.75 " style="stroke-width: 1.42 ;&st7; " /><path d=" M 2424.93,  227.00  L 2429.18,  231.25  L 2424.93,  235.50 " style="stroke-width: 1.42 ;&st7; " /><path d=" M 2362.60,  231.25  L 2371.10,  231.25 " style="stroke-width: 0.85 ;&st7; " /><path d=" M 2362.60,  265.24  L 2371.10,  265.24 " style="stroke-width: 0.85 ;&st7; " /><path d=" M 2362.60,  316.23  L 2371.10,  316.23 " style="stroke-width: 0.85 ;&st7; " /><path d=" M 2421.53,  227.00  L 2425.78,  231.25  L 2421.53,  235.50 " style="stroke-width: 1.42 ;&st7; " /><path d=" M 2498.58,  337.48  L 2498.58,  362.97  L 2583.57,  362.97  L 2583.57,  337.48  L 2498.58,  337.48 " style="stroke-width: 1.42 ;&st7; " /><path d=" M 2498.58,  388.47  L 2498.58,  413.97  L 2583.57,  413.97  L 2583.57,  388.47  L 2498.58,  388.47 " style="stroke-width: 1.42 ;&st7; " /><path d=" M 2362.60,  596.69  L 2371.10,  596.69 " style="stroke-width: 0.85 ;&st7; " /><path d=" M 2362.60,  511.70  L 2354.11,  511.70 " style="stroke-width: 0.85 ;&st7; " /><path d=" M 2362.60,  622.18  L 2362.60,  163.26  L 2354.11,  163.26 " style="stroke-width: 0.85 ;&st7; " /><path d=" M 2371.10,  613.68  L 2354.11,  613.68  L 2354.11,  154.76  L 2371.10,  154.76  L 2371.10,  613.68 " style="stroke-width: 1.42 ;&st7; " /><path d=" M 2361.19,  650.51  L 2364.02,  650.51 " style="stroke-width: 0.85 ;&st7; " /><path d=" M 2359.77,  647.68  L 2365.44,  647.68 " style="stroke-width: 0.85 ;&st7; " /><path d=" M 2358.35,  644.84  L 2366.85,  644.84 " style="stroke-width: 0.85 ;&st7; " /><path d=" M 2354.11,  642.01  L 2371.10,  642.01 " style="stroke-width: 0.85 ;&st7; " /><path d=" M 2362.60,  637.76  L 2362.60,  642.01 " style="stroke-width: 0.85 ;&st7; " /><path d=" M 2310.42,  595.68  L 2310.15,  596.15  L 2310.05,  596.69  L 2310.15,  597.22  L 2310.42,  597.69  L 2310.83,  598.03  L 2311.34,  598.22  L 2311.88,  598.22  L 2312.39,  598.03  L 2312.81,  597.69  L 2313.08,  597.22  L 2313.17,  596.69  L 2313.08,  596.15  L 2312.81,  595.68  L 2312.39,  595.34  L 2311.88,  595.15  L 2311.34,  595.15  L 2310.83,  595.34  L 2310.42,  595.68  L 2310.81,  596.39  L 2310.81,  596.98  L 2311.19,  597.42  L 2311.76,  597.52  L 2312.26,  597.23  L 2312.46,  596.69  L 2312.26,  596.14  L 2311.76,  595.85  L 2311.19,  595.95  L 2311.61,  596.69 " style="stroke-width: 0.85 ;&st7; " /><path d=" M 2310.42,  510.70  L 2310.15,  511.17  L 2310.05,  511.70  L 2310.15,  512.23  L 2310.42,  512.70  L 2310.83,  513.05  L 2311.34,  513.24  L 2311.88,  513.24  L 2312.39,  513.05  L 2312.81,  512.70  L 2313.08,  512.23  L 2313.17,  511.70  L 2313.08,  511.17  L 2312.81,  510.70  L 2312.39,  510.35  L 2311.88,  510.16  L 2311.34,  510.16  L 2310.83,  510.35  L 2310.42,  510.70  L 2310.81,  511.41  L 2310.81,  511.99  L 2311.19,  512.44  L 2311.76,  512.54  L 2312.26,  512.25  L 2312.46,  511.70  L 2312.26,  511.15  L 2311.76,  510.86  L 2311.19,  510.96  L 2311.61,  511.70 " style="stroke-width: 0.85 ;&st7; " /><path d=" M 2303.11,  256.74  L 2311.61,  256.74 " style="stroke-width: 0.85 ;&st7; " /><path d=" M 2311.61,  511.70  L 2320.11,  511.70 " style="stroke-width: 0.85 ;&st7; " /><path d=" M 2311.61,  469.21  L 2303.11,  469.21 " style="stroke-width: 0.85 ;&st7; " /><path d=" M 2311.61,  358.73  L 2303.11,  358.73 " style="stroke-width: 0.85 ;&st7; " /><path d=" M 2082.15,  477.71  L 2082.15,  494.70  L 2167.14,  494.70  L 2167.14,  477.71  L 2082.15,  477.71 " style="stroke-width: 1.42 ;&st7; " /><path d=" M 2167.14,  205.75  L 2188.38,  205.75 " style="stroke-width: 0.85 ;&st7; " /><path d=" M 2183.49,  205.75  L 2180.66,  202.92  L 2184.90,  202.92  L 2187.74,  205.75  L 2184.90,  208.58  L 2180.66,  208.58  L 2183.49,  205.75 " style="stroke-width: 0.28 ;&st9;" /><path d=" M 2320.11,  613.68  L 2303.11,  613.68  L 2303.11,  197.25  L 2320.11,  197.25  L 2320.11,  613.68 " style="stroke-width: 1.42 ;&st7; " /><path d=" M 2310.20,  650.51  L 2313.03,  650.51 " style="stroke-width: 0.85 ;&st7; " /><path d=" M 2308.78,  647.68  L 2314.45,  647.68 " style="stroke-width: 0.85 ;&st7; " /><path d=" M 2307.36,  644.84  L 2315.86,  644.84 " style="stroke-width: 0.85 ;&st7; " /><path d=" M 2303.11,  642.01  L 2320.11,  642.01 " style="stroke-width: 0.85 ;&st7; " /><path d=" M 2311.61,  637.76  L 2311.61,  642.01 " style="stroke-width: 0.85 ;&st7; " /><path d=" M 2082.15,  443.71  L 2082.15,  460.71  L 2167.14,  460.71  L 2167.14,  443.71  L 2082.15,  443.71 " style="stroke-width: 1.42 ;&st7; " /><path d=" M 2082.15,  345.98  L 2082.15,  371.47  L 2167.14,  371.47  L 2167.14,  345.98  L 2082.15,  345.98 " style="stroke-width: 1.42 ;&st7; " /><path d=" M 2082.15,  197.25  L 2082.15,  214.25  L 2167.14,  214.25  L 2167.14,  197.25  L 2082.15,  197.25 " style="stroke-width: 1.42 ;&st7; " /><path d=" M 2082.15,  248.24  L 2082.15,  265.24  L 2167.14,  265.24  L 2167.14,  248.24  L 2082.15,  248.24 " style="stroke-width: 1.42 ;&st7; " /><path d=" M 2498.58,  469.21  L 2498.58,  486.20  L 2583.57,  486.20  L 2583.57,  469.21  L 2498.58,  469.21 " style="stroke-width: 1.42 ;&st7; " /><path d=" M 2362.60,  401.22  L 2371.10,  401.22 " style="stroke-width: 0.85 ;&st7; " /><path d=" M 2424.93,  473.46  L 2429.18,  477.71  L 2424.93,  481.95 " style="stroke-width: 1.42 ;&st7; " /><path d=" M 2421.53,  473.46  L 2425.78,  477.71  L 2421.53,  481.95 " style="stroke-width: 1.42 ;&st7; " /><path d=" M 2421.53,  260.99  L 2425.78,  265.24  L 2421.53,  269.49 " style="stroke-width: 1.42 ;&st7; " /><path d=" M 2498.58,  256.74  L 2498.58,  273.74  L 2583.57,  273.74  L 2583.57,  256.74  L 2498.58,  256.74 " style="stroke-width: 1.42 ;&st7; " /><path d=" M 2424.93,  260.99  L 2429.18,  265.24  L 2424.93,  269.49 " style="stroke-width: 1.42 ;&st7; " /><path d=" M 2498.58,  307.73  L 2498.58,  324.73  L 2583.57,  324.73  L 2583.57,  307.73  L 2498.58,  307.73 " style="stroke-width: 1.42 ;&st7; " /><path d=" M 2361.41,  595.68  L 2361.14,  596.15  L 2361.05,  596.69  L 2361.14,  597.22  L 2361.41,  597.69  L 2361.83,  598.03  L 2362.33,  598.22  L 2362.88,  598.22  L 2363.38,  598.03  L 2363.80,  597.69  L 2364.07,  597.22  L 2364.16,  596.69  L 2364.07,  596.15  L 2363.80,  595.68  L 2363.38,  595.34  L 2362.88,  595.15  L 2362.33,  595.15  L 2361.83,  595.34  L 2361.41,  595.68  L 2361.81,  596.39  L 2361.81,  596.98  L 2362.18,  597.42  L 2362.75,  597.52  L 2363.26,  597.23  L 2363.45,  596.69  L 2363.26,  596.14  L 2362.75,  595.85  L 2362.18,  595.95  L 2362.60,  596.69 " style="stroke-width: 0.85 ;&st7; " /><path d=" M 2361.41,  510.70  L 2361.14,  511.17  L 2361.05,  511.70  L 2361.14,  512.23  L 2361.41,  512.70  L 2361.83,  513.05  L 2362.33,  513.24  L 2362.88,  513.24  L 2363.38,  513.05  L 2363.80,  512.70  L 2364.07,  512.23  L 2364.16,  511.70  L 2364.07,  511.17  L 2363.80,  510.70  L 2363.38,  510.35  L 2362.88,  510.16  L 2362.33,  510.16  L 2361.83,  510.35  L 2361.41,  510.70  L 2361.81,  511.41  L 2361.81,  511.99  L 2362.18,  512.44  L 2362.75,  512.54  L 2363.26,  512.25  L 2363.45,  511.70  L 2363.26,  511.15  L 2362.75,  510.86  L 2362.18,  510.96  L 2362.60,  511.70 " style="stroke-width: 0.85 ;&st7; " /><path d=" M 2361.41,  476.70  L 2361.14,  477.17  L 2361.05,  477.71  L 2361.14,  478.24  L 2361.41,  478.71  L 2361.83,  479.05  L 2362.33,  479.24  L 2362.88,  479.24  L 2363.38,  479.05  L 2363.80,  478.71  L 2364.07,  478.24  L 2364.16,  477.71  L 2364.07,  477.17  L 2363.80,  476.70  L 2363.38,  476.36  L 2362.88,  476.17  L 2362.33,  476.17  L 2361.83,  476.36  L 2361.41,  476.70  L 2361.81,  477.41  L 2361.81,  478.00  L 2362.18,  478.44  L 2362.75,  478.54  L 2363.26,  478.25  L 2363.45,  477.71  L 2363.26,  477.16  L 2362.75,  476.87  L 2362.18,  476.97  L 2362.60,  477.71 " style="stroke-width: 0.85 ;&st7; " /><path d=" M 2261.19,  252.49  L 2256.94,  256.74  L 2261.19,  260.99 " style="stroke-width: 1.42 ;&st7; " /><path d=" M 2257.79,  252.49  L 2253.54,  256.74  L 2257.79,  260.99 " style="stroke-width: 1.42 ;&st7; " /><path d=" M 2082.15,  554.19  L 2082.15,  571.19  L 2167.14,  571.19  L 2167.14,  554.19  L 2082.15,  554.19 " style="stroke-width: 1.42 ;&st7; " /><path d=" M 2303.11,  426.71  L 2311.61,  426.71 " style="stroke-width: 0.85 ;&st7; " /><path d=" M 2310.42,  485.20  L 2310.15,  485.67  L 2310.05,  486.20  L 2310.15,  486.74  L 2310.42,  487.21  L 2310.83,  487.55  L 2311.34,  487.74  L 2311.88,  487.74  L 2312.39,  487.55  L 2312.81,  487.21  L 2313.08,  486.74  L 2313.17,  486.20  L 2313.08,  485.67  L 2312.81,  485.20  L 2312.39,  484.86  L 2311.88,  484.67  L 2311.34,  484.67  L 2310.83,  484.86  L 2310.42,  485.20  L 2310.81,  485.91  L 2310.81,  486.50  L 2311.19,  486.94  L 2311.76,  487.04  L 2312.26,  486.75  L 2312.46,  486.20  L 2312.26,  485.66  L 2311.76,  485.37  L 2311.19,  485.47  L 2311.61,  486.20 " style="stroke-width: 0.85 ;&st7; " /><path d=" M 2310.42,  468.20  L 2310.15,  468.67  L 2310.05,  469.21  L 2310.15,  469.74  L 2310.42,  470.21  L 2310.83,  470.56  L 2311.34,  470.74  L 2311.88,  470.74  L 2312.39,  470.56  L 2312.81,  470.21  L 2313.08,  469.74  L 2313.17,  469.21  L 2313.08,  468.67  L 2312.81,  468.20  L 2312.39,  467.86  L 2311.88,  467.67  L 2311.34,  467.67  L 2310.83,  467.86  L 2310.42,  468.20  L 2310.81,  468.92  L 2310.81,  469.50  L 2311.19,  469.94  L 2311.76,  470.04  L 2312.26,  469.75  L 2312.46,  469.21  L 2312.26,  468.66  L 2311.76,  468.37  L 2311.19,  468.47  L 2311.61,  469.21 " style="stroke-width: 0.85 ;&st7; " /><path d=" M 2498.58,  430.96  L 2498.58,  456.46  L 2583.57,  456.46  L 2583.57,  430.96  L 2498.58,  430.96 " style="stroke-width: 1.42 ;&st7; " /><path d=" M 2361.41,  400.22  L 2361.14,  400.69  L 2361.05,  401.22  L 2361.14,  401.75  L 2361.41,  402.22  L 2361.83,  402.57  L 2362.33,  402.75  L 2362.88,  402.75  L 2363.38,  402.57  L 2363.80,  402.22  L 2364.07,  401.75  L 2364.16,  401.22  L 2364.07,  400.69  L 2363.80,  400.22  L 2363.38,  399.87  L 2362.88,  399.68  L 2362.33,  399.68  L 2361.83,  399.87  L 2361.41,  400.22  L 2361.81,  400.93  L 2361.81,  401.51  L 2362.18,  401.95  L 2362.75,  402.05  L 2363.26,  401.77  L 2363.45,  401.22  L 2363.26,  400.67  L 2362.75,  400.38  L 2362.18,  400.48  L 2362.60,  401.22 " style="stroke-width: 0.85 ;&st7; " /><path d=" M 2361.41,  315.23  L 2361.14,  315.70  L 2361.05,  316.23  L 2361.14,  316.77  L 2361.41,  317.24  L 2361.83,  317.58  L 2362.33,  317.77  L 2362.88,  317.77  L 2363.38,  317.58  L 2363.80,  317.24  L 2364.07,  316.77  L 2364.16,  316.23  L 2364.07,  315.70  L 2363.80,  315.23  L 2363.38,  314.88  L 2362.88,  314.70  L 2362.33,  314.70  L 2361.83,  314.88  L 2361.41,  315.23  L 2361.81,  315.94  L 2361.81,  316.52  L 2362.18,  316.97  L 2362.75,  317.07  L 2363.26,  316.78  L 2363.45,  316.23  L 2363.26,  315.69  L 2362.75,  315.40  L 2362.18,  315.50  L 2362.60,  316.23 " style="stroke-width: 0.85 ;&st7; " /><path d=" M 2082.15,  503.20  L 2082.15,  520.20  L 2167.14,  520.20  L 2167.14,  503.20  L 2082.15,  503.20 " style="stroke-width: 1.42 ;&st7; " /><path d=" M 2310.42,  451.21  L 2310.15,  451.68  L 2310.05,  452.21  L 2310.15,  452.74  L 2310.42,  453.21  L 2310.83,  453.56  L 2311.34,  453.75  L 2311.88,  453.75  L 2312.39,  453.56  L 2312.81,  453.21  L 2313.08,  452.74  L 2313.17,  452.21  L 2313.08,  451.68  L 2312.81,  451.21  L 2312.39,  450.86  L 2311.88,  450.67  L 2311.34,  450.67  L 2310.83,  450.86  L 2310.42,  451.21  L 2310.81,  451.92  L 2310.81,  452.50  L 2311.19,  452.95  L 2311.76,  453.05  L 2312.26,  452.76  L 2312.46,  452.21  L 2312.26,  451.66  L 2311.76,  451.37  L 2311.19,  451.47  L 2311.61,  452.21 " style="stroke-width: 0.85 ;&st7; " /><path d=" M 2082.15,  222.75  L 2082.15,  239.75  L 2167.14,  239.75  L 2167.14,  222.75  L 2082.15,  222.75 " style="stroke-width: 1.42 ;&st7; " /><path d=" M 2220.96,  227.00  L 2225.21,  231.25  L 2220.96,  235.50 " style="stroke-width: 1.42 ;&st7; " /><path d=" M 2217.56,  227.00  L 2221.81,  231.25  L 2217.56,  235.50 " style="stroke-width: 1.42 ;&st7; " /><path d=" M 2082.15,  303.48  L 2082.15,  328.98  L 2167.14,  328.98  L 2167.14,  303.48  L 2082.15,  303.48 " style="stroke-width: 1.42 ;&st7; " /><path d=" M 2218.13,  307.73  L 2218.13,  324.73  L 2243.62,  324.73  L 2243.62,  307.73  L 2218.13,  307.73 " style="stroke-width: 1.42 ;&st7; " /><path d=" M 2226.63,  307.73  L 2226.63,  324.73 " style="stroke-width: 1.13 ;&st7;stroke-dasharray:3, 1.5;" /><path d=" M 2235.13,  307.73  L 2235.13,  324.73 " style="stroke-width: 1.13 ;&st7;stroke-dasharray:3, 1.5;" /><path d=" M 2311.61,  486.20  L 2303.11,  486.20 " style="stroke-width: 0.85 ;&st7; " /><path d=" M 2310.42,  425.71  L 2310.15,  426.18  L 2310.05,  426.71  L 2310.15,  427.25  L 2310.42,  427.72  L 2310.83,  428.06  L 2311.34,  428.25  L 2311.88,  428.25  L 2312.39,  428.06  L 2312.81,  427.72  L 2313.08,  427.25  L 2313.17,  426.71  L 2313.08,  426.18  L 2312.81,  425.71  L 2312.39,  425.37  L 2311.88,  425.18  L 2311.34,  425.18  L 2310.83,  425.37  L 2310.42,  425.71  L 2310.81,  426.42  L 2310.81,  427.01  L 2311.19,  427.45  L 2311.76,  427.55  L 2312.26,  427.26  L 2312.46,  426.71  L 2312.26,  426.17  L 2311.76,  425.88  L 2311.19,  425.98  L 2311.61,  426.71 " style="stroke-width: 0.85 ;&st7; " /><path d=" M 2310.42,  357.72  L 2310.15,  358.19  L 2310.05,  358.73  L 2310.15,  359.26  L 2310.42,  359.73  L 2310.83,  360.07  L 2311.34,  360.26  L 2311.88,  360.26  L 2312.39,  360.07  L 2312.81,  359.73  L 2313.08,  359.26  L 2313.17,  358.73  L 2313.08,  358.19  L 2312.81,  357.72  L 2312.39,  357.38  L 2311.88,  357.19  L 2311.34,  357.19  L 2310.83,  357.38  L 2310.42,  357.72  L 2310.81,  358.43  L 2310.81,  359.02  L 2311.19,  359.46  L 2311.76,  359.56  L 2312.26,  359.27  L 2312.46,  358.73  L 2312.26,  358.18  L 2311.76,  357.89  L 2311.19,  357.99  L 2311.61,  358.73 " style="stroke-width: 0.85 ;&st7; " /><path d=" M 2218.13,  316.23  L 2243.62,  316.23 " style="stroke-width: 0.85 ;&st7; " /><path d=" M 2310.42,  255.74  L 2310.15,  256.21  L 2310.05,  256.74  L 2310.15,  257.28  L 2310.42,  257.75  L 2310.83,  258.09  L 2311.34,  258.28  L 2311.88,  258.28  L 2312.39,  258.09  L 2312.81,  257.75  L 2313.08,  257.28  L 2313.17,  256.74  L 2313.08,  256.21  L 2312.81,  255.74  L 2312.39,  255.39  L 2311.88,  255.21  L 2311.34,  255.21  L 2310.83,  255.39  L 2310.42,  255.74  L 2310.81,  256.45  L 2310.81,  257.03  L 2311.19,  257.48  L 2311.76,  257.58  L 2312.26,  257.29  L 2312.46,  256.74  L 2312.26,  256.20  L 2311.76,  255.91  L 2311.19,  256.01  L 2311.61,  256.74 " style="stroke-width: 0.85 ;&st7; " /><path d=" M 2303.11,  452.21  L 2311.61,  452.21 " style="stroke-width: 0.85 ;&st7; " /><path d=" M 2082.15,  418.22  L 2082.15,  435.21  L 2167.14,  435.21  L 2167.14,  418.22  L 2082.15,  418.22 " style="stroke-width: 1.42 ;&st7; " /><path d=" M 2422.09,  341.73  L 2422.09,  358.73  L 2447.59,  358.73  L 2447.59,  341.73  L 2422.09,  341.73 " style="stroke-width: 1.42 ;&st7; " /><path d=" M 2430.59,  341.73  L 2430.59,  358.73 " style="stroke-width: 1.13 ;&st7;stroke-dasharray:3, 1.5;" /><path d=" M 2439.09,  341.73  L 2439.09,  358.73 " style="stroke-width: 1.13 ;&st7;stroke-dasharray:3, 1.5;" /><path d=" M 2422.09,  350.23  L 2447.59,  350.23 " style="stroke-width: 0.85 ;&st7; " /><path d=" M 2361.41,  264.24  L 2361.14,  264.71  L 2361.05,  265.24  L 2361.14,  265.77  L 2361.41,  266.24  L 2361.83,  266.59  L 2362.33,  266.78  L 2362.88,  266.78  L 2363.38,  266.59  L 2363.80,  266.24  L 2364.07,  265.77  L 2364.16,  265.24  L 2364.07,  264.71  L 2363.80,  264.24  L 2363.38,  263.89  L 2362.88,  263.71  L 2362.33,  263.71  L 2361.83,  263.89  L 2361.41,  264.24  L 2361.81,  264.95  L 2361.81,  265.53  L 2362.18,  265.98  L 2362.75,  266.08  L 2363.26,  265.79  L 2363.45,  265.24  L 2363.26,  264.69  L 2362.75,  264.41  L 2362.18,  264.50  L 2362.60,  265.24 " style="stroke-width: 0.85 ;&st7; " /><path d=" M 2362.60,  477.71  L 2371.10,  477.71 " style="stroke-width: 0.85 ;&st7; " /><path d=" M 2361.41,  230.24  L 2361.14,  230.71  L 2361.05,  231.25  L 2361.14,  231.78  L 2361.41,  232.25  L 2361.83,  232.60  L 2362.33,  232.78  L 2362.88,  232.78  L 2363.38,  232.60  L 2363.80,  232.25  L 2364.07,  231.78  L 2364.16,  231.25  L 2364.07,  230.71  L 2363.80,  230.24  L 2363.38,  229.90  L 2362.88,  229.71  L 2362.33,  229.71  L 2361.83,  229.90  L 2361.41,  230.24  L 2361.81,  230.96  L 2361.81,  231.54  L 2362.18,  231.98  L 2362.75,  232.08  L 2363.26,  231.79  L 2363.45,  231.25  L 2363.26,  230.70  L 2362.75,  230.41  L 2362.18,  230.51  L 2362.60,  231.25 " style="stroke-width: 0.85 ;&st7; " /><path d=" M 2361.41,  179.25  L 2361.14,  179.72  L 2361.05,  180.26  L 2361.14,  180.79  L 2361.41,  181.26  L 2361.83,  181.60  L 2362.33,  181.79  L 2362.88,  181.79  L 2363.38,  181.60  L 2363.80,  181.26  L 2364.07,  180.79  L 2364.16,  180.26  L 2364.07,  179.72  L 2363.80,  179.25  L 2363.38,  178.91  L 2362.88,  178.72  L 2362.33,  178.72  L 2361.83,  178.91  L 2361.41,  179.25  L 2361.81,  179.96  L 2361.81,  180.55  L 2362.18,  180.99  L 2362.75,  181.09  L 2363.26,  180.80  L 2363.45,  180.26  L 2363.26,  179.71  L 2362.75,  179.42  L 2362.18,  179.52  L 2362.60,  180.26 " style="stroke-width: 0.85 ;&st7; " /><path d=" M 2413.60,  588.19  L 2413.60,  605.18  L 2439.09,  605.18  L 2439.09,  588.19  L 2413.60,  588.19 " style="stroke-width: 1.42 ;&st7; " /><path d=" M 2422.09,  605.18  L 2422.09,  588.19 " style="stroke-width: 1.13 ;&st7;stroke-dasharray:3, 1.5;" /><path d=" M 2430.59,  605.18  L 2430.59,  588.19 " style="stroke-width: 1.13 ;&st7;stroke-dasharray:3, 1.5;" /><path d=" M 2413.60,  596.69  L 2439.09,  596.69 " style="stroke-width: 0.85 ;&st7; " /><path d=" M 2422.09,  112.27  L 2422.09,  129.26  L 2447.59,  129.26  L 2447.59,  112.27  L 2422.09,  112.27 " style="stroke-width: 1.42 ;&st7; " /><path d=" M 2082.15,  379.97  L 2082.15,  405.47  L 2167.14,  405.47  L 2167.14,  379.97  L 2082.15,  379.97 " style="stroke-width: 1.42 ;&st7; " /><path d=" M 2498.58,  537.20  L 2498.58,  554.19  L 2583.57,  554.19  L 2583.57,  537.20  L 2498.58,  537.20 " style="stroke-width: 1.42 ;&st7; " /><path d=" M 2498.58,  588.19  L 2498.58,  605.18  L 2583.57,  605.18  L 2583.57,  588.19  L 2498.58,  588.19 " style="stroke-width: 1.42 ;&st7; " /><path d=" M 2439.09,  112.27  L 2439.09,  129.26 " style="stroke-width: 1.13 ;&st7;stroke-dasharray:3, 1.5;" /><path d=" M 2430.59,  112.27  L 2430.59,  129.26 " style="stroke-width: 1.13 ;&st7;stroke-dasharray:3, 1.5;" /><path d=" M 2422.09,  120.77  L 2447.59,  120.77 " style="stroke-width: 0.85 ;&st7; " /><path d=" M 2498.58,  171.76  L 2498.58,  188.75  L 2583.57,  188.75  L 2583.57,  171.76  L 2498.58,  171.76 " style="stroke-width: 1.42 ;&st7; " /><path d=" M 2424.93,  176.01  L 2429.18,  180.26  L 2424.93,  184.50 " style="stroke-width: 1.42 ;&st7; " /><path d=" M 2421.53,  176.01  L 2425.78,  180.26  L 2421.53,  184.50 " style="stroke-width: 1.42 ;&st7; " /><path d=" M 2082.15,  588.19  L 2167.14,  588.19  L 2167.14,  605.18  L 2082.15,  605.18  L 2082.15,  588.19 " style="stroke-width: 1.42 ;&st7; " /><path d=" M 2218.13,  639.18  L 2218.13,  656.18  L 2243.62,  656.18  L 2243.62,  639.18  L 2218.13,  639.18 " style="stroke-width: 1.42 ;&st7; " /><path d=" M 2226.63,  639.18  L 2226.63,  656.18 " style="stroke-width: 1.13 ;&st7;stroke-dasharray:3, 1.5;" /><path d=" M 2235.13,  639.18  L 2235.13,  656.18 " style="stroke-width: 1.13 ;&st7;stroke-dasharray:3, 1.5;" /><path d=" M 2218.13,  647.68  L 2243.62,  647.68 " style="stroke-width: 0.85 ;&st7; " /><path d=" M 2248.44,  600.93  L 2244.19,  596.69  L 2248.44,  592.44 " style="stroke-width: 1.42 ;&st7; " /><path d=" M 2245.04,  600.93  L 2240.79,  596.69  L 2245.04,  592.44 " style="stroke-width: 1.42 ;&st7; " /><path d=" M 2311.61,  596.69  L 2303.11,  596.69 " style="stroke-width: 0.85 ;&st7; " /><path d=" M 2354.11,  180.26  L 2371.10,  180.26 " style="stroke-width: 0.85 ;&st7; " /><path d=" M 2303.11,  562.69  L 2311.61,  562.69 " style="stroke-width: 0.85 ;&st7; " /><path d=" M 2310.42,  561.69  L 2310.15,  562.16  L 2310.05,  562.69  L 2310.15,  563.22  L 2310.42,  563.69  L 2310.83,  564.04  L 2311.34,  564.23  L 2311.88,  564.23  L 2312.39,  564.04  L 2312.81,  563.69  L 2313.08,  563.22  L 2313.17,  562.69  L 2313.08,  562.16  L 2312.81,  561.69  L 2312.39,  561.34  L 2311.88,  561.16  L 2311.34,  561.16  L 2310.83,  561.34  L 2310.42,  561.69  L 2310.81,  562.40  L 2310.81,  562.98  L 2311.19,  563.43  L 2311.76,  563.53  L 2312.26,  563.24  L 2312.46,  562.69  L 2312.26,  562.14  L 2311.76,  561.86  L 2311.19,  561.95  L 2311.61,  562.69 " style="stroke-width: 0.85 ;&st7; " /><path d=" M 2261.19,  277.99  L 2256.94,  282.24  L 2261.19,  286.49 " style="stroke-width: 1.42 ;&st7; " /><path d=" M 2257.79,  277.99  L 2253.54,  282.24  L 2257.79,  286.49 " style="stroke-width: 1.42 ;&st7; " /><path d=" M 2320.11,  205.75  L 2303.11,  205.75 " style="stroke-width: 0.85 ;&st7; " /><path d=" M 2311.61,  205.75  L 2311.61,  622.18 " style="stroke-width: 0.85 ;&st7; " /><path d=" M 2310.42,  204.75  L 2310.15,  205.22  L 2310.05,  205.75  L 2310.15,  206.28  L 2310.42,  206.75  L 2310.83,  207.10  L 2311.34,  207.29  L 2311.88,  207.29  L 2312.39,  207.10  L 2312.81,  206.75  L 2313.08,  206.28  L 2313.17,  205.75  L 2313.08,  205.22  L 2312.81,  204.75  L 2312.39,  204.40  L 2311.88,  204.22  L 2311.34,  204.22  L 2310.83,  204.40  L 2310.42,  204.75  L 2310.81,  205.46  L 2310.81,  206.04  L 2311.19,  206.49  L 2311.76,  206.59  L 2312.26,  206.30  L 2312.46,  205.75  L 2312.26,  205.20  L 2311.76,  204.92  L 2311.19,  205.01  L 2311.61,  205.75 " style="stroke-width: 0.85 ;&st7; " /><path d=" M 2373.94,   82.52  L 2378.18,   86.77  L 2373.94,   91.02 " style="stroke-width: 1.42 ;&st7; " /><path d=" M 2370.54,   82.52  L 2374.79,   86.77  L 2370.54,   91.02 " style="stroke-width: 1.42 ;&st7; " /><path d=" M 2464.45,   94.26  C 2466.35    92.11  2466.41    88.98  2464.59    86.77 " style="stroke-width: 1.42 ;&st7; " /><path d=" M 2464.73,   79.29  C 2462.83    81.43  2462.77    84.56  2464.59    86.77 " style="stroke-width: 1.42 ;&st7; " /><path d=" M 2183.99,  544.68  C 2185.90   542.54  2185.96   539.41  2184.13   537.20 " style="stroke-width: 1.42 ;&st7; " /><path d=" M 2184.28,  529.71  C 2182.37   531.85  2182.31   534.98  2184.14   537.20 " style="stroke-width: 1.42 ;&st7; " /><path d=" M 2192.63,  201.50  C 2190.29   201.50  2188.38   203.40  2188.38   205.75 " style="stroke-width: 1.42 ;&st7; " /><path d=" M 2188.38,  205.75  C 2188.38   208.10  2190.29   210.00  2192.63   210.00 " style="stroke-width: 1.42 ;&st7; " /><path d=" M 2196.88,  210.00  C 2199.23   210.00  2201.13   208.10  2201.13   205.75 " style="stroke-width: 1.42 ;&st7; " /><path d=" M 2201.13,  205.75  C 2201.13   203.40  2199.23   201.50  2196.88   201.50 " style="stroke-width: 1.42 ;&st7; " /><path d=" M 2218.13,  316.23  C 2218.13   313.73  2216.10   311.70  2213.60   311.70 " style="stroke-width: 1.42 ;&st7; " /><path d=" M 2213.60,  311.70  C 2211.09   311.70  2209.06   313.73  2209.06   316.23 " style="stroke-width: 1.42 ;&st7; " /><path d=" M 2209.06,  316.23  C 2209.06   318.74  2211.09   320.77  2213.60   320.77 " style="stroke-width: 1.42 ;&st7; " /><path d=" M 2213.60,  320.77  C 2216.10   320.77  2218.13   318.74  2218.13   316.23 " style="stroke-width: 1.42 ;&st7; " /><path d=" M 2252.69,  316.23  C 2252.69   313.73  2250.66   311.70  2248.16   311.70 " style="stroke-width: 1.42 ;&st7; " /><path d=" M 2248.16,  311.70  C 2245.65   311.70  2243.63   313.73  2243.63   316.23 " style="stroke-width: 1.42 ;&st7; " /><path d=" M 2243.63,  316.23  C 2243.63   318.74  2245.65   320.77  2248.16   320.77 " style="stroke-width: 1.42 ;&st7; " /><path d=" M 2248.16,  320.77  C 2250.66   320.77  2252.69   318.74  2252.69   316.23 " style="stroke-width: 1.42 ;&st7; " /><path d=" M 2422.10,  350.23  C 2422.10   347.72  2420.07   345.69  2417.56   345.69 " style="stroke-width: 1.42 ;&st7; " /><path d=" M 2417.56,  345.69  C 2415.06   345.69  2413.03   347.72  2413.03   350.23 " style="stroke-width: 1.42 ;&st7; " /><path d=" M 2413.03,  350.23  C 2413.03   352.73  2415.06   354.76  2417.56   354.76 " style="stroke-width: 1.42 ;&st7; " /><path d=" M 2417.56,  354.76  C 2420.07   354.76  2422.10   352.73  2422.10   350.23 " style="stroke-width: 1.42 ;&st7; " /><path d=" M 2456.66,  350.23  C 2456.66   347.72  2454.63   345.69  2452.12   345.69 " style="stroke-width: 1.42 ;&st7; " /><path d=" M 2452.12,  345.69  C 2449.62   345.69  2447.59   347.72  2447.59   350.23 " style="stroke-width: 1.42 ;&st7; " /><path d=" M 2447.59,  350.23  C 2447.59   352.73  2449.62   354.76  2452.12   354.76 " style="stroke-width: 1.42 ;&st7; " /><path d=" M 2452.12,  354.76  C 2454.63   354.76  2456.66   352.73  2456.66   350.23 " style="stroke-width: 1.42 ;&st7; " /><path d=" M 2413.60,  596.69  C 2413.60   594.18  2411.57   592.15  2409.06   592.15 " style="stroke-width: 1.42 ;&st7; " /><path d=" M 2409.06,  592.15  C 2406.56   592.15  2404.53   594.18  2404.53   596.69 " style="stroke-width: 1.42 ;&st7; " /><path d=" M 2404.53,  596.69  C 2404.53   599.19  2406.56   601.22  2409.06   601.22 " style="stroke-width: 1.42 ;&st7; " /><path d=" M 2409.06,  601.22  C 2411.57   601.22  2413.60   599.19  2413.60   596.69 " style="stroke-width: 1.42 ;&st7; " /><path d=" M 2448.16,  596.69  C 2448.16   594.18  2446.13   592.15  2443.63   592.15 " style="stroke-width: 1.42 ;&st7; " /><path d=" M 2443.63,  592.15  C 2441.12   592.15  2439.09   594.18  2439.09   596.69 " style="stroke-width: 1.42 ;&st7; " /><path d=" M 2439.09,  596.69  C 2439.09   599.19  2441.12   601.22  2443.63   601.22 " style="stroke-width: 1.42 ;&st7; " /><path d=" M 2443.63,  601.22  C 2446.13   601.22  2448.16   599.19  2448.16   596.69 " style="stroke-width: 1.42 ;&st7; " /><path d=" M 2422.10,  120.77  C 2422.10   118.26  2420.07   116.23  2417.56   116.23 " style="stroke-width: 1.42 ;&st7; " /><path d=" M 2417.56,  116.23  C 2415.06   116.23  2413.03   118.26  2413.03   120.77 " style="stroke-width: 1.42 ;&st7; " /><path d=" M 2413.03,  120.77  C 2413.03   123.27  2415.06   125.30  2417.56   125.30 " style="stroke-width: 1.42 ;&st7; " /><path d=" M 2417.56,  125.30  C 2420.07   125.30  2422.10   123.27  2422.10   120.77 " style="stroke-width: 1.42 ;&st7; " /><path d=" M 2456.66,  120.77  C 2456.66   118.26  2454.63   116.23  2452.12   116.23 " style="stroke-width: 1.42 ;&st7; " /><path d=" M 2452.12,  116.23  C 2449.62   116.23  2447.59   118.26  2447.59   120.77 " style="stroke-width: 1.42 ;&st7; " /><path d=" M 2447.59,  120.77  C 2447.59   123.27  2449.62   125.30  2452.12   125.30 " style="stroke-width: 1.42 ;&st7; " /><path d=" M 2452.12,  125.30  C 2454.63   125.30  2456.66   123.27  2456.66   120.77 " style="stroke-width: 1.42 ;&st7; " /><path d=" M 2218.13,  647.68  C 2218.13   645.17  2216.10   643.14  2213.60   643.14 " style="stroke-width: 1.42 ;&st7; " /><path d=" M 2213.60,  643.14  C 2211.09   643.14  2209.06   645.17  2209.06   647.68 " style="stroke-width: 1.42 ;&st7; " /><path d=" M 2209.06,  647.68  C 2209.06   650.18  2211.09   652.21  2213.60   652.21 " style="stroke-width: 1.42 ;&st7; " /><path d=" M 2213.60,  652.21  C 2216.10   652.21  2218.13   650.18  2218.13   647.68 " style="stroke-width: 1.42 ;&st7; " /><path d=" M 2252.69,  647.68  C 2252.69   645.17  2250.66   643.14  2248.16   643.14 " style="stroke-width: 1.42 ;&st7; " /><path d=" M 2248.16,  643.14  C 2245.65   643.14  2243.63   645.17  2243.63   647.68 " style="stroke-width: 1.42 ;&st7; " /><path d=" M 2243.63,  647.68  C 2243.63   650.18  2245.65   652.21  2248.16   652.21 " style="stroke-width: 1.42 ;&st7; " /><path d=" M 2248.16,  652.21  C 2250.66   652.21  2252.69   650.18  2252.69   647.68 " style="stroke-width: 1.42 ;&st7; " /><text style="&st18;" transform="matrix(&st16;  2388.9  227.55 )">W-B</text><text style="&st18;" transform="matrix(&st16;  2473.89  227.55 )">W-B</text><text style="&st18;" transform="matrix(&st16;  2373.94  227.56 )">3</text><text style="&st18;" transform="matrix(&st16;  2437.11  224.01 )">8</text><text style="&st18;" transform="matrix(&st16;  2293.14  482.51 )">10</text><text style="&st18;" transform="matrix(&st16;  2331.53  508.0 )">W-B</text><text style="&st18;" transform="matrix(&st16;  2397.4  474.01 )">W-B</text><text style="&st18;" transform="matrix(&st16;  2473.89  474.01 )">W-B</text><text style="&st18;" transform="matrix(&st16;  2373.94  474.02 )">11</text><text style="&st18;" transform="matrix(&st16;  2322.95  508.01 )">11</text><text style="&st18;" transform="matrix(&st16;  2347.31  508.01 )">4</text><text style="&st18;" transform="matrix(&st16;  2265.67  202.05 )">W-B</text><text style="&st18;" transform="matrix(&st16;  2208.5  482.51 )">W-B(*6)</text><text style="&st18;" transform="matrix(&st16;  2296.32  593.0 )">4</text><text style="&st18;" transform="matrix(&st16;  2214.68  448.51 )">W-B</text><text style="&st18;" transform="matrix(&st16;  2296.32  448.52 )">6</text><text style="&st18;" transform="matrix(&st16;  2214.68  355.03 )">W-B</text><text style="&st18;" transform="matrix(&st16;  2296.32  355.03 )">3</text><text style="&st18;" transform="matrix(&st16;  2296.32  202.06 )">9</text><text style="&st18;" transform="matrix(&st16;  2192.78  207.72 )">3</text><text ewd:textID="120" style="&st18;" transform="matrix(&st16;  2084.16  454.18 )">Rear Cooler Relay</text><text ewd:textID="71" style="&st18;" transform="matrix(&st16;  2084.16  354.32 )">Front Seat Inner <tspan dy="6" x="0">Belt Assembly </tspan><tspan dy="6" x="0">(Front Passenger's Side)</tspan></text><text ewd:textID="88" style="&st18;" transform="matrix(&st16;  2084.16  207.72 )">IG1 Relay</text><text ewd:textID="114" style="&st18;" transform="matrix(&st16;  2084.16  255.89 )">Power Window <tspan dy="6" x="0">Master SW</tspan></text><text style="&st18;" transform="matrix(&st16;  2208.5  508.0 )">W-B(*7)</text><text style="&st18;" transform="matrix(&st16;  2415.23  352.2 )">A</text><text style="&st18;" transform="matrix(&st16;  2414.0  343.7 )">17</text><text style="&st18;" transform="matrix(&st16;  2449.79  352.2 )">B</text><text style="&st18;" transform="matrix(&st16;  2448.56  343.7 )">10</text><text ewd:textID="98" style="&st18;" transform="matrix(&st16;  2419.57  373.44 )">Junction <tspan dy="6" x="0">Connector</tspan></text><text style="&st18;" transform="matrix(&st16;  2419.57  366.34 )">J58(A),J59(B)</text><text style="&st18;" transform="matrix(&st16;  2473.89  346.53 )">W-B</text><text style="&st18;" transform="matrix(&st16;  2465.73  357.86 )">(LHD *10)</text><text style="&st18;" transform="matrix(&st17;  2384.41  383.42 )">W-B</text><text style="&st18;" transform="matrix(&st17;  2395.74  391.58 )">(LHD *10)</text><text style="&st18;" transform="matrix(&st16;  2373.94  593.0 )">10</text><text style="&st18;" transform="matrix(&st16;  2406.73  598.65 )">A</text><text style="&st18;" transform="matrix(&st16;  2407.09  590.16 )">5</text><text style="&st18;" transform="matrix(&st16;  2441.29  598.65 )">B</text><text style="&st18;" transform="matrix(&st16;  2442.04  590.16 )">1</text><text ewd:textID="98" style="&st18;" transform="matrix(&st16;  2411.07  619.9 )">Junction <tspan dy="6" x="0">Connector</tspan></text><text style="&st18;" transform="matrix(&st16;  2411.07  612.79 )">J58(A),J59(B)</text><text style="&st18;" transform="matrix(&st16;  2388.9  592.99 )">W-B</text><text style="&st18;" transform="matrix(&st16;  2388.83  604.32 )">(*10)</text><text style="&st18;" transform="matrix(&st16;  2473.89  592.99 )">W-B</text><text style="&st18;" transform="matrix(&st16;  2465.73  604.32 )">(LHD *10)</text><text ewd:textID="113" style="&st18;" transform="matrix(&st16;  2084.16  485.35 )">Power Outlet Socket <tspan dy="6" x="0">(Rear)</tspan></text><text style="&st18;" transform="matrix(&st16;  2437.11  470.47 )">8</text><text style="&st18;" transform="matrix(&st16;  2431.39  397.52 )">W-B</text><text style="&st18;" transform="matrix(&st16;  2373.94  397.53 )">2</text><text style="&st18;" transform="matrix(&st16;  2388.9  261.54 )">W-B</text><text style="&st18;" transform="matrix(&st16;  2473.89  261.54 )">W-B</text><text style="&st18;" transform="matrix(&st16;  2373.94  261.55 )">5</text><text style="&st18;" transform="matrix(&st16;  2437.11  258.0 )">9</text><text style="&st18;" transform="matrix(&st16;  2373.94  312.54 )">1</text><text style="&st18;" transform="matrix(&st16;  2431.39  312.54 )">W-B</text><text style="&st18;" transform="matrix(&st17;  2343.3  369.75 )">J21</text><text ewd:textID="98" style="&st18;" transform="matrix(&st17;  2350.41  369.75 )">Junction Connector</text><text style="&st18;" transform="matrix(&st16;  2217.37  267.92 )">(LHD)</text><text style="&st18;" transform="matrix(&st16;  2233.88  267.92 )">(RHD)</text><text style="&st18;" transform="matrix(&st16;  2224.65  249.5 )">4</text><text style="&st18;" transform="matrix(&st16;  2241.65  249.5 )">4</text><text ewd:textID="70" style="&st18;" transform="matrix(&st16;  2084.16  311.83 )">Front Seat Inner <tspan dy="6" x="0">Belt Assembly </tspan><tspan dy="6" x="0">(Driver's Side)</tspan></text><text ewd:textID="70" style="&st18;" transform="matrix(&st16;  2084.16  388.31 )">Front Seat Inner <tspan dy="6" x="0">Belt Assembly </tspan><tspan dy="6" x="0">(Driver's Side)</tspan></text><text ewd:textID="134" style="&st18;" transform="matrix(&st16;  2084.16  564.66 )">Trailer Socket</text><text style="&st18;" transform="matrix(&st16;  2296.33  559.0 )">7</text><text style="&st18;" transform="matrix(&st16;  2193.43  253.05 )">W-B</text><text style="&st18;" transform="matrix(&st16;  2265.67  253.05 )">W-B</text><text style="&st18;" transform="matrix(&st16;  2214.68  389.02 )">W-B</text><text style="&st18;" transform="matrix(&st16;  2206.91  575.99 )">W-B(*16)</text><text style="&st18;" transform="matrix(&st16;  2213.12  366.36 )">(LHD)</text><text style="&st18;" transform="matrix(&st16;  2206.41  400.35 )">(RHD *11)</text><text style="&st18;" transform="matrix(&st16;  2431.39  440.01 )">W-B</text><text style="&st18;" transform="matrix(&st16;  2423.62  408.85 )">(LHD *11)</text><text style="&st18;" transform="matrix(&st16;  2429.34  451.35 )">(RHD)</text><text style="&st18;" transform="matrix(&st16;  2398.92  485.34 )">(*3)</text><text style="&st18;" transform="matrix(&st16;  2475.4  485.34 )">(*3)</text><text ewd:textID="54" style="&st18;" transform="matrix(&st16;  2084.16  230.39 )">Clearance <tspan dy="6" x="0">Warning ECU</tspan></text><text style="&st18;" transform="matrix(&st16;  2452.59  187.89 )">(LHD *24)</text><text style="&st18;" transform="matrix(&st16;  2267.19  213.39 )">(*6)</text><text style="&st18;" transform="matrix(&st16;  2267.19  187.89 )">(*7)</text><text style="&st18;" transform="matrix(&st16;  2265.67  176.56 )">W-B</text><text style="&st18;" transform="matrix(&st16;  2297.1  253.05 )">1</text><text style="&st18;" transform="matrix(&st16;  2347.32  176.57 )">9</text><text style="&st18;" transform="matrix(&st16;  2208.5  465.51 )">W-B(*7)</text><text style="&st18;" transform="matrix(&st16;  2233.15  224.01 )">4</text><text style="&st18;" transform="matrix(&st16;  2265.67  227.55 )">W-B</text><text style="&st18;" transform="matrix(&st16;  2265.6  238.88 )">(*14)</text><text style="&st18;" transform="matrix(&st16;  2193.43  227.55 )">W-B</text><text style="&st18;" transform="matrix(&st16;  2193.36  238.88 )">(*14)</text><text style="&st18;" transform="matrix(&st16;  2296.32  465.52 )">8</text><text style="&st18;" transform="matrix(&st16;  2211.27  318.2 )">B</text><text style="&st18;" transform="matrix(&st16;  2210.03  309.7 )">10</text><text style="&st18;" transform="matrix(&st16;  2214.68  423.02 )">W-B</text><text style="&st18;" transform="matrix(&st16;  2296.33  423.02 )">5</text><text style="&st18;" transform="matrix(&st16;  2245.83  318.2 )">A</text><text style="&st18;" transform="matrix(&st16;  2244.59  309.7 )">17</text><text style="&st18;" transform="matrix(&st16;  2180.68  312.54 )">W-B</text><text style="&st18;" transform="matrix(&st16;  2172.03  323.87 )">(RHD *10)</text><text style="&st18;" transform="matrix(&st17;  2282.42  340.93 )">W-B</text><text style="&st18;" transform="matrix(&st17;  2293.76  349.58 )">(RHD *10)</text><text ewd:textID="150" style="&st18;" transform="matrix(&st16;  2084.16  425.86 )">Yaw Rate Sensor <tspan dy="6" x="0">Assembly</tspan></text><text ewd:textID="98" style="&st18;" transform="matrix(&st16;  2215.6  339.45 )">Junction <tspan dy="6" x="0">Connector</tspan></text><text style="&st18;" transform="matrix(&st16;  2215.6  332.34 )">J58(A),J59(B)</text><text ewd:textID="45" style="&st18;" transform="matrix(&st16;  2084.16  513.67 )">Blower SW (Rear)</text><text style="&st18;" transform="matrix(&st16;  2373.94  176.56 )">6</text><text ewd:textID="4" style="&st18;" transform="matrix(&st16;  2105.12  20.75 )">* 6 :Before Aug. 2008 Production</text><text ewd:textID="5" style="&st18;" transform="matrix(&st16;  2105.12  29.25 )">* 7 :From Aug. 2008 Production</text><text ewd:textID="6" style="&st18;" transform="matrix(&st16;  2105.12  37.75 )">* 8 :Automatic A/C</text><text ewd:textID="7" style="&st18;" transform="matrix(&st16;  2105.12  46.25 )">* 9 :Manual A/C</text><text ewd:textID="8" style="&st18;" transform="matrix(&st16;  2105.12  54.75 )">*10 :w/ Power Seat</text><text ewd:textID="9" style="&st18;" transform="matrix(&st16;  2105.12  63.24 )">*11 :w/o Power Seat</text><text style="&st18;" transform="matrix(&st17;  2460.89  574.64 )">W-B</text><text style="&st18;" transform="matrix(&st17;  2472.23  583.29 )">(RHD *10)</text><text ewd:textID="122" style="&st18;" transform="matrix(&st16;  2007.68  383.36 )">Rear Window <tspan dy="6" x="0">Defogger SW</tspan></text><text style="&st18;" transform="matrix(&st16;  2007.68  505.17 )">DLC3</text><text ewd:textID="77" style="&st18;" transform="matrix(&st16;  2007.68  315.38 )">Hazard Warning <tspan dy="6" x="0">Signal SW</tspan></text><text style="&st18;" transform="matrix(&st16;  2091.45  159.56 )">W-B</text><text style="&st18;" transform="matrix(&st16;  2040.46  159.56 )">W-B</text><text style="&st18;" transform="matrix(&st16;  2347.32  159.57 )">8</text><text style="&st18;" transform="matrix(&st16;  2415.23  122.73 )">A</text><text style="&st18;" transform="matrix(&st16;  2415.58  114.24 )">4</text><text style="&st18;" transform="matrix(&st16;  2449.79  122.73 )">B</text><text style="&st18;" transform="matrix(&st16;  2450.15  114.24 )">4</text><text ewd:textID="98" style="&st18;" transform="matrix(&st16;  2419.57  143.98 )">Junction <tspan dy="6" x="0">Connector</tspan></text><text style="&st18;" transform="matrix(&st16;  2419.57  136.87 )">J19(A),J20(B)</text><text style="&st18;" transform="matrix(&st16;  2461.14  176.56 )">W-B</text><text style="&st18;" transform="matrix(&st16;  2384.6  187.89 )">(LHD *24)</text><text style="&st18;" transform="matrix(&st17;  2384.41  153.96 )">W-B</text><text style="&st18;" transform="matrix(&st17;  2395.74  163.0 )">(RHD *24)</text><text style="&st18;" transform="matrix(&st16;  2393.15  176.56 )">W-B</text><text style="&st18;" transform="matrix(&st16;  2437.11  173.02 )">6</text><text style="&st18;" transform="matrix(&st16;  2211.27  649.65 )">B</text><text style="&st18;" transform="matrix(&st16;  2211.62  641.15 )">3</text><text style="&st18;" transform="matrix(&st16;  2245.83  649.65 )">A</text><text style="&st18;" transform="matrix(&st16;  2246.18  641.15 )">3</text><text style="&st18;" transform="matrix(&st17;  2180.44  634.13 )">W-B</text><text style="&st18;" transform="matrix(&st16;  2197.68  592.99 )">W-B</text><text style="&st18;" transform="matrix(&st16;  2188.64  604.32 )">(RHD *24)</text><text style="&st18;" transform="matrix(&st16;  2227.31  589.45 )">14</text><text style="&st18;" transform="matrix(&st17;  2282.42  634.13 )">W-B</text><text style="&st18;" transform="matrix(&st17;  2293.76  642.68 )">(LHD *24)</text><text style="&st18;" transform="matrix(&st16;  2257.17  592.99 )">W-B</text><text style="&st18;" transform="matrix(&st16;  2248.13  604.32 )">(RHD *24)</text><text ewd:textID="109" style="&st18;" transform="matrix(&st16;  2084.16  595.83 )">Outer Rear View <tspan dy="6" x="0">Mirror (RH)</tspan></text><text style="&st18;" transform="matrix(&st17;  2191.77  642.68 )">(LHD *24)</text><text style="&st18;" transform="matrix(&st17;  2477.89  153.96 )">W-B</text><text style="&st18;" transform="matrix(&st17;  2489.22  163.0 )">(RHD *24)</text><text style="&st18;" transform="matrix(&st16;  2105.12  12.25 )">* 3 :1GR-FE, 2TR-FE</text><text style="&st18;" transform="matrix(&st16;  2091.45  686.47 )">W-B</text><text style="&st18;" transform="matrix(&st16;  2091.45  669.48 )">W-B</text><text style="&st18;" transform="matrix(&st16;  2040.46  686.47 )">W-B</text><text style="&st18;" transform="matrix(&st16;  2040.46  669.48 )">W-B</text><text ewd:textID="57" style="&st18;" transform="matrix(&st16;  2007.68  420.18 )">Combination SW</text><text style="&st18;" transform="matrix(&st16;  2217.37  293.41 )">(LHD)</text><text style="&st18;" transform="matrix(&st16;  2233.88  293.41 )">(RHD)</text><text style="&st18;" transform="matrix(&st16;  2224.65  275.0 )">5</text><text style="&st18;" transform="matrix(&st16;  2241.65  275.0 )">5</text><text style="&st18;" transform="matrix(&st16;  2193.43  278.54 )">W-B</text><text style="&st18;" transform="matrix(&st16;  2265.67  278.54 )">W-B</text><text style="&st18;" transform="matrix(&st16;  2265.6  289.87 )">(*17)</text><text style="&st18;" transform="matrix(&st16;  2193.36  264.38 )">(*16)</text><text style="&st18;" transform="matrix(&st16;  2193.36  289.87 )">(*17)</text><text ewd:textID="20" style="&st18;" transform="matrix(&st16;  2105.12  105.74 )">*24 :Outer Rear View Mirror Type</text><text ewd:textID="21" style="&st18;" transform="matrix(&st16;  2105.12  114.24 )">*25 :w/ Side Airbag</text><text style="&st18;" transform="matrix(&st16;  2322.95  202.06 )">2</text><text style="&st18;" transform="matrix(&st17;  2333.41  136.96 )">W-B</text><text style="&st18;" transform="matrix(&st17;  2344.75  137.42 )">(*25)</text><text style="&st18;" transform="matrix(&st16;  2386.51  79.53 )">1</text><text ewd:textID="1" style="&st18;" transform="matrix(&st16;  2414.59  83.07 )">(Shielded)</text><text style="&st18;" transform="matrix(&st16;  2422.43  94.41 )">(*25)</text><text ewd:textID="1" style="&st18;" transform="matrix(&st16;  2206.38  533.5 )">(Shielded)</text><text style="&st18;" transform="matrix(&st16;  2272.82  533.5 )">BR</text><text style="&st18;" transform="matrix(&st16;  2215.6  622.43 )">J19(A),J20(B)</text><text ewd:textID="98" style="&st18;" transform="matrix(&st16;  2215.6  629.53 )">Junction <tspan dy="6" x="0">Connector</tspan></text><text ewd:textID="23" style="&st18;" transform="matrix(&st16;  2105.12  122.73 )">*27 :w/ Rheostat</text><text ewd:textID="24" style="&st18;" transform="matrix(&st16;  2105.12  131.23 )">*28 :w/o Rheostat w/ Short Connector</text><text ewd:textID="25" style="&st18;" transform="matrix(&st16;  2105.12  139.73 )">*29 :w/o Rheostat w/o Short Connector</text><text ewd:textID="10" style="&st18;" transform="matrix(&st16;  2105.12  71.74 )">*14 :w/ Parking Assist (TOYOTA Parking Assist-Sensor)</text><text ewd:textID="12" style="&st18;" transform="matrix(&st16;  2105.12  80.24 )">*16 :Before Jun. 2011 Production</text><text ewd:textID="13" style="&st18;" transform="matrix(&st16;  2105.12  88.74 )">*17 :From Jun. 2011 Production</text><text ewd:textID="14" style="&st18;" transform="matrix(&st16;  2105.12  97.24 )">*18 :w/o Automatic Light Control</text><text style="&st18;" transform="matrix(&st16;  2265.6  264.38 )">(*16)</text><text style="&st18;" transform="matrix(&st16;  2206.91  558.99 )">W-B(*17)</text><text ewd:textID="98" style="&st18;" transform="matrix(&st17;  2334.83  454.73 )">Junction Connector</text><text style="&st18;" transform="matrix(&st17;  2327.72  454.73 )">J34</text></svg>