﻿<?xml version="1.0" encoding="utf-8"?>
<!DOCTYPE svg PUBLIC "-//W3C//DTD SVG 1.0//EN" "http://www.w3.org/TR/2001/REC-SVG-20010904/DTD/svg10.dtd"[
	<!ENTITY ns_flows "http://ns.adobe.com/Flows/1.0/">
	<!ENTITY ns_svg "http://www.w3.org/2000/svg">
	<!ENTITY ns_xlink "http://www.w3.org/1999/xlink">
	<!ENTITY st0 "font-size:7px;font-family:'MS-PGothic';adobe-font-script:japanese;">
	<!ENTITY st1 "font-size:6px;font-family:'ArialMT';">
	<!-- White fill  -->
	<!ENTITY st2 "fill:#FFFFFF;stroke:#000000; stroke-width:1.41;stroke-linecap:round;stroke-linejoin:round;">
	<!-- Yellow fill  -->
	<!ENTITY st3 "fill:#FFFFCC;stroke:#FFFFCC; stroke-width:0.1;stroke-linecap:round;stroke-linejoin:round;">
	<!-- Gray fill  -->
	<!ENTITY st4 "fill:#CCCCCC;stroke:#CCCCCC; stroke-width:0.1;stroke-linecap:round;stroke-linejoin:round;">
	<!-- Light-blue fill -->
	<!ENTITY st5 "fill:#CCECF4;stroke:#000000; stroke-width:1.133;stroke-linecap:round;stroke-linejoin:round;">
	<!ENTITY st6 "fill:none;stroke-linecap:butt; stroke-linejoin:round;">
	<!ENTITY st7 "fill:none;stroke:#000000;stroke-linecap:round;stroke-linejoin:round;">
	<!ENTITY st8 "enable-background:new    ;">
	<!-- Black fill -->
	<!ENTITY st9 "fill:#000000;stroke:#000000; stroke-linecap:round;stroke-linejoin:round;">
	<!-- SRS note   -->
	<!ENTITY st10 "font-size:9px;font-family:'ArialMT';">
	<!ENTITY st11 "font-size:9px;font-family:'Svg Symbol';">
	<!ENTITY st12 "font-size:6px;font-family:'Svg Symbol';">
	<!ENTITY st13 "fill:none;stroke:#ff0000;stroke-linecap:round;stroke-linejoin:round;">
	<!-- Yellow fill  -->
	<!ENTITY st14 "fill:#FFFF00;stroke:#FFFF00; stroke-width:0.1;stroke-linecap:round;stroke-linejoin:round;">
	<!ENTITY st15 "font-size:6px;font-family:'MS-PGothic';adobe-font-script:japanese;">
	<!ENTITY st16 "1.00 0.00 0.00 1.00">
	<!ENTITY st17 "0.00 -1.00 1.00 0.00">
	<!ENTITY st18 "font-size:6px;font-family:'Arial';">
	<!ENTITY st19 "font-size:9px;font-family:'Arial';">
	<!ENTITY st20 "font-size:6px;font-family:'MS-PGothic','MS PGothic';adobe-font-script:japanese;">
	<!ENTITY st21 "font-size:7px;font-family:'MS-PGothic','MS PGothic';adobe-font-script:japanese;">
	<!ATTLIST svg
		xmlns:ewd CDATA #FIXED "http://shcl.co.jp/ewd"
		xmlns:a CDATA #FIXED "http://ns.adobe.com/AdobeSVGViewerExtensions/3.0/"
		ewd:ver CDATA #IMPLIED
	>
	<!ATTLIST a
		ewd:lineID CDATA #IMPLIED
		ewd:groupID CDATA #IMPLIED
		ewd:figtype CDATA #IMPLIED
		ewd:code CDATA #IMPLIED
		ewd:figID CDATA #IMPLIED
		ewd:pinNo CDATA #IMPLIED
		ewd:comment CDATA #IMPLIED >
	<!ATTLIST g
		ewd:lineID CDATA #IMPLIED
		ewd:groupID CDATA #IMPLIED
		ewd:figtype CDATA #IMPLIED
		ewd:code CDATA #IMPLIED
		ewd:figID CDATA #IMPLIED
		ewd:pinNo CDATA #IMPLIED
		ewd:comment CDATA #IMPLIED >
	<!ATTLIST text
		ewd:textID CDATA #IMPLIED >
	<!ATTLIST title
		ewd:textID CDATA #IMPLIED >
]>
<!-- Generator: Shintec Hozumi YS   -->
<svg onload="call_execInitLoadProc_svg('system')" style="overflow:visible;  enable-background:new 0 0 1347.103 710.000" viewBox="0 0 1347.103 710.000" height="710.000" width="1347.103" xml:space="preserve" ewd:ver="L2.1.2.7" xmlns="&ns_svg;" xmlns:a="http://ns.adobe.com/AdobeSVGViewerExtensions/3.0/" xmlns:ewd="http://shcl.co.jp/ewd" xmlns:xlink="&ns_xlink;"><script type="text/javascript" xlink:href="../../../../../system/js/ewd/fig/svgfig.js" xmlns:xlink="http://www.w3.org/1999/xlink" /><defs><font horiz-adv-x="1229"><font-face font-family="Svg Symbol" units-per-em="2048" panose-1="5 5 1 2 1 7 6 2 5 7" ascent="2059" descent="450" alphabetic="0" /><missing-glyph d="M 103,0 l 0,1280 1024,0 0,-1280 -1024,0 z m 32,32 l 960,0 0,1216 -960,0 0,-1216 z" /><glyph unicode="" horiz-adv-x="1573" d="M 1517,0 l -567,0 24,279 q 141,59 207.5,168 66.5,109 66.5,306    0,272 -132.5,417.5 -132.5,145.5 -333.5,145.5 -194,0 -328,-147.5 -134,-147.5 -134,-401.5 0,-200 68.5,-319 68.5,-119     206.5,-169 l 25,-279 -564,0 0,279 35,0 q 3,-61 32,-83 45,-35 137,-35 l 270,0 0,70 q -210,61 -324.5,209 -114.5,148     -114.5,349 0,252 186.5,425 186.5,173 504.5,173 195,0 358.5,-73.5 163.5,-73.5 252,-214.5 88.5,-141 88.5,-310 0,-207     -121.5,-360.5 -121.5,-153.5 -317.5,-197.5 l -8,-70 275,0 q 92,0 128,28 36,28 42,90 l 38,0 0,-279 z" /></font></defs>
<g id="ewd_top"><a ewd:code="J5,J6" ewd:figID="1" ewd:figtype="conn" style="cursor:pointer;"><path d=" M  220.96,  545.69  L  220.96,  571.19  L  237.96,  571.19  L  237.96,  545.69  L  220.96,  545.69 " style="&st5;" /><title ewd:textID="15">Junction Connector</title></a><a ewd:code="J62" ewd:figID="2" ewd:figtype="conn" style="cursor:pointer;"><path d=" M  909.35,  622.18  L  926.35,  622.18  L  926.35,  639.18  L  909.35,  639.18  L  909.35,  622.18 " style="&st5;" /><title ewd:textID="15">Junction Connector</title></a><a ewd:code="H18" ewd:figID="3" ewd:figtype="conn" style="cursor:pointer;"><path d=" M  284.70,  189.89  L  284.70,  189.89  L  284.70,  185.92  L  293.20,  185.92  L  293.20,  189.89  C  294.56   190.67   295.53   191.65   296.31   193.00  L  296.31,  193.00  C  298.66   197.06   297.27   202.26   293.20   204.61  L  293.20,  204.61  L  293.20,  208.58  L  284.70,  208.58  L  284.71,  204.61  C  283.35   203.83   282.37   202.85   281.59   201.50  L  281.59,  201.50  C  279.25   197.43   280.64   192.24   284.71   189.89 " style="&st5;" /><title ewd:textID="12">Headlight Cleaner Motor and Pump Assembly</title></a><a ewd:code="FUSE34" ewd:figID="4" ewd:figtype="rb" style="cursor:pointer;"><path d=" M  369.69,   35.78  L  369.69,   78.27  L  395.18,   78.27  L  395.18,   35.78  L  369.69,   35.78 " style="&st5;" /></a><a ewd:code="J64" ewd:figID="5" ewd:figtype="conn" style="cursor:pointer;"><path d=" M  144.48,  545.69  L  161.47,  545.69  L  161.47,  562.69  L  144.48,  562.69  L  144.48,  545.69 " style="&st5;" /><title ewd:textID="15">Junction Connector</title></a><a ewd:code="1" ewd:figID="6" ewd:figtype="rb" style="cursor:pointer;"><path d=" M  679.89,  214.25  L  637.39,  214.25  L  637.39,  248.24  L  679.89,  248.24  L  679.89,  214.25 " style="&st5;" /></a><a ewd:code="C29" ewd:figID="7" ewd:figtype="conn" style="cursor:pointer;"><path d=" M  790.37,  435.21  L  790.37,  554.19  L  960.34,  554.19  L  960.34,  435.21  L  790.37,  435.21 " style="&st5;" /><title ewd:textID="5">Combination SW</title></a><a ewd:code="J27" ewd:figID="8" ewd:figtype="conn" style="cursor:pointer;"><path d=" M 1291.78,  605.18  L 1291.78,  622.18  L 1308.78,  622.18  L 1308.78,  605.18  L 1291.78,  605.18 " style="&st5;" /><title ewd:textID="15">Junction Connector</title></a><a ewd:code="FUSE30" ewd:figID="9" ewd:figtype="rb" style="cursor:pointer;"><path d=" M  675.64,   35.78  L  675.64,   78.27  L  701.13,   78.27  L  701.13,   35.78  L  675.64,   35.78 " style="&st5;" /></a><a ewd:code="C13" ewd:figID="10" ewd:figtype="conn" style="cursor:pointer;"><path d=" M  305.95,  375.72  L  305.95,  477.71  L  203.97,  477.71  L  203.97,  375.72  L  305.95,  375.72 " style="&st5;" /><title ewd:textID="5">Combination SW</title></a><a ewd:code="FUSE34,FUSE35" ewd:figID="11" ewd:figtype="rb" style="cursor:pointer;"><path d=" M  276.20,   35.78  L  276.20,   78.27  L  301.70,   78.27  L  301.70,   35.78  L  276.20,   35.78 " style="&st5;" /></a><a ewd:code="FUSE7" ewd:figID="12" ewd:figtype="rb" style="cursor:pointer;"><path d=" M  157.22,   35.78  L  157.22,   78.27  L  182.72,   78.27  L  182.72,   35.78  L  157.22,   35.78 " style="&st5;" /></a><a ewd:code="J49,J50" ewd:figID="13" ewd:figtype="conn" style="cursor:pointer;"><path d=" M  569.40,  375.72  L  569.40,  409.72  L  654.39,  409.72  L  654.39,  375.72  L  569.40,  375.72 " style="&st5;" /><title ewd:textID="15">Junction Connector</title></a><a ewd:code="C12" ewd:figID="14" ewd:figtype="conn" style="cursor:pointer;"><path d=" M 1079.32,  401.22  L 1079.32,  528.70  L 1317.28,  528.70  L 1317.28,  401.22  L 1079.32,  401.22 " style="&st5;" /><title ewd:textID="5">Combination SW</title></a><a ewd:code="H16" ewd:figID="15" ewd:figtype="conn" style="cursor:pointer;"><path d=" M  390.93,  537.20  L  390.93,  503.20  L  373.94,  503.20  L  373.94,  537.20  L  390.93,  537.20 " style="&st5;" /><title ewd:textID="13">Headlight Cleaner Switch Assembly</title></a><a ewd:code="H19" ewd:figID="16" ewd:figtype="conn" style="cursor:pointer;"><path d=" M   42.49,  290.74  L   42.49,  341.73  L  450.42,  341.73  L  450.42,  290.74  L   42.49,  290.74 " style="&st5;" /><title ewd:textID="11">Headlight Cleaner Control Relay</title></a><a ewd:code="1" ewd:figID="17" ewd:figtype="jb" style="cursor:pointer;"><path d=" M  671.39,   95.27  L  671.39,  103.77  L  696.88,  103.77  L  696.88,   95.27  L  671.39,   95.27 " style="&st4;" /></a><a ewd:code="1" ewd:figID="18" ewd:figtype="jb" style="cursor:pointer;"><path d=" M  365.44,   95.27  L  365.44,  103.77  L  390.93,  103.77  L  390.93,   95.27  L  365.44,   95.27 " style="&st4;" /></a><a ewd:code="1" ewd:figID="19" ewd:figtype="jb" style="cursor:pointer;"><path d=" M  271.95,   95.27  L  271.95,  103.77  L  297.45,  103.77  L  297.45,   95.27  L  271.95,   95.27 " style="&st4;" /></a><a ewd:code="2" ewd:figID="20" ewd:figtype="jb" style="cursor:pointer;"><path d=" M   42.49,   35.78  L  135.98,   35.78  L  135.98,  103.77  L   42.49,  103.77  L   42.49,   35.78 " style="&st4;" /></a><a ewd:code="FUSE7" ewd:figID="21" ewd:figtype="fuse" style="cursor:pointer;"><path d=" M  157.22,   35.78  L  157.22,   78.27  L  182.72,   78.27  L  182.72,   35.78  L  157.22,   35.78 " style="&st7;" /></a><a ewd:code="FUSE30" ewd:figID="22" ewd:figtype="fuse" style="cursor:pointer;"><path d=" M  675.64,   35.78  L  675.64,   78.27  L  701.13,   78.27  L  701.13,   35.78  L  675.64,   35.78 " style="&st7;" /></a><a ewd:code="FUSE44" ewd:figID="23" ewd:figtype="fuse" style="cursor:pointer;"><path d=" M   46.74,   35.78  L   46.74,   78.27  L   72.24,   78.27  L   72.24,   35.78  L   46.74,   35.78 " style="&st7;" /></a><a ewd:code="FUSE34" ewd:figID="24" ewd:figtype="fuse" style="cursor:pointer;"><path d=" M  369.69,   35.78  L  369.69,   78.27  L  395.18,   78.27  L  395.18,   35.78  L  369.69,   35.78 " style="&st7;" /></a><a ewd:code="FUSE34,FUSE35" ewd:figID="25" ewd:figtype="fuse" style="cursor:pointer;"><path d=" M  276.20,   35.78  L  276.20,   78.27  L  301.70,   78.27  L  301.70,   35.78  L  276.20,   35.78 " style="&st7;" /></a><a ewd:lineID="1" style="cursor:pointer;"><path d=" M   59.49,  341.73  L   59.49,  681.67 " style="stroke:#000000;stroke-width: 5.10 ;&st6;" /><path d=" M   59.49,  341.73  L   59.49,  681.67 " style="stroke:#FFFFFF;stroke-width: 4.53 ;&st6;" /><path d=" M   59.49,  341.73  L   59.49,  681.67 " style="stroke:#000000;stroke-width: 1.13 ;&st6;" /></a><a ewd:lineID="2" style="cursor:pointer;"><path d=" M   59.49,  290.74  L   59.49,  197.25 " style="stroke:#FF0000;stroke-width: 5.10 ;&st6;" /><path d=" M   59.49,  290.74  L   59.49,  197.25 " style="stroke:#FFFFFF;stroke-width: 2.27 ;&st6;" /><path d=" M   59.49,  290.74  L   59.49,  197.25 " style="stroke:#00A0C6;stroke-width: 1.13 ;&st6;" /></a><a ewd:lineID="3" style="cursor:pointer;"><path d=" M  169.97,  103.77  L  169.97,  273.74  L   67.99,  273.74  L   59.49,  282.24  L   59.49,  290.74 " style="stroke:#FF0000;stroke-width: 5.10 ;&st6;" /><path d=" M  169.97,  103.77  L  169.97,  273.74  L   67.99,  273.74  L   59.49,  282.24  L   59.49,  290.74 " style="stroke:#FFFFFF;stroke-width: 2.27 ;&st6;" /><path d=" M  169.97,  103.77  L  169.97,  273.74  L   67.99,  273.74  L   59.49,  282.24  L   59.49,  290.74 " style="stroke:#00A0C6;stroke-width: 1.13 ;&st6;" /></a><a ewd:lineID="4" style="cursor:pointer;"><path d=" M   59.49,  103.77  L   59.49,  182.24 " style="stroke:#FF0000;stroke-width: 5.10 ;&st6;" /><path d=" M   59.49,  103.77  L   59.49,  182.24 " style="stroke:#FFFFFF;stroke-width: 2.27 ;&st6;" /><path d=" M   59.49,  103.77  L   59.49,  182.24 " style="stroke:#00A0C6;stroke-width: 1.13 ;&st6;" /></a><a ewd:lineID="5" style="cursor:pointer;"><path d=" M  229.46,  580.26  L  229.46,  622.18  L  152.97,  622.18  L  152.97,  562.69 " style="stroke:#000000;stroke-width: 5.10 ;&st6;" /><path d=" M  229.46,  580.26  L  229.46,  622.18  L  152.97,  622.18  L  152.97,  562.69 " style="stroke:#FFFFFF;stroke-width: 2.27 ;&st6;" /><path d=" M  229.46,  580.26  L  229.46,  622.18  L  152.97,  622.18  L  152.97,  562.69 " style="stroke:#FF0000;stroke-width: 1.13 ;&st6;" /></a><a ewd:lineID="6" style="cursor:pointer;"><path d=" M  152.97,  341.73  L  152.97,  545.69 " style="stroke:#000000;stroke-width: 5.10 ;&st6;" /><path d=" M  152.97,  341.73  L  152.97,  545.69 " style="stroke:#FFFFFF;stroke-width: 2.27 ;&st6;" /><path d=" M  152.97,  341.73  L  152.97,  545.69 " style="stroke:#FF0000;stroke-width: 1.13 ;&st6;" /></a><a ewd:lineID="7" style="cursor:pointer;"><path d=" M  229.46,  536.63  L  229.46,  495.84 " style="stroke:#000000;stroke-width: 5.10 ;&st6;" /><path d=" M  229.46,  536.63  L  229.46,  495.84 " style="stroke:#FFFFFF;stroke-width: 2.27 ;&st6;" /><path d=" M  229.46,  536.63  L  229.46,  495.84 " style="stroke:#FF0000;stroke-width: 1.13 ;&st6;" /></a><a ewd:lineID="8" style="cursor:pointer;"><path d=" M  280.45,  681.67  L  280.45,  495.84 " style="stroke:#000000;stroke-width: 5.10 ;&st6;" /><path d=" M  280.45,  681.67  L  280.45,  495.84 " style="stroke:#FFFFFF;stroke-width: 4.53 ;&st6;" /><path d=" M  280.45,  681.67  L  280.45,  495.84 " style="stroke:#000000;stroke-width: 1.13 ;&st6;" /></a><a ewd:lineID="9" style="cursor:pointer;"><path d=" M  288.95,  290.74  L  288.95,  208.58 " style="stroke:#000000;stroke-width: 5.10 ;&st6;" /><path d=" M  288.95,  290.74  L  288.95,  208.58 " style="stroke:#FFFFFF;stroke-width: 2.27 ;&st6;" /><path d=" M  288.95,  290.74  L  288.95,  208.58 " style="stroke:#FF0000;stroke-width: 1.13 ;&st6;" /></a><a ewd:lineID="10" style="cursor:pointer;"><path d=" M  288.95,  103.77  L  288.95,  185.92 " style="stroke:#000000;stroke-width: 5.10 ;&st6;" /></a><a ewd:lineID="11" style="cursor:pointer;"><path d=" M  382.44,  103.77  L  382.44,  171.76  L  297.45,  171.76  L  288.95,  180.26  L  288.95,  185.92 " style="stroke:#000000;stroke-width: 5.10 ;&st6;" /></a><a ewd:lineID="12" style="cursor:pointer;"><path d=" M  382.44,  537.20  L  382.44,  622.18  L  611.90,  622.18  L  611.90,  418.78 " style="stroke:#008837;stroke-width: 5.10 ;&st6;" /><path d=" M  382.44,  537.20  L  382.44,  622.18  L  611.90,  622.18  L  611.90,  418.78 " style="stroke:#FFFFFF;stroke-width: 2.27 ;&st6;" /><path d=" M  382.44,  537.20  L  382.44,  622.18  L  611.90,  622.18  L  611.90,  418.78 " style="stroke:#FF0000;stroke-width: 1.13 ;&st6;" /></a><a ewd:lineID="13" style="cursor:pointer;"><path d=" M  382.44,  441.73  L  382.44,  503.20 " style="stroke:#00A0C6;stroke-width: 5.10 ;&st6;" /><path d=" M  382.44,  441.73  L  382.44,  503.20 " style="stroke:#FFFFFF;stroke-width: 2.27 ;&st6;" /><path d=" M  382.44,  441.73  L  382.44,  503.20 " style="stroke:#000000;stroke-width: 1.13 ;&st6;" /></a><a ewd:lineID="14" style="cursor:pointer;"><path d=" M  382.44,  341.73  L  382.44,  426.71 " style="stroke:#00A0C6;stroke-width: 5.10 ;&st6;" /><path d=" M  382.44,  341.73  L  382.44,  426.71 " style="stroke:#FFFFFF;stroke-width: 2.27 ;&st6;" /><path d=" M  382.44,  341.73  L  382.44,  426.71 " style="stroke:#000000;stroke-width: 1.13 ;&st6;" /></a><a ewd:lineID="15" style="cursor:pointer;"><path d=" M  577.90,  418.78  L  577.90,  588.19  L  433.43,  588.19  L  433.43,  441.44 " style="stroke:#999999;stroke-width: 5.10 ;&st6;" /></a><a ewd:lineID="16" style="cursor:pointer;"><path d=" M  433.43,  341.73  L  433.43,  426.71 " style="stroke:#999999;stroke-width: 5.10 ;&st6;" /></a><a ewd:lineID="17" style="cursor:pointer;"><path d=" M  900.85,  417.08  L  900.85,  375.72  L  730.88,  375.72  L  730.88,  477.71  L  645.89,  477.71  L  645.89,  418.78 " style="stroke:#999999;stroke-width: 5.10 ;&st6;" /></a><a ewd:lineID="18" style="cursor:pointer;"><path d=" M  645.89,  418.78  L  645.89,  426.71  L  654.39,  435.21  L  705.38,  435.21  L  705.38,  350.23  L 1266.29,  350.23  L 1266.29,  383.09 " style="stroke:#999999;stroke-width: 5.10 ;&st6;" /></a><a ewd:lineID="19" style="cursor:pointer;"><path d=" M  645.89,  366.66  L  645.89,  330.96 " style="stroke:#999999;stroke-width: 5.10 ;&st6;" /></a><a ewd:lineID="20" style="cursor:pointer;"><path d=" M  645.89,  282.24  L  645.89,  316.23 " style="stroke:#999999;stroke-width: 5.10 ;&st6;" /></a><a ewd:lineID="21" style="cursor:pointer;"><path d=" M  645.89,  180.26  L  645.89,  154.76  L  671.39,  154.76  L  671.39,  180.26 " style="stroke:#000000;stroke-width: 5.10 ;&st6;" /><path d=" M  645.89,  180.26  L  645.89,  154.76  L  671.39,  154.76  L  671.39,  180.26 " style="stroke:#FFFFFF;stroke-width: 1.13 ;&st6;" /></a><a ewd:lineID="22" style="cursor:pointer;"><path d=" M  688.38,  103.77  L  688.38,  154.76  L  671.39,  171.76  L  671.39,  180.26 " style="stroke:#000000;stroke-width: 5.10 ;&st6;" /><path d=" M  688.38,  103.77  L  688.38,  154.76  L  671.39,  171.76  L  671.39,  180.26 " style="stroke:#FFFFFF;stroke-width: 1.13 ;&st6;" /></a><a ewd:lineID="23" style="cursor:pointer;"><path d=" M  917.85,  639.18  L  917.85,  681.67 " style="stroke:#000000;stroke-width: 5.10 ;&st6;" /><path d=" M  917.85,  639.18  L  917.85,  681.67 " style="stroke:#FFFFFF;stroke-width: 4.53 ;&st6;" /><path d=" M  917.85,  639.18  L  917.85,  681.67 " style="stroke:#000000;stroke-width: 1.13 ;&st6;" /></a><a ewd:lineID="24" style="cursor:pointer;"><path d=" M  917.85,  622.18  L  917.85,  572.32 " style="stroke:#000000;stroke-width: 5.10 ;&st6;" /><path d=" M  917.85,  622.18  L  917.85,  572.32 " style="stroke:#FFFFFF;stroke-width: 4.53 ;&st6;" /></a><a ewd:lineID="25" style="cursor:pointer;"><path d=" M 1300.28,  631.25  L 1300.28,  681.67 " style="stroke:#000000;stroke-width: 5.10 ;&st6;" /><path d=" M 1300.28,  631.25  L 1300.28,  681.67 " style="stroke:#FFFFFF;stroke-width: 4.53 ;&st6;" /><path d=" M 1300.28,  631.25  L 1300.28,  681.67 " style="stroke:#000000;stroke-width: 1.13 ;&st6;" /></a><a ewd:lineID="26" style="cursor:pointer;"><path d=" M 1300.28,  596.12  L 1300.28,  546.83 " style="stroke:#000000;stroke-width: 5.10 ;&st6;" /></a><a ewd:code="II5" ewd:figID="26" ewd:figtype="w2w" ewd:pinNo="6" style="cursor:pointer;"><path d=" M   67.99,  188.75  L   50.99,  188.75  L   50.99,  197.25  L   67.99,  197.25  L   67.99,  188.75 " style="&st2;" /><text style="&st8;" transform="matrix(&st16;  55.33  195.5 )"><tspan style="&st18;" x="0" y="0">II5</tspan></text></a><a ewd:code="II5" ewd:figID="27" ewd:figtype="w2w" ewd:pinNo="8" style="cursor:pointer;"><path d=" M  390.93,  426.71  L  373.94,  426.71  L  373.94,  435.21  L  390.93,  435.21  L  390.93,  426.71 " style="&st2;" /><text style="&st8;" transform="matrix(&st16;  378.27  433.46 )"><tspan style="&st18;" x="0" y="0">II5</tspan></text></a><a ewd:code="II5" ewd:figID="28" ewd:figtype="w2w" ewd:pinNo="5" style="cursor:pointer;"><path d=" M  654.39,  316.23  L  637.39,  316.23  L  637.39,  324.73  L  654.39,  324.73  L  654.39,  316.23 " style="&st2;" /><text style="&st8;" transform="matrix(&st16;  641.73  322.98 )"><tspan style="&st18;" x="0" y="0">II5</tspan></text></a><a ewd:code="II5" ewd:figID="29" ewd:figtype="w2w" ewd:pinNo="17" style="cursor:pointer;"><path d=" M  441.93,  426.71  L  424.93,  426.71  L  424.93,  435.21  L  441.93,  435.21  L  441.93,  426.71 " style="&st2;" /><text style="&st8;" transform="matrix(&st16;  429.26  433.46 )"><tspan style="&st18;" x="0" y="0">II5</tspan></text></a><a ewd:code="IH" ewd:figID="30" ewd:figtype="gp" style="cursor:pointer;"><path d=" M  269.83,  681.67  L  291.08,  681.67  L  280.45,  697.25  L  269.83,  681.67 " style="&st2;" /><text style="&st8;" transform="matrix(&st16;  276.81  689.83 )"><tspan style="&st18;" x="0" y="0">IH</tspan></text></a><a ewd:code="IG" ewd:figID="31" ewd:figtype="gp" style="cursor:pointer;"><path d=" M 1289.66,  681.67  L 1310.91,  681.67  L 1300.28,  697.25  L 1289.66,  681.67 " style="&st2;" /><text style="&st8;" transform="matrix(&st16;  1296.34  689.83 )"><tspan style="&st18;" x="0" y="0">IG</tspan></text></a><a ewd:code="IH" ewd:figID="32" ewd:figtype="gp" style="cursor:pointer;"><path d=" M  907.22,  681.67  L  928.47,  681.67  L  917.85,  697.25  L  907.22,  681.67 " style="&st2;" /><text style="&st8;" transform="matrix(&st16;  914.2  689.83 )"><tspan style="&st18;" x="0" y="0">IH</tspan></text></a><a ewd:code="EA" ewd:figID="33" ewd:figtype="gp" style="cursor:pointer;"><path d=" M   48.87,  681.67  L   70.11,  681.67  L   59.49,  697.25  L   48.87,  681.67 " style="&st2;" /><text style="&st8;" transform="matrix(&st16;  54.58  689.83 )"><tspan style="&st18;" x="0" y="0">EA</tspan></text></a></g></svg>