﻿<?xml version="1.0" encoding="utf-8"?>
<!DOCTYPE svg PUBLIC "-//W3C//DTD SVG 1.0//EN" "http://www.w3.org/TR/2001/REC-SVG-20010904/DTD/svg10.dtd"[
	<!ENTITY ns_flows "http://ns.adobe.com/Flows/1.0/">
	<!ENTITY ns_svg "http://www.w3.org/2000/svg">
	<!ENTITY ns_xlink "http://www.w3.org/1999/xlink">
	<!ENTITY st0 "font-size:7px;font-family:'MS-PGothic';adobe-font-script:japanese;">
	<!ENTITY st1 "font-size:6px;font-family:'ArialMT';">
	<!-- White fill  -->
	<!ENTITY st2 "fill:#FFFFFF;stroke:#000000; stroke-width:1.41;stroke-linecap:round;stroke-linejoin:round;">
	<!-- Yellow fill  -->
	<!ENTITY st3 "fill:#FFFFCC;stroke:#FFFFCC; stroke-width:0.1;stroke-linecap:round;stroke-linejoin:round;">
	<!-- Gray fill  -->
	<!ENTITY st4 "fill:#CCCCCC;stroke:#CCCCCC; stroke-width:0.1;stroke-linecap:round;stroke-linejoin:round;">
	<!-- Light-blue fill -->
	<!ENTITY st5 "fill:#CCECF4;stroke:#000000; stroke-width:1.133;stroke-linecap:round;stroke-linejoin:round;">
	<!ENTITY st6 "fill:none;stroke-linecap:butt; stroke-linejoin:round;">
	<!ENTITY st7 "fill:none;stroke:#000000;stroke-linecap:round;stroke-linejoin:round;">
	<!ENTITY st8 "enable-background:new    ;">
	<!-- Black fill -->
	<!ENTITY st9 "fill:#000000;stroke:#000000; stroke-linecap:round;stroke-linejoin:round;">
	<!-- SRS note   -->
	<!ENTITY st10 "font-size:9px;font-family:'ArialMT';">
	<!ENTITY st11 "font-size:9px;font-family:'Svg Symbol';">
	<!ENTITY st12 "font-size:6px;font-family:'Svg Symbol';">
	<!ENTITY st13 "fill:none;stroke:#ff0000;stroke-linecap:round;stroke-linejoin:round;">
	<!-- Yellow fill  -->
	<!ENTITY st14 "fill:#FFFF00;stroke:#FFFF00; stroke-width:0.1;stroke-linecap:round;stroke-linejoin:round;">
	<!ENTITY st15 "font-size:6px;font-family:'MS-PGothic';adobe-font-script:japanese;">
	<!ENTITY st16 "1.00 0.00 0.00 1.00">
	<!ENTITY st17 "0.00 -1.00 1.00 0.00">
	<!ENTITY st18 "font-size:6px;font-family:'Arial';">
	<!ENTITY st19 "font-size:9px;font-family:'Arial';">
	<!ENTITY st20 "font-size:6px;font-family:'MS-PGothic','MS PGothic';adobe-font-script:japanese;">
	<!ENTITY st21 "font-size:7px;font-family:'MS-PGothic','MS PGothic';adobe-font-script:japanese;">
	<!ATTLIST svg
		xmlns:ewd CDATA #FIXED "http://shcl.co.jp/ewd"
		xmlns:a CDATA #FIXED "http://ns.adobe.com/AdobeSVGViewerExtensions/3.0/"
		ewd:ver CDATA #IMPLIED
	>
	<!ATTLIST a
		ewd:lineID CDATA #IMPLIED
		ewd:groupID CDATA #IMPLIED
		ewd:figtype CDATA #IMPLIED
		ewd:code CDATA #IMPLIED
		ewd:figID CDATA #IMPLIED
		ewd:pinNo CDATA #IMPLIED
		ewd:comment CDATA #IMPLIED >
	<!ATTLIST g
		ewd:lineID CDATA #IMPLIED
		ewd:groupID CDATA #IMPLIED
		ewd:figtype CDATA #IMPLIED
		ewd:code CDATA #IMPLIED
		ewd:figID CDATA #IMPLIED
		ewd:pinNo CDATA #IMPLIED
		ewd:comment CDATA #IMPLIED >
	<!ATTLIST text
		ewd:textID CDATA #IMPLIED >
	<!ATTLIST title
		ewd:textID CDATA #IMPLIED >
]>
<!-- Generator: Shintec Hozumi YS   -->
<svg onload="call_execInitLoadProc_svg('system')" style="overflow:visible;  enable-background:new 0 0 1028.853 710.000" viewBox="0 0 1028.853 710.000" height="710.000" width="1028.853" xml:space="preserve" ewd:ver="L2.1.2.7" xmlns="&ns_svg;" xmlns:a="http://ns.adobe.com/AdobeSVGViewerExtensions/3.0/" xmlns:ewd="http://shcl.co.jp/ewd" xmlns:xlink="&ns_xlink;">
<path d=" M  331.44,  494.70  L  327.20,  503.20 " style="stroke-width: 0.85 ;&st7; " /><path d=" M  327.20,  494.70  L  322.95,  503.20 " style="stroke-width: 0.85 ;&st7; " /><path d=" M  338.53,  497.54  L  335.69,  503.20 " style="stroke-width: 0.85 ;&st7; " /><path d=" M  326.08,  487.88  L  328.76,  489.78 " style="stroke-width: 0.85 ;&st7; " /><path d=" M  338.53,  494.70  L  338.53,  503.20 " style="stroke-width: 0.85 ;&st7; " /><path d=" M  318.70,  494.70  L  314.45,  503.20 " style="stroke-width: 0.85 ;&st7; " /><path d=" M  384.56,  112.27  L  380.31,  112.27 " style="stroke-width: 1.42 ;&st7; " /><path d=" M  110.48,  239.75  L  118.98,  239.75 " style="stroke-width: 1.42 ;&st7; " /><path d=" M   67.99,  464.96  L   67.99,  460.71 " style="stroke-width: 0.85 ;&st7; " /><path d=" M   67.99,  494.70  L   67.99,  490.45 " style="stroke-width: 0.85 ;&st7; " /><path d=" M   67.99,  487.62  L   73.65,  464.96 " style="stroke-width: 1.42 ;&st7; " /><path d=" M  263.46,   69.77  L  263.46,  103.77 " style="stroke-width: 0.85 ;&st7; " /><path d=" M  265.58,  103.77  L  261.33,  103.77 " style="stroke-width: 1.42 ;&st7; " /><path d=" M  265.58,  112.27  L  261.33,  112.27 " style="stroke-width: 1.42 ;&st7; " /><path d=" M  339.94,  190.17  L  345.61,  167.51 " style="stroke-width: 1.42 ;&st7; " /><path d=" M  339.94,  197.25  L  339.94,  193.00 " style="stroke-width: 0.85 ;&st7; " /><path d=" M  339.94,  167.51  L  339.94,  163.26 " style="stroke-width: 0.85 ;&st7; " /><path d=" M  339.94,   69.77  L  339.94,  103.77 " style="stroke-width: 0.85 ;&st7; " /><path d=" M  342.07,  103.77  L  337.82,  103.77 " style="stroke-width: 1.42 ;&st7; " /><path d=" M  384.56,  103.77  L  380.31,  103.77 " style="stroke-width: 1.42 ;&st7; " /><path d=" M  342.07,  112.27  L  337.82,  112.27 " style="stroke-width: 1.42 ;&st7; " /><path d=" M  322.95,  494.70  L  318.70,  503.20 " style="stroke-width: 0.85 ;&st7; " /><path d=" M  335.69,  494.70  L  331.44,  503.20 " style="stroke-width: 0.85 ;&st7; " /><path d=" M  450.42,  409.72  L  458.92,  409.72 " style="stroke-width: 1.42 ;&st7; " /><path d=" M  407.93,  409.72  L  416.43,  409.72 " style="stroke-width: 1.42 ;&st7; " /><path d=" M  365.44,  409.72  L  373.94,  409.72 " style="stroke-width: 1.42 ;&st7; " /><path d=" M  305.95,  409.72  L  314.45,  409.72 " style="stroke-width: 1.42 ;&st7; " /><path d=" M  237.96,  273.74  L  229.46,  273.74 " style="stroke-width: 1.42 ;&st7; " /><path d=" M  348.44,  273.74  L  339.94,  273.74 " style="stroke-width: 1.42 ;&st7; " /><path d=" M   59.49,  588.19  L   59.49,  613.68  L   76.49,  613.68  L   76.49,  588.19  L   59.49,  588.19 " style="stroke-width: 1.42 ;&st7; " /><path d=" M  416.43,  452.21  L  416.43,  466.37 " style="stroke-width: 0.85 ;&st7; " /><path d=" M  416.43,  489.04  L  416.43,  494.70  L  458.92,  494.70  L  458.92,  452.21 " style="stroke-width: 0.85 ;&st7; " /><path d=" M  350.36,  484.29  L  352.69,  481.95 " style="stroke-width: 0.85 ;&st7; " /><path d=" M  373.94,  452.21  L  373.94,  494.70  L  344.19,  494.70 " style="stroke-width: 0.85 ;&st7; " /><path d=" M  339.94,  504.62  L  339.94,  520.20 " style="stroke-width: 0.85 ;&st7; " /><path d=" M  338.53,  494.70  L  314.45,  494.70  L  314.45,  503.20  L  338.53,  503.20 " style="stroke-width: 0.85 ;&st7; " /><path d=" M  314.45,  452.21  L  314.45,  494.70 " style="stroke-width: 0.85 ;&st7; " /><path d=" M  382.44,  103.77  L  382.44,   86.77  L  339.94,   86.77 " style="stroke-width: 0.85 ;&st7; " /><path d=" M  116.15,  707.17  L  121.81,  707.17 " style="stroke-width: 0.85 ;&st7; " /><path d=" M  117.56,  710.00  L  120.40,  710.00 " style="stroke-width: 0.85 ;&st7; " /><path d=" M  110.48,  701.50  L  127.48,  701.50 " style="stroke-width: 0.85 ;&st7; " /><path d=" M  118.98,  697.25  L  118.98,  701.50 " style="stroke-width: 0.85 ;&st7; " /><path d=" M  123.23,  234.08  L  118.98,  238.33  L  114.73,  234.08 " style="stroke-width: 1.42 ;&st7; " /><path d=" M   59.49,  596.69  L   76.49,  596.69 " style="stroke-width: 1.13 ;&st7;stroke-dasharray:3, 1.5;" /><path d=" M  110.48,  596.69  L  127.48,  596.69  L  127.48,  613.68  L  110.48,  613.68  L  110.48,  596.69 " style="stroke-width: 1.42 ;&st7; " /><path d=" M  114.73,  230.68  L  118.98,  234.93  L  123.23,  230.68 " style="stroke-width: 1.42 ;&st7; " /><path d=" M   67.99,  588.19  L   67.99,  613.68 " style="stroke-width: 0.85 ;&st7; " /><path d=" M  118.98,  350.23  L  118.98,  333.23 " style="stroke-width: 0.85 ;&st7; " /><path d=" M  110.48,  333.23  L  110.48,  350.23  L  127.48,  350.23  L  127.48,  333.23  L  110.48,  333.23 " style="stroke-width: 1.42 ;&st7; " /><path d=" M   76.49,  494.70  L   76.49,  460.71  L   59.49,  460.71  L   59.49,  494.70  L   76.49,  494.70 " style="stroke-width: 1.42 ;&st7; " /><path d=" M   59.49,  605.18  L   76.49,  605.18 " style="stroke-width: 1.13 ;&st7;stroke-dasharray:3, 1.5;" /><path d=" M  114.73,  704.33  L  123.23,  704.33 " style="stroke-width: 0.85 ;&st7; " /><path d=" M  118.98,  596.69  L  118.98,  613.68 " style="stroke-width: 0.85 ;&st7; " /><path d=" M  382.44,   98.87  L  379.60,   96.04  L  379.60,  100.29  L  382.44,  103.12  L  385.27,  100.29  L  385.27,   96.04  L  382.44,   98.87 " style="stroke-width: 0.28 ;&st9;" /><path d=" M  475.92,  324.73  L  212.46,  324.73  L  212.46,  367.22  L  475.92,  367.22  L  475.92,  324.73 " style="stroke-width: 1.42 ;&st7; " /><path d=" M  475.92,  452.21  L  288.95,  452.21  L  288.95,  520.20  L  475.92,  520.20  L  475.92,  452.21 " style="stroke-width: 1.42 ;&st7; " /><path d=" M  348.44,  197.25  L  348.44,  163.26  L  331.44,  163.26  L  331.44,  197.25  L  348.44,  197.25 " style="stroke-width: 1.42 ;&st7; " /><path d=" M  276.20,   78.27  L  276.20,   35.78  L  250.71,   35.78  L  250.71,   78.27  L  276.20,   78.27 " style="stroke-width: 1.42 ;&st7; " /><path d=" M  263.46,   98.87  L  260.62,   96.04  L  260.62,  100.29  L  263.46,  103.12  L  266.29,  100.29  L  266.29,   96.04  L  263.46,   98.87 " style="stroke-width: 0.28 ;&st9;" /><path d=" M  352.69,   78.27  L  352.69,   35.78  L  327.20,   35.78  L  327.20,   78.27  L  352.69,   78.27 " style="stroke-width: 1.42 ;&st7; " /><path d=" M  339.94,   98.87  L  337.11,   96.04  L  337.11,  100.29  L  339.94,  103.12  L  342.78,  100.29  L  342.78,   96.04  L  339.94,   98.87 " style="stroke-width: 0.28 ;&st9;" /><path d=" M  454.67,  400.65  L  458.92,  404.90  L  463.17,  400.65 " style="stroke-width: 1.42 ;&st7; " /><path d=" M   66.57,  710.00  L   69.41,  710.00 " style="stroke-width: 0.85 ;&st7; " /><path d=" M  463.17,  404.05  L  458.92,  408.30  L  454.67,  404.05 " style="stroke-width: 1.42 ;&st7; " /><path d=" M  420.68,  470.34  L  420.68,  466.37  L  412.18,  466.37  L  412.18,  470.34 " style="stroke-width: 1.42 ;&st7; " /><path d=" M  420.68,  485.07  L  420.68,  489.04  L  412.18,  489.04  L  412.18,  485.07 " style="stroke-width: 1.42 ;&st7; " /><path d=" M   59.49,  341.73  L   76.49,  341.73 " style="stroke-width: 1.13 ;&st7;stroke-dasharray:3, 1.5;" /><path d=" M   59.49,  350.23  L   76.49,  350.23 " style="stroke-width: 1.13 ;&st7;stroke-dasharray:3, 1.5;" /><path d=" M   59.49,  333.23  L   59.49,  358.73  L   76.49,  358.73  L   76.49,  333.23  L   59.49,  333.23 " style="stroke-width: 1.42 ;&st7; " /><path d=" M   67.99,  333.23  L   67.99,  358.73 " style="stroke-width: 0.85 ;&st7; " /><path d=" M   65.16,  707.17  L   70.82,  707.17 " style="stroke-width: 0.85 ;&st7; " /><path d=" M   63.74,  704.33  L   72.24,  704.33 " style="stroke-width: 0.85 ;&st7; " /><path d=" M   59.49,  701.50  L   76.49,  701.50 " style="stroke-width: 0.85 ;&st7; " /><path d=" M  412.18,  400.65  L  416.43,  404.90  L  420.68,  400.65 " style="stroke-width: 1.42 ;&st7; " /><path d=" M  420.68,  404.05  L  416.43,  408.30  L  412.18,  404.05 " style="stroke-width: 1.42 ;&st7; " /><path d=" M  161.47,  333.23  L  161.47,  350.23  L  178.47,  350.23  L  178.47,  333.23  L  161.47,  333.23 " style="stroke-width: 1.42 ;&st7; " /><path d=" M  169.97,  350.23  L  169.97,  333.23 " style="stroke-width: 0.85 ;&st7; " /><path d=" M  161.47,  333.23  L  161.47,  350.23  L  178.47,  350.23  L  178.47,  333.23  L  161.47,  333.23 " style="stroke-width: 1.42 ;&st7; " /><path d=" M  169.97,  350.23  L  169.97,  333.23 " style="stroke-width: 0.85 ;&st7; " /><path d=" M  161.47,  596.69  L  161.47,  613.68  L  178.47,  613.68  L  178.47,  596.69  L  161.47,  596.69 " style="stroke-width: 1.42 ;&st7; " /><path d=" M  169.97,  613.68  L  169.97,  596.69 " style="stroke-width: 0.85 ;&st7; " /><path d=" M   67.99,  697.25  L   67.99,  701.50 " style="stroke-width: 0.85 ;&st7; " /><path d=" M  369.69,  400.65  L  373.94,  404.90  L  378.19,  400.65 " style="stroke-width: 1.42 ;&st7; " /><path d=" M  378.19,  404.05  L  373.94,  408.30  L  369.69,  404.05 " style="stroke-width: 1.42 ;&st7; " /><path d=" M  310.20,  400.65  L  314.45,  404.90  L  318.70,  400.65 " style="stroke-width: 1.42 ;&st7; " /><path d=" M  318.70,  404.05  L  314.45,  408.30  L  310.20,  404.05 " style="stroke-width: 1.42 ;&st7; " /><path d=" M   17.00,  341.73  L   33.99,  341.73 " style="stroke-width: 1.13 ;&st7;stroke-dasharray:3, 1.5;" /><path d=" M   17.00,  350.23  L   33.99,  350.23 " style="stroke-width: 1.13 ;&st7;stroke-dasharray:3, 1.5;" /><path d=" M   17.00,  333.23  L   17.00,  358.73  L   33.99,  358.73  L   33.99,  333.23  L   17.00,  333.23 " style="stroke-width: 1.42 ;&st7; " /><path d=" M   25.50,  333.23  L   25.50,  358.73 " style="stroke-width: 0.85 ;&st7; " /><path d=" M   25.50,  697.25  L   25.50,  701.50 " style="stroke-width: 0.85 ;&st7; " /><path d=" M   17.00,  701.50  L   33.99,  701.50 " style="stroke-width: 0.85 ;&st7; " /><path d=" M   21.25,  704.33  L   29.75,  704.33 " style="stroke-width: 0.85 ;&st7; " /><path d=" M   22.66,  707.17  L   28.33,  707.17 " style="stroke-width: 0.85 ;&st7; " /><path d=" M   24.08,  710.00  L   26.91,  710.00 " style="stroke-width: 0.85 ;&st7; " /><path d=" M  233.71,  279.41  L  229.46,  275.16  L  225.21,  279.41 " style="stroke-width: 1.42 ;&st7; " /><path d=" M  233.71,  282.80  L  229.46,  278.56  L  225.21,  282.80 " style="stroke-width: 1.42 ;&st7; " /><path d=" M  344.19,  279.41  L  339.94,  275.16  L  335.69,  279.41 " style="stroke-width: 1.42 ;&st7; " /><path d=" M  344.19,  282.80  L  339.94,  278.56  L  335.69,  282.80 " style="stroke-width: 1.42 ;&st7; " /><path d=" M  338.75,   85.77  L  338.48,   86.24  L  338.38,   86.77  L  338.48,   87.30  L  338.75,   87.77  L  339.16,   88.12  L  339.67,   88.31  L  340.22,   88.31  L  340.72,   88.12  L  341.14,   87.77  L  341.41,   87.30  L  341.50,   86.77  L  341.41,   86.24  L  341.14,   85.77  L  340.72,   85.42  L  340.22,   85.24  L  339.67,   85.24  L  339.16,   85.42  L  338.75,   85.77  L  339.14,   86.48  L  339.14,   87.06  L  339.52,   87.51  L  340.09,   87.61  L  340.59,   87.32  L  340.79,   86.77  L  340.59,   86.22  L  340.09,   85.94  L  339.52,   86.03  L  339.94,   86.77 " style="stroke-width: 0.85 ;&st7; " /><path d=" M  344.19,  494.70  C  344.19   490.01   340.39   486.20   335.69   486.20 " style="stroke-width: 0.85 ;&st7; " /><path d=" M  335.69,  486.20  C  332.85   486.20   330.41   487.46   328.76   489.78 " style="stroke-width: 0.85 ;&st7; " /><path d=" M  347.48,  494.70  C  347.48   488.19   342.20   482.92   335.69   482.92 " style="stroke-width: 0.85 ;&st7; " /><path d=" M  335.69,  482.92  C  331.74   482.92   328.37   484.66   326.09   487.88 " style="stroke-width: 0.85 ;&st7; " /><path d=" M   69.41,  466.37  C   69.41   465.59    68.77   464.96    67.99   464.96 " style="stroke-width: 0.85 ;&st7; " /><path d=" M   67.99,  464.96  C   67.21   464.96    66.57   465.59    66.57   466.37 " style="stroke-width: 0.85 ;&st7; " /><path d=" M   66.57,  466.37  C   66.57   467.16    67.21   467.79    67.99   467.79 " style="stroke-width: 0.85 ;&st7; " /><path d=" M   67.99,  467.79  C   68.77   467.79    69.41   467.16    69.41   466.37 " style="stroke-width: 0.85 ;&st7; " /><path d=" M   69.41,  489.04  C   69.41   488.25    68.77   487.62    67.99   487.62 " style="stroke-width: 0.85 ;&st7; " /><path d=" M   67.99,  487.62  C   67.21   487.62    66.57   488.25    66.57   489.04 " style="stroke-width: 0.85 ;&st7; " /><path d=" M   66.57,  489.04  C   66.57   489.82    67.21   490.45    67.99   490.45 " style="stroke-width: 0.85 ;&st7; " /><path d=" M   67.99,  490.45  C   68.77   490.45    69.41   489.82    69.41   489.04 " style="stroke-width: 0.85 ;&st7; " /><path d=" M  388.81,  108.02  C  388.81   105.67   386.91   103.77   384.56   103.77 " style="stroke-width: 1.42 ;&st7; " /><path d=" M  263.46,   47.11  C  260.72    48.72   259.81    52.25   261.42    54.99 " style="stroke-width: 1.42 ;&st7; " /><path d=" M  261.42,   54.99  C  261.94    55.87   262.57    56.51   263.46    57.03 " style="stroke-width: 1.42 ;&st7; " /><path d=" M  263.46,   66.94  C  266.19    65.33   267.11    61.80   265.49    59.06 " style="stroke-width: 1.42 ;&st7; " /><path d=" M  265.49,   59.06  C  264.97    58.18   264.34    57.55   263.46    57.03 " style="stroke-width: 1.42 ;&st7; " /><path d=" M  264.87,   45.69  C  264.87    44.91   264.24    44.28   263.46    44.28 " style="stroke-width: 0.85 ;&st7; " /><path d=" M  263.46,   44.28  C  262.67    44.28   262.04    44.91   262.04    45.69 " style="stroke-width: 0.85 ;&st7; " /><path d=" M  262.04,   45.69  C  262.04    46.48   262.67    47.11   263.46    47.11 " style="stroke-width: 0.85 ;&st7; " /><path d=" M  263.46,   47.11  C  264.24    47.11   264.87    46.48   264.87    45.69 " style="stroke-width: 0.85 ;&st7; " /><path d=" M  264.87,   68.36  C  264.87    67.57   264.24    66.94   263.46    66.94 " style="stroke-width: 0.85 ;&st7; " /><path d=" M  263.46,   66.94  C  262.67    66.94   262.04    67.57   262.04    68.36 " style="stroke-width: 0.85 ;&st7; " /><path d=" M  262.04,   68.36  C  262.04    69.14   262.67    69.77   263.46    69.77 " style="stroke-width: 0.85 ;&st7; " /><path d=" M  263.46,   69.77  C  264.24    69.77   264.87    69.14   264.87    68.36 " style="stroke-width: 0.85 ;&st7; " /><path d=" M  261.33,  103.77  C  258.98   103.77   257.08   105.67   257.08   108.02 " style="stroke-width: 1.42 ;&st7; " /><path d=" M  257.08,  108.02  C  257.08   110.36   258.98   112.27   261.33   112.27 " style="stroke-width: 1.42 ;&st7; " /><path d=" M  265.58,  112.27  C  267.93   112.27   269.83   110.36   269.83   108.02 " style="stroke-width: 1.42 ;&st7; " /><path d=" M  269.83,  108.02  C  269.83   105.67   267.93   103.77   265.58   103.77 " style="stroke-width: 1.42 ;&st7; " /><path d=" M  341.36,  191.59  C  341.36   190.80   340.73   190.17   339.94   190.17 " style="stroke-width: 0.85 ;&st7; " /><path d=" M  339.94,  190.17  C  339.16   190.17   338.53   190.80   338.53   191.59 " style="stroke-width: 0.85 ;&st7; " /><path d=" M  338.53,  191.59  C  338.53   192.37   339.16   193.00   339.94   193.00 " style="stroke-width: 0.85 ;&st7; " /><path d=" M  339.94,  193.00  C  340.73   193.00   341.36   192.37   341.36   191.59 " style="stroke-width: 0.85 ;&st7; " /><path d=" M  341.36,  168.92  C  341.36   168.14   340.73   167.51   339.94   167.51 " style="stroke-width: 0.85 ;&st7; " /><path d=" M  339.94,  167.51  C  339.16   167.51   338.53   168.14   338.53   168.92 " style="stroke-width: 0.85 ;&st7; " /><path d=" M  338.53,  168.92  C  338.53   169.71   339.16   170.34   339.94   170.34 " style="stroke-width: 0.85 ;&st7; " /><path d=" M  339.94,  170.34  C  340.73   170.34   341.36   169.71   341.36   168.92 " style="stroke-width: 0.85 ;&st7; " /><path d=" M  384.56,  112.27  C  386.91   112.27   388.81   110.36   388.81   108.02 " style="stroke-width: 1.42 ;&st7; " /><path d=" M  376.06,  108.02  C  376.06   110.36   377.96   112.27   380.31   112.27 " style="stroke-width: 1.42 ;&st7; " /><path d=" M  339.94,   47.11  C  337.21    48.72   336.29    52.25   337.91    54.99 " style="stroke-width: 1.42 ;&st7; " /><path d=" M  337.91,   54.99  C  338.43    55.87   339.06    56.51   339.94    57.03 " style="stroke-width: 1.42 ;&st7; " /><path d=" M  339.94,   66.94  C  342.68    65.33   343.59    61.80   341.98    59.06 " style="stroke-width: 1.42 ;&st7; " /><path d=" M  341.98,   59.06  C  341.46    58.18   340.83    57.55   339.94    57.03 " style="stroke-width: 1.42 ;&st7; " /><path d=" M  341.36,   45.69  C  341.36    44.91   340.73    44.28   339.94    44.28 " style="stroke-width: 0.85 ;&st7; " /><path d=" M  339.94,   44.28  C  339.16    44.28   338.53    44.91   338.53    45.69 " style="stroke-width: 0.85 ;&st7; " /><path d=" M  338.53,   45.69  C  338.53    46.48   339.16    47.11   339.94    47.11 " style="stroke-width: 0.85 ;&st7; " /><path d=" M  339.94,   47.11  C  340.73    47.11   341.36    46.48   341.36    45.69 " style="stroke-width: 0.85 ;&st7; " /><path d=" M  341.36,   68.36  C  341.36    67.57   340.73    66.94   339.94    66.94 " style="stroke-width: 0.85 ;&st7; " /><path d=" M  339.94,   66.94  C  339.16    66.94   338.53    67.57   338.53    68.36 " style="stroke-width: 0.85 ;&st7; " /><path d=" M  338.53,   68.36  C  338.53    69.14   339.16    69.77   339.94    69.77 " style="stroke-width: 0.85 ;&st7; " /><path d=" M  339.94,   69.77  C  340.73    69.77   341.36    69.14   341.36    68.36 " style="stroke-width: 0.85 ;&st7; " /><path d=" M  337.82,  103.77  C  335.47   103.77   333.57   105.67   333.57   108.02 " style="stroke-width: 1.42 ;&st7; " /><path d=" M  333.57,  108.02  C  333.57   110.36   335.47   112.27   337.82   112.27 " style="stroke-width: 1.42 ;&st7; " /><path d=" M  342.07,  112.27  C  344.41   112.27   346.32   110.36   346.32   108.02 " style="stroke-width: 1.42 ;&st7; " /><path d=" M  346.32,  108.02  C  346.32   105.67   344.41   103.77   342.07   103.77 " style="stroke-width: 1.42 ;&st7; " /><path d=" M  380.31,  103.77  C  377.96   103.77   376.06   105.67   376.06   108.02 " style="stroke-width: 1.42 ;&st7; " /><path d=" M   72.52,  618.22  C   72.52   615.71    70.49   613.68    67.99   613.68 " style="stroke-width: 1.42 ;&st7; " /><path d=" M   67.99,  613.68  C   65.49   613.68    63.46   615.71    63.46   618.22 " style="stroke-width: 1.42 ;&st7; " /><path d=" M   63.46,  618.22  C   63.46   620.72    65.49   622.75    67.99   622.75 " style="stroke-width: 1.42 ;&st7; " /><path d=" M   67.99,  622.75  C   70.49   622.75    72.52   620.72    72.52   618.22 " style="stroke-width: 1.42 ;&st7; " /><path d=" M  424.93,  477.71  C  424.93   473.01   421.12   469.21   416.43   469.21 " style="stroke-width: 1.42 ;&st7; " /><path d=" M  416.43,  469.21  C  411.74   469.21   407.93   473.01   407.93   477.71 " style="stroke-width: 1.42 ;&st7; " /><path d=" M  407.93,  477.71  C  407.93   482.40   411.74   486.20   416.43   486.20 " style="stroke-width: 1.42 ;&st7; " /><path d=" M  416.43,  486.20  C  421.12   486.20   424.93   482.40   424.93   477.71 " style="stroke-width: 1.42 ;&st7; " /><path d=" M  352.69,  481.95  C  345.65   472.57   332.33   470.67   322.95   477.71 " style="stroke-width: 0.85 ;&st7; " /><path d=" M  322.95,  477.71  C  317.40   481.86   314.45   487.78   314.45   494.70 " style="stroke-width: 0.85 ;&st7; " /><path d=" M  350.36,  484.29  C  344.61   476.19   333.38   474.28   325.28   480.04 " style="stroke-width: 0.85 ;&st7; " /><path d=" M  325.28,  480.04  C  320.36   483.53   317.71   488.67   317.71   494.70 " style="stroke-width: 0.85 ;&st7; " /><path d=" M  341.36,  503.20  C  341.36   502.42   340.73   501.78   339.94   501.78 " style="stroke-width: 0.85 ;&st7; " /><path d=" M  339.94,  501.78  C  339.16   501.78   338.53   502.42   338.53   503.20 " style="stroke-width: 0.85 ;&st7; " /><path d=" M  338.53,  503.20  C  338.53   503.98   339.16   504.62   339.94   504.62 " style="stroke-width: 0.85 ;&st7; " /><path d=" M  339.94,  504.62  C  340.73   504.62   341.36   503.98   341.36   503.20 " style="stroke-width: 0.85 ;&st7; " /><path d=" M   72.52,  583.65  C   72.52   581.15    70.49   579.12    67.99   579.12 " style="stroke-width: 1.42 ;&st7; " /><path d=" M   67.99,  579.12  C   65.49   579.12    63.46   581.15    63.46   583.65 " style="stroke-width: 1.42 ;&st7; " /><path d=" M   63.46,  583.65  C   63.46   586.16    65.49   588.19    67.99   588.19 " style="stroke-width: 1.42 ;&st7; " /><path d=" M   67.99,  588.19  C   70.49   588.19    72.52   586.16    72.52   583.65 " style="stroke-width: 1.42 ;&st7; " /><path d=" M   72.52,  328.70  C   72.52   326.19    70.49   324.16    67.99   324.16 " style="stroke-width: 1.42 ;&st7; " /><path d=" M   67.99,  324.16  C   65.49   324.16    63.46   326.19    63.46   328.70 " style="stroke-width: 1.42 ;&st7; " /><path d=" M   63.46,  328.70  C   63.46   331.20    65.49   333.23    67.99   333.23 " style="stroke-width: 1.42 ;&st7; " /><path d=" M   67.99,  333.23  C   70.49   333.23    72.52   331.20    72.52   328.70 " style="stroke-width: 1.42 ;&st7; " /><path d=" M   72.52,  363.26  C   72.52   360.75    70.49   358.73    67.99   358.73 " style="stroke-width: 1.42 ;&st7; " /><path d=" M   67.99,  358.73  C   65.49   358.73    63.46   360.75    63.46   363.26 " style="stroke-width: 1.42 ;&st7; " /><path d=" M   63.46,  363.26  C   63.46   365.76    65.49   367.79    67.99   367.79 " style="stroke-width: 1.42 ;&st7; " /><path d=" M   67.99,  367.79  C   70.49   367.79    72.52   365.76    72.52   363.26 " style="stroke-width: 1.42 ;&st7; " /><path d=" M   30.03,  328.70  C   30.03   326.19    28.00   324.16    25.50   324.16 " style="stroke-width: 1.42 ;&st7; " /><path d=" M   25.50,  324.16  C   22.99   324.16    20.96   326.19    20.96   328.70 " style="stroke-width: 1.42 ;&st7; " /><path d=" M   20.96,  328.70  C   20.96   331.20    22.99   333.23    25.50   333.23 " style="stroke-width: 1.42 ;&st7; " /><path d=" M   25.50,  333.23  C   28.00   333.23    30.03   331.20    30.03   328.70 " style="stroke-width: 1.42 ;&st7; " /><path d=" M   30.03,  363.26  C   30.03   360.75    28.00   358.73    25.50   358.73 " style="stroke-width: 1.42 ;&st7; " /><path d=" M   25.50,  358.73  C   22.99   358.73    20.96   360.75    20.96   363.26 " style="stroke-width: 1.42 ;&st7; " /><path d=" M   20.96,  363.26  C   20.96   365.76    22.99   367.79    25.50   367.79 " style="stroke-width: 1.42 ;&st7; " /><path d=" M   25.50,  367.79  C   28.00   367.79    30.03   365.76    30.03   363.26 " style="stroke-width: 1.42 ;&st7; " /><path d=" M  174.50,  592.15  C  174.50   589.65   172.47   587.62   169.97   587.62 " style="stroke-width: 1.42 ;&st7; " /><path d=" M  169.97,  587.62  C  167.47   587.62   165.44   589.65   165.44   592.15 " style="stroke-width: 1.42 ;&st7; " /><path d=" M  165.44,  592.15  C  165.44   594.66   167.47   596.69   169.97   596.69 " style="stroke-width: 1.42 ;&st7; " /><path d=" M  169.97,  596.69  C  172.47   596.69   174.50   594.66   174.50   592.15 " style="stroke-width: 1.42 ;&st7; " /><path d=" M  174.50,  618.22  C  174.50   615.71   172.47   613.68   169.97   613.68 " style="stroke-width: 1.42 ;&st7; " /><path d=" M  169.97,  613.68  C  167.47   613.68   165.44   615.71   165.44   618.22 " style="stroke-width: 1.42 ;&st7; " /><path d=" M  165.44,  618.22  C  165.44   620.72   167.47   622.75   169.97   622.75 " style="stroke-width: 1.42 ;&st7; " /><path d=" M  169.97,  622.75  C  172.47   622.75   174.50   620.72   174.50   618.22 " style="stroke-width: 1.42 ;&st7; " /><path d=" M  344.48,  158.73  C  344.48   156.22   342.45   154.19   339.94   154.19 " style="stroke-width: 1.42 ;&st7; " /><path d=" M  339.94,  154.19  C  337.44   154.19   335.41   156.22   335.41   158.73 " style="stroke-width: 1.42 ;&st7; " /><path d=" M  335.41,  158.73  C  335.41   161.23   337.44   163.26   339.94   163.26 " style="stroke-width: 1.42 ;&st7; " /><path d=" M  339.94,  163.26  C  342.45   163.26   344.48   161.23   344.48   158.73 " style="stroke-width: 1.42 ;&st7; " /><path d=" M  344.48,  149.66  C  344.48   147.16   342.45   145.13   339.94   145.13 " style="stroke-width: 1.42 ;&st7; " /><path d=" M  339.94,  145.13  C  337.44   145.13   335.41   147.16   335.41   149.66 " style="stroke-width: 1.42 ;&st7; " /><path d=" M  335.41,  149.66  C  335.41   152.16   337.44   154.19   339.94   154.19 " style="stroke-width: 1.42 ;&st7; " /><path d=" M  339.94,  154.19  C  342.45   154.19   344.48   152.16   344.48   149.66 " style="stroke-width: 1.42 ;&st7; " /><path d=" M  344.48,  201.78  C  344.48   199.28   342.45   197.25   339.94   197.25 " style="stroke-width: 1.42 ;&st7; " /><path d=" M  339.94,  197.25  C  337.44   197.25   335.41   199.28   335.41   201.78 " style="stroke-width: 1.42 ;&st7; " /><path d=" M  335.41,  201.78  C  335.41   204.29   337.44   206.32   339.94   206.32 " style="stroke-width: 1.42 ;&st7; " /><path d=" M  339.94,  206.32  C  342.45   206.32   344.48   204.29   344.48   201.78 " style="stroke-width: 1.42 ;&st7; " /><path d=" M  344.48,  210.85  C  344.48   208.35   342.45   206.32   339.94   206.32 " style="stroke-width: 1.42 ;&st7; " /><path d=" M  339.94,  206.32  C  337.44   206.32   335.41   208.35   335.41   210.85 " style="stroke-width: 1.42 ;&st7; " /><path d=" M  335.41,  210.85  C  335.41   213.35   337.44   215.38   339.94   215.38 " style="stroke-width: 1.42 ;&st7; " /><path d=" M  339.94,  215.38  C  342.45   215.38   344.48   213.35   344.48   210.85 " style="stroke-width: 1.42 ;&st7; " /><text style="&st18;" transform="matrix(&st16;  440.93  415.94 )">10</text><text style="&st18;" transform="matrix(&st16;  333.87  32.08 )">(IG)</text><text style="&st18;" transform="matrix(&st17;  75.62  398.9 )">(*3)</text><text style="&st18;" transform="matrix(&st16;  53.93  585.62 )">10</text><text style="&st18;" transform="matrix(&st16;  65.66  620.18 )">B</text><text style="&st18;" transform="matrix(&st16;  65.66  585.62 )">A</text><text style="&st18;" transform="matrix(&st16;  57.11  620.18 )">9</text><text style="&st18;" transform="matrix(&st17;  64.29  400.84 )">G-W</text><text style="&st18;" transform="matrix(&st16;  222.67  321.04 )">8</text><text style="&st18;" transform="matrix(&st17;  225.77  307.36 )">G-W</text><text style="&st18;" transform="matrix(&st16;  221.66  332.37 )">4WD</text><text ewd:textID="10" style="&st18;" transform="matrix(&st16;  351.58  182.22 )">Diff. Lock SW</text><text style="&st18;" transform="matrix(&st16;  486.1  151.06 )">R-B</text><text style="&st18;" transform="matrix(&st16;  454.05  363.53 )">M2</text><text style="&st18;" transform="matrix(&st16;  452.13  375.42 )">2</text><text style="&st18;" transform="matrix(&st16;  411.94  363.53 )">M1</text><text style="&st18;" transform="matrix(&st16;  452.13  448.52 )">2</text><text style="&st18;" transform="matrix(&st17;  455.23  390.45 )">L</text><text style="&st18;" transform="matrix(&st17;  455.23  432.94 )">L</text><text style="&st18;" transform="matrix(&st16;  409.64  375.42 )">3</text><text style="&st18;" transform="matrix(&st16;  409.64  448.52 )">3</text><text style="&st18;" transform="matrix(&st17;  412.74  396.17 )">B-W</text><text style="&st18;" transform="matrix(&st17;  412.74  438.66 )">B-W</text><text style="&st18;" transform="matrix(&st16;  365.18  363.53 )">RLY2</text><text style="&st18;" transform="matrix(&st16;  367.15  375.42 )">6</text><text style="&st18;" transform="matrix(&st16;  367.14  448.52 )">5</text><text style="&st18;" transform="matrix(&st17;  370.24  394.79 )">L-B</text><text style="&st18;" transform="matrix(&st17;  370.24  437.29 )">L-B</text><text style="&st18;" transform="matrix(&st16;  306.08  363.53 )">RLY1</text><text style="&st18;" transform="matrix(&st16;  307.66  375.42 )">9</text><text style="&st18;" transform="matrix(&st16;  307.65  448.52 )">6</text><text style="&st18;" transform="matrix(&st17;  310.75  395.22 )">L-O</text><text style="&st18;" transform="matrix(&st17;  310.75  437.43 )">L-R</text><text ewd:textID="11" style="&st18;" transform="matrix(&st17;  490.64  524.14 )">Diff. Lock Shift <tspan dy="6" x="0">Actuator Assembly</tspan></text><text style="&st18;" transform="matrix(&st16;  333.15  528.39 )">4</text><text style="&st18;" transform="matrix(&st16;  255.76  363.53 )">GND</text><text style="&st18;" transform="matrix(&st16;  256.67  375.42 )">7</text><text style="&st18;" transform="matrix(&st17;  259.76  396.17 )">W-B</text><text style="&st18;" transform="matrix(&st16;  333.15  321.04 )">4</text><text style="&st18;" transform="matrix(&st17;  336.25  306.05 )">R-B</text><text style="&st18;" transform="matrix(&st16;  337.47  332.37 )">R</text><text style="&st18;" transform="matrix(&st17;  336.25  238.06 )">R-B</text><text style="&st18;" transform="matrix(&st17;  336.25  135.73 )">R-L</text><text style="&st18;" transform="matrix(&st16;  406.45  321.04 )">10</text><text style="&st18;" transform="matrix(&st17;  412.74  272.06 )">V-R</text><text style="&st18;" transform="matrix(&st16;  409.3  332.37 )">SPD</text><text style="&st18;" transform="matrix(&st16;  230.54  56.17 )">20A <tspan dy="6" x="0">4WD</tspan></text><text style="&st18;" transform="matrix(&st16;  261.48  109.99 )">3</text><text style="&st18;" transform="matrix(&st16;  357.25  53.34 )">10A <tspan dy="6" x="0">ECU-IG&amp; </tspan><tspan dy="6" x="0">GAUGE</tspan></text><text style="&st18;" transform="matrix(&st16;  335.49  109.99 )">2R</text><text style="&st18;" transform="matrix(&st16;  323.3  109.99 )">32</text><text style="&st18;" transform="matrix(&st16;  256.67  86.47 )">2</text><text style="&st18;" transform="matrix(&st16;  486.1  125.57 )">V-R</text><text style="&st18;" transform="matrix(&st17;  378.74  136.08 )">R-B</text><text style="&st18;" transform="matrix(&st17;  126.62  222.02 )">(*12)</text><text ewd:textID="13" style="&st18;" transform="matrix(&st16;  325.67  466.93 )">Limit SW</text><text style="&st18;" transform="matrix(&st17;  483.53  524.14 )">D14</text><text style="&st18;" transform="matrix(&st16;  413.53  479.67 )">M</text><text style="&st18;" transform="matrix(&st16;  446.34  460.4 )">M2</text><text style="&st18;" transform="matrix(&st16;  404.63  460.4 )">M1</text><text style="&st18;" transform="matrix(&st16;  353.58  460.4 )">RLY2</text><text style="&st18;" transform="matrix(&st16;  294.87  460.4 )">RLY1</text><text style="&st18;" transform="matrix(&st16;  321.69  516.51 )">GND</text><text style="&st18;" transform="matrix(&st17;  237.1  307.01 )">(*12)</text><text ewd:textID="12" style="&st18;" transform="matrix(&st17;  91.2  361.25 )">Junction <tspan dy="6" x="0">Connector</tspan></text><text style="&st18;" transform="matrix(&st16;  65.66  365.23 )">B</text><text style="&st18;" transform="matrix(&st16;  65.66  330.67 )">A</text><text style="&st18;" transform="matrix(&st16;  57.11  330.67 )">9</text><text style="&st18;" transform="matrix(&st16;  53.93  365.23 )">10</text><text style="&st18;" transform="matrix(&st17;  64.29  311.61 )">G-W</text><text style="&st18;" transform="matrix(&st17;  75.62  649.61 )">(*3)</text><text style="&st18;" transform="matrix(&st17;  64.29  570.39 )">W-B</text><text style="&st18;" transform="matrix(&st17;  64.29  651.13 )">W-B</text><text style="&st18;" transform="matrix(&st17;  75.62  568.87 )">(*3)</text><text style="&st18;" transform="matrix(&st16;  257.38  32.08 )">(IG)</text><text style="&st18;" transform="matrix(&st17;  84.1  616.21 )">J45(A),J46(B)</text><text ewd:textID="12" style="&st18;" transform="matrix(&st17;  91.2  616.21 )">Junction <tspan dy="6" x="0">Connector</tspan></text><text style="&st18;" transform="matrix(&st17;  84.1  361.25 )">J45(A),J46(B)</text><text ewd:textID="8" style="&st18;" transform="matrix(&st16;  311.92  342.28 )">4WD Control ECU <tspan dy="6" x="0">(Rear Diff. Lock)</tspan></text><text style="&st18;" transform="matrix(&st16;  311.92  335.17 )">F18</text><text style="&st18;" transform="matrix(&st16;  399.21  415.94 )">11</text><text style="&st18;" transform="matrix(&st16;  163.18  358.42 )">8</text><text style="&st18;" transform="matrix(&st16;  163.18  329.54 )">9</text><text style="&st18;" transform="matrix(&st17;  177.61  656.21 )">(*2 *12)</text><text style="&st18;" transform="matrix(&st17;  177.61  575.48 )">(*2 *12)</text><text style="&st18;" transform="matrix(&st17;  166.28  651.13 )">W-B</text><text style="&st18;" transform="matrix(&st17;  177.61  316.27 )">(*2 *12)</text><text style="&st18;" transform="matrix(&st17;  166.28  311.61 )">G-W</text><text style="&st18;" transform="matrix(&st17;  166.28  400.84 )">G-W</text><text style="&st18;" transform="matrix(&st17;  177.61  405.51 )">(*2 *12)</text><text style="&st18;" transform="matrix(&st16;  355.94  415.94 )">12</text><text style="&st18;" transform="matrix(&st16;  299.63  415.94 )">4</text><text ewd:textID="12" style="&st18;" transform="matrix(&st17;  142.2  352.75 )">Junction <tspan dy="6" x="0">Connector</tspan></text><text style="&st18;" transform="matrix(&st17;  135.09  352.75 )">J41</text><text ewd:textID="12" style="&st18;" transform="matrix(&st17;  142.2  616.21 )">Junction <tspan dy="6" x="0">Connector</tspan></text><text style="&st18;" transform="matrix(&st17;  135.09  616.21 )">J41</text><text ewd:textID="12" style="&st18;" transform="matrix(&st17;  193.19  616.21 )">Junction <tspan dy="6" x="0">Connector</tspan></text><text style="&st18;" transform="matrix(&st17;  186.08  616.21 )">J 9(A)</text><text ewd:textID="12" style="&st18;" transform="matrix(&st17;  193.19  352.75 )">Junction <tspan dy="6" x="0">Connector</tspan></text><text style="&st18;" transform="matrix(&st17;  186.08  352.75 )">J 7</text><text ewd:textID="12" style="&st18;" transform="matrix(&st17;  48.71  361.25 )">Junction <tspan dy="6" x="0">Connector</tspan></text><text style="&st18;" transform="matrix(&st16;  23.16  365.23 )">A</text><text style="&st18;" transform="matrix(&st16;  23.16  330.67 )">B</text><text style="&st18;" transform="matrix(&st16;  14.62  330.67 )">7</text><text style="&st18;" transform="matrix(&st16;  12.22  365.23 )">11</text><text style="&st18;" transform="matrix(&st17;  41.61  361.25 )">J15(A),J16(B)</text><text style="&st18;" transform="matrix(&st17;  21.8  651.13 )">W-B</text><text style="&st18;" transform="matrix(&st17;  33.13  656.21 )">(*4 *12)</text><text style="&st18;" transform="matrix(&st17;  21.8  311.61 )">G-W</text><text style="&st18;" transform="matrix(&st17;  21.8  400.84 )">G-W</text><text style="&st18;" transform="matrix(&st17;  33.13  316.27 )">(*4 *12)</text><text style="&st18;" transform="matrix(&st17;  33.13  405.51 )">(*4 *12)</text><text style="&st18;" transform="matrix(&st16;  239.37  271.46 )">(*5)</text><text style="&st18;" transform="matrix(&st16;  239.37  262.96 )">(*6)</text><text style="&st18;" transform="matrix(&st16;  211.47  262.96 )">10</text><text style="&st18;" transform="matrix(&st16;  214.65  271.46 )">2</text><text style="&st18;" transform="matrix(&st16;  485.22  542.0 )">W-B</text><text style="&st18;" transform="matrix(&st16;  485.22  660.98 )">W-B</text><text style="&st18;" transform="matrix(&st17;  126.62  575.09 )">(*1 *12)</text><text style="&st18;" transform="matrix(&st17;  115.29  570.39 )">W-B</text><text style="&st18;" transform="matrix(&st17;  166.28  570.39 )">W-B</text><text style="&st18;" transform="matrix(&st16;  112.19  593.0 )">3</text><text ewd:textID="17" style="&st18;" transform="matrix(&st16;  79.63  479.67 )">Transfer Indicator SW <tspan dy="6" x="0">(L4 Position)</tspan></text><text style="&st18;" transform="matrix(&st16;  79.63  472.57 )">T 5</text><text style="&st18;" transform="matrix(&st16;  351.58  175.12 )">D12(A),D17(B)</text><text style="&st18;" transform="matrix(&st17;  115.29  222.37 )">G-W</text><text style="&st18;" transform="matrix(&st17;  75.62  309.67 )">(*3)</text><text style="&st18;" transform="matrix(&st17;  115.29  311.61 )">G-W</text><text style="&st18;" transform="matrix(&st17;  126.62  315.88 )">(*1 *12)</text><text style="&st18;" transform="matrix(&st16;  109.78  329.54 )">11</text><text style="&st18;" transform="matrix(&st16;  112.19  358.42 )">4</text><text style="&st18;" transform="matrix(&st17;  126.62  405.12 )">(*1 *12)</text><text style="&st18;" transform="matrix(&st16;  61.97  457.02 )">1</text><text style="&st18;" transform="matrix(&st16;  61.2  502.9 )">2</text><text style="&st18;" transform="matrix(&st17;  115.29  400.84 )">G-W</text><text style="&st18;" transform="matrix(&st16;  112.19  621.88 )">7</text><text style="&st18;" transform="matrix(&st16;  490.59  287.04 )">B</text><text style="&st18;" transform="matrix(&st17;  115.29  651.13 )">W-B</text><text style="&st18;" transform="matrix(&st17;  126.62  655.83 )">(*1 *12)</text><text style="&st18;" transform="matrix(&st16;  100.99  245.96 )">10</text><text style="&st18;" transform="matrix(&st17;  259.76  131.59 )">V</text><text style="&st18;" transform="matrix(&st16;  259.71  332.37 )">IG</text><text style="&st18;" transform="matrix(&st17;  259.76  301.57 )">V</text><text style="&st18;" transform="matrix(&st16;  256.66  321.04 )">5</text><text style="&st18;" transform="matrix(&st16;  365.79  109.99 )">30</text><text style="&st18;" transform="matrix(&st16;  378.13  109.99 )">2S</text><text style="&st18;" transform="matrix(&st16;  452.91  321.04 )">1</text><text style="&st18;" transform="matrix(&st16;  452.14  332.37 )">RLP</text><text style="&st18;" transform="matrix(&st16;  486.74  162.39 )">(*9)</text><text style="&st18;" transform="matrix(&st17;  390.07  135.44 )">(*9)</text><text style="&st18;" transform="matrix(&st16;  349.85  271.46 )">(*5)</text><text style="&st18;" transform="matrix(&st16;  349.85  262.96 )">(*6)</text><text style="&st18;" transform="matrix(&st16;  325.91  262.96 )">1</text><text style="&st18;" transform="matrix(&st16;  321.95  271.46 )">12</text><text style="&st18;" transform="matrix(&st16;  159.09  594.12 )">4</text><text style="&st18;" transform="matrix(&st16;  167.64  594.12 )">A</text><text style="&st18;" transform="matrix(&st16;  159.09  620.18 )">3</text><text style="&st18;" transform="matrix(&st16;  167.64  620.18 )">A</text><text style="&st18;" transform="matrix(&st16;  345.92  160.69 )">(*10)</text><text style="&st18;" transform="matrix(&st16;  329.07  160.69 )">3</text><text style="&st18;" transform="matrix(&st16;  337.61  160.69 )">B</text><text style="&st18;" transform="matrix(&st16;  345.92  151.63 )">(*9)</text><text style="&st18;" transform="matrix(&st16;  329.07  151.63 )">3</text><text style="&st18;" transform="matrix(&st16;  337.61  151.63 )">A</text><text style="&st18;" transform="matrix(&st16;  345.92  203.75 )">(*9)</text><text style="&st18;" transform="matrix(&st16;  329.07  203.75 )">4</text><text style="&st18;" transform="matrix(&st16;  337.61  203.75 )">A</text><text style="&st18;" transform="matrix(&st16;  345.92  212.82 )">(*10)</text><text style="&st18;" transform="matrix(&st16;  329.07  212.82 )">4</text><text style="&st18;" transform="matrix(&st16;  337.61  212.82 )">B</text></svg>